Mplus VERSION 5.2
MUTHEN & MUTHEN
06/08/2013  10:20 AM

INPUT INSTRUCTIONS

  TITLE:        ENEM 2011
  DATA:        FILE IS DATA.txt;
  VARIABLE:        NAMES ARE mt1-mt45,cn1-cn45,ch1-ch45,l1-l45;
                  CATEGORICAL ARE mt1 mt2 mt6 mt10 mt20-mt22 mt27 mt29
               mt34 mt38 mt40-mt44 l1-l8 l10-l12 l14-l16 l19 l25
              l26 l28 l29 l31 l35-l37 l40 l41 l45 cn2 cn3 cn6-cn8
              cn10 cn16 cn18-cn20 cn24-cn27 cn29-cn30 cn32-cn35 cn37
              cn41 cn42 cn45 ch1-ch6 ch9 ch10 ch13 ch16-ch20
              ch25-ch29 ch32 ch34 ch35 ch37-ch40 ch43-ch45;
              USEVARIABLES ARE mt1 mt2 mt6 mt10 mt20-mt22 mt27 mt29
               mt34 mt38 mt40-mt44 l1-l8 l10-l12 l14-l16 l19 l25
              l26 l28 l29 l31 l35-l37 l40 l41 l45 cn2 cn3 cn6-cn8
               cn10 cn16 cn18-cn20 cn24-cn27 cn29-cn30 cn32-cn35
               cn37 cn41 cn42 cn45 ch1-ch6 ch9 ch10 ch13 ch16-ch20
              ch25-ch29 ch32 ch34 ch35 ch37-ch40 ch43-ch45;
  MODEL:
            MT BY mt29 mt38 mt40 mt44;
            L BY l1-l8 l10-l12 l14-l16 l19 l25
              l26 l28 l29 l31 l35-l37 l40 l41 l45;
            CN BY cn2 cn6 cn16 cn20 cn42;
            CH BY ch4-ch6 ch9 ch10 ch13 ch16-ch19
              ch25 ch27-ch29 ch32 ch34 ch37-ch40 ch44;
              GERAL BY mt1 mt2 mt6 mt10 mt20-mt22 mt27 mt29
               mt34 mt38 mt40-mt44 l1-l8 l10-l12 l14-l16 l19 l25
              l26 l28 l29 l31 l35-l37 l40 l41 l45 cn2 cn3 cn6-cn8
              cn10 cn16 cn18-cn20 cn24-cn27 cn29-cn30 cn32-cn35 cn37
              cn41 cn42 cn45 ch1-ch6 ch9 ch10 ch13 ch16-ch20
              ch25-ch29 ch32 ch34 ch35 ch37-ch40 ch43-ch45;
              GERAL WITH MT@0;
              GERAL WITH L@0;
              GERAL WITH CN@0;
              GERAL WITH CH@0;
              MT WITH L@0;
              MT WITH CN@0;
              MT WITH CH@0;
              L WITH CN@0;
              L WITH CH@0;
              CN WITH CH@0;

  OUTPUT: STANDARDIZED;
          MODINDICES (1000);










INPUT READING TERMINATED NORMALLY



ENEM 2011

SUMMARY OF ANALYSIS

Number of groups                                                 1
Number of observations                                      169803

Number of dependent variables                                   95
Number of independent variables                                  0
Number of continuous latent variables                            5

Observed dependent variables

  Binary and ordered categorical (ordinal)
   MT1         MT2         MT6         MT10        MT20        MT21
   MT22        MT27        MT29        MT34        MT38        MT40
   MT41        MT42        MT43        MT44        L1          L2
   L3          L4          L5          L6          L7          L8
   L10         L11         L12         L14         L15         L16
   L19         L25         L26         L28         L29         L31
   L35         L36         L37         L40         L41         L45
   CN2         CN3         CN6         CN7         CN8         CN10
   CN16        CN18        CN19        CN20        CN24        CN25
   CN26        CN27        CN29        CN30        CN32        CN33
   CN34        CN35        CN37        CN41        CN42        CN45
   CH1         CH2         CH3         CH4         CH5         CH6
   CH9         CH10        CH13        CH16        CH17        CH18
   CH19        CH20        CH25        CH26        CH27        CH28
   CH29        CH32        CH34        CH35        CH37        CH38
   CH39        CH40        CH43        CH44        CH45

Continuous latent variables
   MT          L           CN          CH          GERAL


Estimator                                                    WLSMV
Maximum number of iterations                                  1000
Convergence criterion                                    0.500D-04
Maximum number of steepest descent iterations                   20
Parameterization                                             DELTA

Input data file(s)
  DATA.txt

Input data format  FREE


SUMMARY OF CATEGORICAL DATA PROPORTIONS

    MT1
      Category 1    0.518
      Category 2    0.482
    MT2
      Category 1    0.693
      Category 2    0.307
    MT6
      Category 1    0.570
      Category 2    0.430
    MT10
      Category 1    0.511
      Category 2    0.489
    MT20
      Category 1    0.618
      Category 2    0.382
    MT21
      Category 1    0.731
      Category 2    0.269
    MT22
      Category 1    0.679
      Category 2    0.321
    MT27
      Category 1    0.481
      Category 2    0.519
    MT29
      Category 1    0.475
      Category 2    0.525
    MT34
      Category 1    0.599
      Category 2    0.401
    MT38
      Category 1    0.322
      Category 2    0.678
    MT40
      Category 1    0.384
      Category 2    0.616
    MT41
      Category 1    0.570
      Category 2    0.430
    MT42
      Category 1    0.723
      Category 2    0.277
    MT43
      Category 1    0.532
      Category 2    0.468
    MT44
      Category 1    0.119
      Category 2    0.881
    L1
      Category 1    0.424
      Category 2    0.576
    L2
      Category 1    0.530
      Category 2    0.470
    L3
      Category 1    0.361
      Category 2    0.639
    L4
      Category 1    0.872
      Category 2    0.128
    L5
      Category 1    0.510
      Category 2    0.490
    L6
      Category 1    0.662
      Category 2    0.338
    L7
      Category 1    0.644
      Category 2    0.356
    L8
      Category 1    0.874
      Category 2    0.126
    L10
      Category 1    0.762
      Category 2    0.238
    L11
      Category 1    0.550
      Category 2    0.450
    L12
      Category 1    0.702
      Category 2    0.298
    L14
      Category 1    0.518
      Category 2    0.482
    L15
      Category 1    0.590
      Category 2    0.410
    L16
      Category 1    0.518
      Category 2    0.482
    L19
      Category 1    0.767
      Category 2    0.233
    L25
      Category 1    0.708
      Category 2    0.292
    L26
      Category 1    0.538
      Category 2    0.462
    L28
      Category 1    0.644
      Category 2    0.356
    L29
      Category 1    0.675
      Category 2    0.325
    L31
      Category 1    0.709
      Category 2    0.291
    L35
      Category 1    0.646
      Category 2    0.354
    L36
      Category 1    0.570
      Category 2    0.430
    L37
      Category 1    0.500
      Category 2    0.500
    L40
      Category 1    0.439
      Category 2    0.561
    L41
      Category 1    0.432
      Category 2    0.568
    L45
      Category 1    0.650
      Category 2    0.350
    CN2
      Category 1    0.477
      Category 2    0.523
    CN3
      Category 1    0.221
      Category 2    0.779
    CN6
      Category 1    0.756
      Category 2    0.244
    CN7
      Category 1    0.326
      Category 2    0.674
    CN8
      Category 1    0.102
      Category 2    0.898
    CN10
      Category 1    0.435
      Category 2    0.565
    CN16
      Category 1    0.453
      Category 2    0.547
    CN18
      Category 1    0.667
      Category 2    0.333
    CN19
      Category 1    0.372
      Category 2    0.628
    CN20
      Category 1    0.643
      Category 2    0.357
    CN24
      Category 1    0.506
      Category 2    0.494
    CN25
      Category 1    0.465
      Category 2    0.535
    CN26
      Category 1    0.576
      Category 2    0.424
    CN27
      Category 1    0.441
      Category 2    0.559
    CN29
      Category 1    0.596
      Category 2    0.404
    CN30
      Category 1    0.304
      Category 2    0.696
    CN32
      Category 1    0.271
      Category 2    0.729
    CN33
      Category 1    0.631
      Category 2    0.369
    CN34
      Category 1    0.666
      Category 2    0.334
    CN35
      Category 1    0.581
      Category 2    0.419
    CN37
      Category 1    0.489
      Category 2    0.511
    CN41
      Category 1    0.548
      Category 2    0.452
    CN42
      Category 1    0.798
      Category 2    0.202
    CN45
      Category 1    0.484
      Category 2    0.516
    CH1
      Category 1    0.500
      Category 2    0.500
    CH2
      Category 1    0.512
      Category 2    0.488
    CH3
      Category 1    0.500
      Category 2    0.500
    CH4
      Category 1    0.422
      Category 2    0.578
    CH5
      Category 1    0.409
      Category 2    0.591
    CH6
      Category 1    0.509
      Category 2    0.491
    CH9
      Category 1    0.233
      Category 2    0.767
    CH10
      Category 1    0.254
      Category 2    0.746
    CH13
      Category 1    0.433
      Category 2    0.567
    CH16
      Category 1    0.228
      Category 2    0.772
    CH17
      Category 1    0.380
      Category 2    0.620
    CH18
      Category 1    0.404
      Category 2    0.596
    CH19
      Category 1    0.460
      Category 2    0.540
    CH20
      Category 1    0.396
      Category 2    0.604
    CH25
      Category 1    0.378
      Category 2    0.622
    CH26
      Category 1    0.610
      Category 2    0.390
    CH27
      Category 1    0.350
      Category 2    0.650
    CH28
      Category 1    0.527
      Category 2    0.473
    CH29
      Category 1    0.526
      Category 2    0.474
    CH32
      Category 1    0.486
      Category 2    0.514
    CH34
      Category 1    0.367
      Category 2    0.633
    CH35
      Category 1    0.646
      Category 2    0.354
    CH37
      Category 1    0.374
      Category 2    0.626
    CH38
      Category 1    0.479
      Category 2    0.521
    CH39
      Category 1    0.568
      Category 2    0.432
    CH40
      Category 1    0.350
      Category 2    0.650
    CH43
      Category 1    0.542
      Category 2    0.458
    CH44
      Category 1    0.413
      Category 2    0.587
    CH45
      Category 1    0.492
      Category 2    0.508



THE MODEL ESTIMATION TERMINATED NORMALLY



TESTS OF MODEL FIT

Chi-Square Test of Model Fit

          Value                         215080.278*
          Degrees of Freedom                  3776**
          P-Value                           0.0000

*   The chi-square value for MLM, MLMV, MLR, ULSMV, WLSM and WLSMV cannot be used
    for chi-square difference tests.  MLM, MLR and WLSM chi-square difference
    testing is described in the Mplus Technical Appendices at www.statmodel.com.
    See chi-square difference testing in the index of the Mplus User's Guide.

**  The degrees of freedom for MLMV, ULSMV and WLSMV are estimated according to
    a formula given in the Mplus Technical Appendices at www.statmodel.com.
    See degrees of freedom in the index of the Mplus User's Guide.

Chi-Square Test of Model Fit for the Baseline Model

          Value                         **********
          Degrees of Freedom                   594
          P-Value                           0.0000

CFI/TLI

          CFI                                0.909
          TLI                                0.986

Number of Free Parameters                      246

RMSEA (Root Mean Square Error Of Approximation)

          Estimate                           0.018

WRMR (Weighted Root Mean Square Residual)

          Value                              6.393



MODEL RESULTS

                                                    Two-Tailed
                    Estimate       S.E.  Est./S.E.    P-Value

 MT       BY
    MT29               1.000      0.000    999.000    999.000
    MT38               2.172      0.074     29.530      0.000
    MT40               1.681      0.058     29.046      0.000
    MT44               3.097      0.107     29.017      0.000

 L        BY
    L1                 1.000      0.000    999.000    999.000
    L2                 1.168      0.016     72.248      0.000
    L3                 1.012      0.015     68.858      0.000
    L4                 0.812      0.019     43.806      0.000
    L5                 0.606      0.013     46.736      0.000
    L6                 1.098      0.017     66.276      0.000
    L7                 0.903      0.016     57.860      0.000
    L8                 0.817      0.019     43.522      0.000
    L10                1.242      0.019     66.204      0.000
    L11                1.218      0.017     71.719      0.000
    L12                0.899      0.016     55.437      0.000
    L14                1.358      0.018     76.878      0.000
    L15                1.302      0.018     73.980      0.000
    L16                1.168      0.017     69.807      0.000
    L19                0.927      0.017     53.691      0.000
    L25                0.994      0.017     58.201      0.000
    L26                1.224      0.017     70.433      0.000
    L28                1.201      0.018     67.528      0.000
    L29                0.968      0.016     58.695      0.000
    L31                1.125      0.018     63.683      0.000
    L35                1.163      0.017     66.489      0.000
    L36                0.961      0.016     60.393      0.000
    L37                1.311      0.018     73.783      0.000
    L40                1.253      0.018     71.235      0.000
    L41                1.177      0.017     70.018      0.000
    L45                1.096      0.017     64.253      0.000

 CN       BY
    CN2                1.000      0.000    999.000    999.000
    CN6                1.724      0.102     16.910      0.000
    CN16               1.008      0.063     15.912      0.000
    CN20               1.146      0.069     16.699      0.000
    CN42               1.393      0.083     16.840      0.000

 CH       BY
    CH4                1.000      0.000    999.000    999.000
    CH5                0.846      0.029     29.130      0.000
    CH6                1.171      0.037     31.331      0.000
    CH9                2.219      0.059     37.644      0.000
    CH10               1.562      0.045     34.612      0.000
    CH13               1.692      0.047     36.053      0.000
    CH16               1.842      0.053     34.803      0.000
    CH17               1.075      0.036     29.990      0.000
    CH18               0.947      0.034     27.726      0.000
    CH19               1.365      0.041     33.318      0.000
    CH25               1.494      0.044     33.725      0.000
    CH27               2.458      0.065     37.820      0.000
    CH28               1.764      0.050     35.616      0.000
    CH29               1.617      0.046     34.992      0.000
    CH32               1.653      0.047     35.200      0.000
    CH34               1.888      0.052     36.403      0.000
    CH37               1.566      0.046     34.308      0.000
    CH38               1.435      0.042     34.176      0.000
    CH39               1.298      0.040     32.302      0.000
    CH40               1.864      0.051     36.295      0.000
    CH44               1.561      0.045     34.641      0.000

 GERAL    BY
    MT1                1.000      0.000    999.000    999.000
    MT2                0.832      0.006    132.069      0.000
    MT6                0.849      0.006    146.840      0.000
    MT10               0.975      0.006    162.310      0.000
    MT20               0.746      0.006    125.901      0.000
    MT21               0.993      0.007    149.953      0.000
    MT22               0.860      0.006    135.798      0.000
    MT27               0.874      0.006    154.520      0.000
    MT29               0.740      0.006    126.152      0.000
    MT34               0.829      0.006    140.093      0.000
    MT38               0.774      0.006    135.439      0.000
    MT40               1.058      0.006    181.003      0.000
    MT41               0.748      0.006    130.061      0.000
    MT42               0.835      0.006    130.071      0.000
    MT43               0.895      0.006    154.969      0.000
    MT44               0.842      0.006    133.709      0.000
    L1                 0.833      0.006    148.046      0.000
    L2                 0.876      0.006    151.562      0.000
    L3                 0.895      0.006    158.247      0.000
    L4                 0.575      0.008     68.928      0.000
    L5                 0.920      0.006    157.197      0.000
    L6                 0.828      0.006    135.099      0.000
    L7                 0.652      0.006    109.439      0.000
    L8                 0.569      0.008     68.976      0.000
    L10                0.763      0.007    113.340      0.000
    L11                0.773      0.006    133.774      0.000
    L12                0.565      0.006     90.772      0.000
    L14                0.927      0.006    158.597      0.000
    L15                0.895      0.006    151.628      0.000
    L16                0.759      0.006    133.419      0.000
    L19                0.532      0.007     80.642      0.000
    L25                0.520      0.006     83.512      0.000
    L26                0.762      0.006    131.769      0.000
    L28                0.623      0.006    104.529      0.000
    L29                0.546      0.006     90.099      0.000
    L31                0.660      0.006    105.285      0.000
    L35                0.652      0.006    109.537      0.000
    L36                0.625      0.006    108.577      0.000
    L37                0.782      0.006    137.435      0.000
    L40                0.681      0.006    121.640      0.000
    L41                0.774      0.006    136.719      0.000
    L45                0.699      0.006    116.763      0.000
    CN2                0.756      0.006    130.925      0.000
    CN3                1.108      0.006    186.783      0.000
    CN6                0.693      0.007    103.944      0.000
    CN7                0.872      0.006    152.323      0.000
    CN8                0.790      0.007    114.710      0.000
    CN10               0.865      0.006    151.295      0.000
    CN16               0.856      0.006    151.277      0.000
    CN18               0.740      0.006    119.883      0.000
    CN19               0.842      0.006    145.471      0.000
    CN20               0.988      0.006    157.227      0.000
    CN24               0.808      0.006    141.518      0.000
    CN25               0.943      0.006    161.795      0.000
    CN26               0.821      0.006    138.471      0.000
    CN27               1.160      0.006    191.969      0.000
    CN29               0.998      0.006    163.543      0.000
    CN30               0.820      0.006    142.212      0.000
    CN32               0.683      0.006    120.083      0.000
    CN33               1.255      0.007    191.833      0.000
    CN34               0.779      0.006    126.003      0.000
    CN35               0.812      0.006    136.172      0.000
    CN37               1.026      0.006    174.791      0.000
    CN41               1.007      0.006    167.820      0.000
    CN42               0.916      0.007    126.356      0.000
    CN45               1.043      0.006    179.883      0.000
    CH1                0.851      0.006    148.614      0.000
    CH2                0.920      0.006    158.569      0.000
    CH3                0.980      0.006    169.114      0.000
    CH4                0.763      0.006    131.435      0.000
    CH5                0.859      0.006    152.390      0.000
    CH6                0.698      0.006    120.500      0.000
    CH9                1.034      0.006    176.116      0.000
    CH10               0.987      0.006    166.400      0.000
    CH13               1.000      0.006    172.627      0.000
    CH16               0.635      0.006    108.251      0.000
    CH17               0.829      0.006    147.460      0.000
    CH18               0.693      0.006    121.310      0.000
    CH19               0.876      0.006    151.552      0.000
    CH20               0.764      0.006    135.205      0.000
    CH25               0.643      0.006    113.534      0.000
    CH26               0.987      0.006    161.819      0.000
    CH27               0.826      0.006    147.219      0.000
    CH28               0.770      0.006    130.870      0.000
    CH29               0.827      0.006    141.935      0.000
    CH32               0.831      0.006    143.872      0.000
    CH34               0.900      0.006    156.705      0.000
    CH35               0.850      0.006    138.074      0.000
    CH37               0.762      0.006    135.715      0.000
    CH38               0.969      0.006    164.423      0.000
    CH39               0.804      0.006    136.199      0.000
    CH40               0.978      0.006    168.295      0.000
    CH43               0.710      0.006    119.737      0.000
    CH44               0.765      0.006    134.052      0.000
    CH45               0.687      0.006    121.024      0.000

 GERAL    WITH
    MT                 0.000      0.000    999.000    999.000
    L                  0.000      0.000    999.000    999.000
    CN                 0.000      0.000    999.000    999.000
    CH                 0.000      0.000    999.000    999.000

 MT       WITH
    L                  0.000      0.000    999.000    999.000
    CN                 0.000      0.000    999.000    999.000
    CH                 0.000      0.000    999.000    999.000

 L        WITH
    CN                 0.000      0.000    999.000    999.000
    CH                 0.000      0.000    999.000    999.000

 CN       WITH
    CH                 0.000      0.000    999.000    999.000

 Thresholds
    MT1$1              0.044      0.003     14.514      0.000
    MT2$1              0.505      0.003    158.380      0.000
    MT6$1              0.176      0.003     57.639      0.000
    MT10$1             0.029      0.003      9.423      0.000
    MT20$1             0.301      0.003     97.331      0.000
    MT21$1             0.616      0.003    188.991      0.000
    MT22$1             0.464      0.003    146.589      0.000
    MT27$1            -0.049      0.003    -16.062      0.000
    MT29$1            -0.062      0.003    -20.459      0.000
    MT34$1             0.252      0.003     81.876      0.000
    MT38$1            -0.462      0.003   -146.197      0.000
    MT40$1            -0.296      0.003    -95.741      0.000
    MT41$1             0.177      0.003     57.867      0.000
    MT42$1             0.593      0.003    182.664      0.000
    MT43$1             0.080      0.003     26.364      0.000
    MT44$1            -1.179      0.004   -298.479      0.000
    L1$1              -0.192      0.003    -62.616      0.000
    L2$1               0.074      0.003     24.336      0.000
    L3$1              -0.356      0.003   -114.357      0.000
    L4$1               1.137      0.004    293.360      0.000
    L5$1               0.025      0.003      8.190      0.000
    L6$1               0.418      0.003    132.984      0.000
    L7$1               0.369      0.003    118.485      0.000
    L8$1               1.148      0.004    294.740      0.000
    L10$1              0.713      0.003    213.386      0.000
    L11$1              0.127      0.003     41.548      0.000
    L12$1              0.529      0.003    165.281      0.000
    L14$1              0.045      0.003     14.878      0.000
    L15$1              0.228      0.003     74.220      0.000
    L16$1              0.046      0.003     15.038      0.000
    L19$1              0.730      0.003    217.571      0.000
    L25$1              0.546      0.003    170.023      0.000
    L26$1              0.095      0.003     31.134      0.000
    L28$1              0.370      0.003    118.736      0.000
    L29$1              0.453      0.003    143.358      0.000
    L31$1              0.552      0.003    171.604      0.000
    L35$1              0.374      0.003    119.920      0.000
    L36$1              0.177      0.003     57.862      0.000
    L37$1              0.001      0.003      0.332      0.740
    L40$1             -0.154      0.003    -50.504      0.000
    L41$1             -0.172      0.003    -56.127      0.000
    L45$1              0.384      0.003    122.909      0.000
    CN2$1             -0.058      0.003    -19.163      0.000
    CN3$1             -0.768      0.003   -226.459      0.000
    CN6$1              0.694      0.003    208.804      0.000
    CN7$1             -0.451      0.003   -142.917      0.000
    CN8$1             -1.268      0.004   -307.759      0.000
    CN10$1            -0.164      0.003    -53.801      0.000
    CN16$1            -0.118      0.003    -38.556      0.000
    CN18$1             0.432      0.003    137.404      0.000
    CN19$1            -0.327      0.003   -105.287      0.000
    CN20$1             0.366      0.003    117.373      0.000
    CN24$1             0.016      0.003      5.302      0.000
    CN25$1            -0.088      0.003    -28.882      0.000
    CN26$1             0.192      0.003     62.548      0.000
    CN27$1            -0.149      0.003    -48.720      0.000
    CN29$1             0.242      0.003     78.697      0.000
    CN30$1            -0.514      0.003   -160.958      0.000
    CN32$1            -0.610      0.003   -187.326      0.000
    CN33$1             0.335      0.003    107.911      0.000
    CN34$1             0.430      0.003    136.598      0.000
    CN35$1             0.205      0.003     66.782      0.000
    CN37$1            -0.027      0.003     -8.831      0.000
    CN41$1             0.119      0.003     39.176      0.000
    CN42$1             0.834      0.003    241.194      0.000
    CN45$1            -0.039      0.003    -12.893      0.000
    CH1$1             -0.001      0.003     -0.396      0.692
    CH2$1              0.030      0.003      9.894      0.000
    CH3$1             -0.001      0.003     -0.386      0.700
    CH4$1             -0.196      0.003    -64.147      0.000
    CH5$1             -0.231      0.003    -75.299      0.000
    CH6$1              0.022      0.003      7.317      0.000
    CH9$1             -0.727      0.003   -216.970      0.000
    CH10$1            -0.662      0.003   -200.940      0.000
    CH13$1            -0.169      0.003    -55.226      0.000
    CH16$1            -0.746      0.003   -221.333      0.000
    CH17$1            -0.307      0.003    -99.089      0.000
    CH18$1            -0.243      0.003    -78.919      0.000
    CH19$1            -0.100      0.003    -32.812      0.000
    CH20$1            -0.265      0.003    -86.011      0.000
    CH25$1            -0.310      0.003   -100.122      0.000
    CH26$1             0.280      0.003     90.624      0.000
    CH27$1            -0.384      0.003   -122.942      0.000
    CH28$1             0.067      0.003     21.852      0.000
    CH29$1             0.065      0.003     21.284      0.000
    CH32$1            -0.035      0.003    -11.588      0.000
    CH34$1            -0.339      0.003   -109.098      0.000
    CH35$1             0.373      0.003    119.713      0.000
    CH37$1            -0.322      0.003   -103.945      0.000
    CH38$1            -0.052      0.003    -16.984      0.000
    CH39$1             0.171      0.003     55.773      0.000
    CH40$1            -0.386      0.003   -123.630      0.000
    CH43$1             0.105      0.003     34.525      0.000
    CH44$1            -0.221      0.003    -72.022      0.000
    CH45$1            -0.019      0.003     -6.404      0.000

 Variances
    MT                 0.036      0.002     17.046      0.000
    L                  0.090      0.002     44.984      0.000
    CN                 0.033      0.003     11.262      0.000
    CH                 0.030      0.001     20.400      0.000
    GERAL              0.323      0.003    115.600      0.000


STANDARDIZED MODEL RESULTS


STDYX Standardization

                                                    Two-Tailed
                    Estimate       S.E.  Est./S.E.    P-Value

 MT       BY
    MT29               0.190      0.006     34.091      0.000
    MT38               0.412      0.007     62.063      0.000
    MT40               0.319      0.006     57.061      0.000
    MT44               0.587      0.009     64.075      0.000

 L        BY
    L1                 0.300      0.003     89.968      0.000
    L2                 0.350      0.003    106.319      0.000
    L3                 0.303      0.003     91.600      0.000
    L4                 0.243      0.005     50.716      0.000
    L5                 0.182      0.003     52.431      0.000
    L6                 0.329      0.004     92.488      0.000
    L7                 0.271      0.004     72.848      0.000
    L8                 0.245      0.005     49.780      0.000
    L10                0.372      0.004     96.141      0.000
    L11                0.365      0.003    107.763      0.000
    L12                0.270      0.004     69.741      0.000
    L14                0.407      0.003    127.972      0.000
    L15                0.391      0.003    118.216      0.000
    L16                0.350      0.003    104.561      0.000
    L19                0.278      0.004     66.221      0.000
    L25                0.298      0.004     76.635      0.000
    L26                0.367      0.003    107.937      0.000
    L28                0.360      0.004     99.296      0.000
    L29                0.290      0.004     76.312      0.000
    L31                0.337      0.004     89.803      0.000
    L35                0.349      0.004     95.673      0.000
    L36                0.288      0.004     80.330      0.000
    L37                0.393      0.003    120.079      0.000
    L40                0.376      0.003    111.946      0.000
    L41                0.353      0.003    105.834      0.000
    L45                0.329      0.004     90.638      0.000

 CN       BY
    CN2                0.181      0.008     22.523      0.000
    CN6                0.313      0.010     29.978      0.000
    CN16               0.183      0.008     23.235      0.000
    CN20               0.208      0.008     26.098      0.000
    CN42               0.253      0.009     27.080      0.000

 CH       BY
    CH4                0.172      0.004     40.800      0.000
    CH5                0.146      0.004     34.991      0.000
    CH6                0.202      0.004     47.492      0.000
    CH9                0.382      0.004     92.503      0.000
    CH10               0.269      0.004     62.850      0.000
    CH13               0.291      0.004     75.033      0.000
    CH16               0.317      0.005     66.677      0.000
    CH17               0.185      0.004     43.659      0.000
    CH18               0.163      0.004     37.709      0.000
    CH19               0.235      0.004     57.878      0.000
    CH25               0.257      0.004     59.685      0.000
    CH27               0.423      0.004    105.022      0.000
    CH28               0.304      0.004     74.201      0.000
    CH29               0.279      0.004     67.554      0.000
    CH32               0.285      0.004     69.784      0.000
    CH34               0.325      0.004     80.533      0.000
    CH37               0.270      0.004     63.755      0.000
    CH38               0.247      0.004     61.380      0.000
    CH39               0.224      0.004     52.780      0.000
    CH40               0.321      0.004     79.600      0.000
    CH44               0.269      0.004     64.799      0.000

 GERAL    BY
    MT1                0.569      0.002    231.200      0.000
    MT2                0.473      0.003    150.340      0.000
    MT6                0.483      0.003    176.844      0.000
    MT10               0.554      0.003    217.586      0.000
    MT20               0.424      0.003    143.372      0.000
    MT21               0.564      0.003    182.204      0.000
    MT22               0.489      0.003    160.679      0.000
    MT27               0.497      0.003    192.575      0.000
    MT29               0.421      0.003    148.368      0.000
    MT34               0.471      0.003    166.602      0.000
    MT38               0.440      0.003    159.934      0.000
    MT40               0.601      0.002    267.062      0.000
    MT41               0.425      0.003    148.282      0.000
    MT42               0.475      0.003    148.496      0.000
    MT43               0.509      0.003    194.185      0.000
    MT44               0.479      0.003    160.386      0.000
    L1                 0.474      0.003    180.584      0.000
    L2                 0.498      0.003    186.546      0.000
    L3                 0.509      0.003    201.517      0.000
    L4                 0.327      0.005     70.572      0.000
    L5                 0.523      0.003    201.093      0.000
    L6                 0.471      0.003    156.353      0.000
    L7                 0.371      0.003    119.490      0.000
    L8                 0.324      0.005     70.854      0.000
    L10                0.434      0.003    124.576      0.000
    L11                0.439      0.003    155.668      0.000
    L12                0.321      0.003     95.548      0.000
    L14                0.527      0.003    203.475      0.000
    L15                0.509      0.003    185.333      0.000
    L16                0.431      0.003    154.660      0.000
    L19                0.302      0.004     83.947      0.000
    L25                0.296      0.003     87.211      0.000
    L26                0.433      0.003    153.355      0.000
    L28                0.354      0.003    113.051      0.000
    L29                0.310      0.003     94.470      0.000
    L31                0.375      0.003    112.879      0.000
    L35                0.370      0.003    120.394      0.000
    L36                0.355      0.003    119.168      0.000
    L37                0.445      0.003    161.402      0.000
    L40                0.387      0.003    136.712      0.000
    L41                0.440      0.003    160.486      0.000
    L45                0.397      0.003    129.435      0.000
    CN2                0.430      0.003    154.556      0.000
    CN3                0.630      0.002    294.515      0.000
    CN6                0.394      0.004    112.526      0.000
    CN7                0.496      0.003    192.822      0.000
    CN8                0.449      0.003    130.830      0.000
    CN10               0.492      0.003    190.031      0.000
    CN16               0.487      0.003    188.320      0.000
    CN18               0.421      0.003    136.299      0.000
    CN19               0.479      0.003    179.845      0.000
    CN20               0.562      0.003    204.811      0.000
    CN24               0.459      0.003    169.924      0.000
    CN25               0.536      0.003    214.377      0.000
    CN26               0.467      0.003    166.311      0.000
    CN27               0.660      0.002    311.300      0.000
    CN29               0.567      0.003    216.538      0.000
    CN30               0.466      0.003    172.908      0.000
    CN32               0.389      0.003    136.411      0.000
    CN33               0.714      0.002    308.916      0.000
    CN34               0.443      0.003    145.236      0.000
    CN35               0.462      0.003    163.167      0.000
    CN37               0.583      0.002    244.659      0.000
    CN41               0.573      0.003    228.374      0.000
    CN42               0.521      0.004    144.251      0.000
    CN45               0.593      0.002    253.234      0.000
    CH1                0.484      0.003    183.936      0.000
    CH2                0.523      0.003    204.412      0.000
    CH3                0.557      0.002    227.494      0.000
    CH4                0.434      0.003    155.562      0.000
    CH5                0.488      0.003    191.777      0.000
    CH6                0.397      0.003    137.770      0.000
    CH9                0.588      0.002    256.696      0.000
    CH10               0.561      0.002    230.060      0.000
    CH13               0.568      0.002    241.699      0.000
    CH16               0.361      0.003    120.367      0.000
    CH17               0.471      0.003    182.064      0.000
    CH18               0.394      0.003    140.004      0.000
    CH19               0.498      0.003    191.687      0.000
    CH20               0.434      0.003    161.371      0.000
    CH25               0.365      0.003    127.332      0.000
    CH26               0.561      0.003    210.879      0.000
    CH27               0.470      0.003    182.734      0.000
    CH28               0.438      0.003    155.286      0.000
    CH29               0.470      0.003    172.182      0.000
    CH32               0.472      0.003    176.701      0.000
    CH34               0.511      0.003    202.696      0.000
    CH35               0.483      0.003    165.784      0.000
    CH37               0.434      0.003    161.623      0.000
    CH38               0.551      0.002    221.124      0.000
    CH39               0.457      0.003    162.273      0.000
    CH40               0.556      0.002    232.392      0.000
    CH43               0.404      0.003    138.983      0.000
    CH44               0.435      0.003    158.984      0.000
    CH45               0.390      0.003    138.403      0.000

 GERAL    WITH
    MT                 0.000      0.000    999.000    999.000
    L                  0.000      0.000    999.000    999.000
    CN                 0.000      0.000    999.000    999.000
    CH                 0.000      0.000    999.000    999.000

 MT       WITH
    L                  0.000      0.000    999.000    999.000
    CN                 0.000      0.000    999.000    999.000
    CH                 0.000      0.000    999.000    999.000

 L        WITH
    CN                 0.000      0.000    999.000    999.000
    CH                 0.000      0.000    999.000    999.000

 CN       WITH
    CH                 0.000      0.000    999.000    999.000

 Thresholds
    MT1$1              0.044      0.003     14.514      0.000
    MT2$1              0.505      0.003    158.380      0.000
    MT6$1              0.176      0.003     57.639      0.000
    MT10$1             0.029      0.003      9.423      0.000
    MT20$1             0.301      0.003     97.331      0.000
    MT21$1             0.616      0.003    188.991      0.000
    MT22$1             0.464      0.003    146.589      0.000
    MT27$1            -0.049      0.003    -16.062      0.000
    MT29$1            -0.062      0.003    -20.459      0.000
    MT34$1             0.252      0.003     81.876      0.000
    MT38$1            -0.462      0.003   -146.197      0.000
    MT40$1            -0.296      0.003    -95.741      0.000
    MT41$1             0.177      0.003     57.867      0.000
    MT42$1             0.593      0.003    182.664      0.000
    MT43$1             0.080      0.003     26.364      0.000
    MT44$1            -1.179      0.004   -298.479      0.000
    L1$1              -0.192      0.003    -62.616      0.000
    L2$1               0.074      0.003     24.336      0.000
    L3$1              -0.356      0.003   -114.357      0.000
    L4$1               1.137      0.004    293.360      0.000
    L5$1               0.025      0.003      8.190      0.000
    L6$1               0.418      0.003    132.984      0.000
    L7$1               0.369      0.003    118.485      0.000
    L8$1               1.148      0.004    294.740      0.000
    L10$1              0.713      0.003    213.386      0.000
    L11$1              0.127      0.003     41.548      0.000
    L12$1              0.529      0.003    165.281      0.000
    L14$1              0.045      0.003     14.878      0.000
    L15$1              0.228      0.003     74.220      0.000
    L16$1              0.046      0.003     15.038      0.000
    L19$1              0.730      0.003    217.571      0.000
    L25$1              0.546      0.003    170.023      0.000
    L26$1              0.095      0.003     31.134      0.000
    L28$1              0.370      0.003    118.736      0.000
    L29$1              0.453      0.003    143.358      0.000
    L31$1              0.552      0.003    171.604      0.000
    L35$1              0.374      0.003    119.920      0.000
    L36$1              0.177      0.003     57.862      0.000
    L37$1              0.001      0.003      0.332      0.740
    L40$1             -0.154      0.003    -50.504      0.000
    L41$1             -0.172      0.003    -56.127      0.000
    L45$1              0.384      0.003    122.909      0.000
    CN2$1             -0.058      0.003    -19.163      0.000
    CN3$1             -0.768      0.003   -226.459      0.000
    CN6$1              0.694      0.003    208.804      0.000
    CN7$1             -0.451      0.003   -142.917      0.000
    CN8$1             -1.268      0.004   -307.759      0.000
    CN10$1            -0.164      0.003    -53.801      0.000
    CN16$1            -0.118      0.003    -38.556      0.000
    CN18$1             0.432      0.003    137.404      0.000
    CN19$1            -0.327      0.003   -105.287      0.000
    CN20$1             0.366      0.003    117.373      0.000
    CN24$1             0.016      0.003      5.302      0.000
    CN25$1            -0.088      0.003    -28.882      0.000
    CN26$1             0.192      0.003     62.548      0.000
    CN27$1            -0.149      0.003    -48.720      0.000
    CN29$1             0.242      0.003     78.697      0.000
    CN30$1            -0.514      0.003   -160.958      0.000
    CN32$1            -0.610      0.003   -187.326      0.000
    CN33$1             0.335      0.003    107.911      0.000
    CN34$1             0.430      0.003    136.598      0.000
    CN35$1             0.205      0.003     66.782      0.000
    CN37$1            -0.027      0.003     -8.831      0.000
    CN41$1             0.119      0.003     39.176      0.000
    CN42$1             0.834      0.003    241.194      0.000
    CN45$1            -0.039      0.003    -12.893      0.000
    CH1$1             -0.001      0.003     -0.396      0.692
    CH2$1              0.030      0.003      9.894      0.000
    CH3$1             -0.001      0.003     -0.386      0.700
    CH4$1             -0.196      0.003    -64.147      0.000
    CH5$1             -0.231      0.003    -75.299      0.000
    CH6$1              0.022      0.003      7.317      0.000
    CH9$1             -0.727      0.003   -216.970      0.000
    CH10$1            -0.662      0.003   -200.940      0.000
    CH13$1            -0.169      0.003    -55.226      0.000
    CH16$1            -0.746      0.003   -221.333      0.000
    CH17$1            -0.307      0.003    -99.089      0.000
    CH18$1            -0.243      0.003    -78.919      0.000
    CH19$1            -0.100      0.003    -32.812      0.000
    CH20$1            -0.265      0.003    -86.011      0.000
    CH25$1            -0.310      0.003   -100.122      0.000
    CH26$1             0.280      0.003     90.624      0.000
    CH27$1            -0.384      0.003   -122.942      0.000
    CH28$1             0.067      0.003     21.852      0.000
    CH29$1             0.065      0.003     21.284      0.000
    CH32$1            -0.035      0.003    -11.588      0.000
    CH34$1            -0.339      0.003   -109.098      0.000
    CH35$1             0.373      0.003    119.713      0.000
    CH37$1            -0.322      0.003   -103.945      0.000
    CH38$1            -0.052      0.003    -16.984      0.000
    CH39$1             0.171      0.003     55.773      0.000
    CH40$1            -0.386      0.003   -123.630      0.000
    CH43$1             0.105      0.003     34.525      0.000
    CH44$1            -0.221      0.003    -72.022      0.000
    CH45$1            -0.019      0.003     -6.404      0.000

 Variances
    MT                 1.000      0.000    999.000    999.000
    L                  1.000      0.000    999.000    999.000
    CN                 1.000      0.000    999.000    999.000
    CH                 1.000      0.000    999.000    999.000
    GERAL              1.000      0.000    999.000    999.000


STDY Standardization

                                                    Two-Tailed
                    Estimate       S.E.  Est./S.E.    P-Value

 MT       BY
    MT29               0.190      0.006     34.091      0.000
    MT38               0.412      0.007     62.063      0.000
    MT40               0.319      0.006     57.061      0.000
    MT44               0.587      0.009     64.075      0.000

 L        BY
    L1                 0.300      0.003     89.968      0.000
    L2                 0.350      0.003    106.319      0.000
    L3                 0.303      0.003     91.600      0.000
    L4                 0.243      0.005     50.716      0.000
    L5                 0.182      0.003     52.431      0.000
    L6                 0.329      0.004     92.488      0.000
    L7                 0.271      0.004     72.848      0.000
    L8                 0.245      0.005     49.780      0.000
    L10                0.372      0.004     96.141      0.000
    L11                0.365      0.003    107.763      0.000
    L12                0.270      0.004     69.741      0.000
    L14                0.407      0.003    127.972      0.000
    L15                0.391      0.003    118.216      0.000
    L16                0.350      0.003    104.561      0.000
    L19                0.278      0.004     66.221      0.000
    L25                0.298      0.004     76.635      0.000
    L26                0.367      0.003    107.937      0.000
    L28                0.360      0.004     99.296      0.000
    L29                0.290      0.004     76.312      0.000
    L31                0.337      0.004     89.803      0.000
    L35                0.349      0.004     95.673      0.000
    L36                0.288      0.004     80.330      0.000
    L37                0.393      0.003    120.079      0.000
    L40                0.376      0.003    111.946      0.000
    L41                0.353      0.003    105.834      0.000
    L45                0.329      0.004     90.638      0.000

 CN       BY
    CN2                0.181      0.008     22.523      0.000
    CN6                0.313      0.010     29.978      0.000
    CN16               0.183      0.008     23.235      0.000
    CN20               0.208      0.008     26.098      0.000
    CN42               0.253      0.009     27.080      0.000

 CH       BY
    CH4                0.172      0.004     40.800      0.000
    CH5                0.146      0.004     34.991      0.000
    CH6                0.202      0.004     47.492      0.000
    CH9                0.382      0.004     92.503      0.000
    CH10               0.269      0.004     62.850      0.000
    CH13               0.291      0.004     75.033      0.000
    CH16               0.317      0.005     66.677      0.000
    CH17               0.185      0.004     43.659      0.000
    CH18               0.163      0.004     37.709      0.000
    CH19               0.235      0.004     57.878      0.000
    CH25               0.257      0.004     59.685      0.000
    CH27               0.423      0.004    105.022      0.000
    CH28               0.304      0.004     74.201      0.000
    CH29               0.279      0.004     67.554      0.000
    CH32               0.285      0.004     69.784      0.000
    CH34               0.325      0.004     80.533      0.000
    CH37               0.270      0.004     63.755      0.000
    CH38               0.247      0.004     61.380      0.000
    CH39               0.224      0.004     52.780      0.000
    CH40               0.321      0.004     79.600      0.000
    CH44               0.269      0.004     64.799      0.000

 GERAL    BY
    MT1                0.569      0.002    231.200      0.000
    MT2                0.473      0.003    150.340      0.000
    MT6                0.483      0.003    176.844      0.000
    MT10               0.554      0.003    217.586      0.000
    MT20               0.424      0.003    143.372      0.000
    MT21               0.564      0.003    182.204      0.000
    MT22               0.489      0.003    160.679      0.000
    MT27               0.497      0.003    192.575      0.000
    MT29               0.421      0.003    148.368      0.000
    MT34               0.471      0.003    166.602      0.000
    MT38               0.440      0.003    159.934      0.000
    MT40               0.601      0.002    267.062      0.000
    MT41               0.425      0.003    148.282      0.000
    MT42               0.475      0.003    148.496      0.000
    MT43               0.509      0.003    194.185      0.000
    MT44               0.479      0.003    160.386      0.000
    L1                 0.474      0.003    180.584      0.000
    L2                 0.498      0.003    186.546      0.000
    L3                 0.509      0.003    201.517      0.000
    L4                 0.327      0.005     70.572      0.000
    L5                 0.523      0.003    201.093      0.000
    L6                 0.471      0.003    156.353      0.000
    L7                 0.371      0.003    119.490      0.000
    L8                 0.324      0.005     70.854      0.000
    L10                0.434      0.003    124.576      0.000
    L11                0.439      0.003    155.668      0.000
    L12                0.321      0.003     95.548      0.000
    L14                0.527      0.003    203.475      0.000
    L15                0.509      0.003    185.333      0.000
    L16                0.431      0.003    154.660      0.000
    L19                0.302      0.004     83.947      0.000
    L25                0.296      0.003     87.211      0.000
    L26                0.433      0.003    153.355      0.000
    L28                0.354      0.003    113.051      0.000
    L29                0.310      0.003     94.470      0.000
    L31                0.375      0.003    112.879      0.000
    L35                0.370      0.003    120.394      0.000
    L36                0.355      0.003    119.168      0.000
    L37                0.445      0.003    161.402      0.000
    L40                0.387      0.003    136.712      0.000
    L41                0.440      0.003    160.486      0.000
    L45                0.397      0.003    129.435      0.000
    CN2                0.430      0.003    154.556      0.000
    CN3                0.630      0.002    294.515      0.000
    CN6                0.394      0.004    112.526      0.000
    CN7                0.496      0.003    192.822      0.000
    CN8                0.449      0.003    130.830      0.000
    CN10               0.492      0.003    190.031      0.000
    CN16               0.487      0.003    188.320      0.000
    CN18               0.421      0.003    136.299      0.000
    CN19               0.479      0.003    179.845      0.000
    CN20               0.562      0.003    204.811      0.000
    CN24               0.459      0.003    169.924      0.000
    CN25               0.536      0.003    214.377      0.000
    CN26               0.467      0.003    166.311      0.000
    CN27               0.660      0.002    311.300      0.000
    CN29               0.567      0.003    216.538      0.000
    CN30               0.466      0.003    172.908      0.000
    CN32               0.389      0.003    136.411      0.000
    CN33               0.714      0.002    308.916      0.000
    CN34               0.443      0.003    145.236      0.000
    CN35               0.462      0.003    163.167      0.000
    CN37               0.583      0.002    244.659      0.000
    CN41               0.573      0.003    228.374      0.000
    CN42               0.521      0.004    144.251      0.000
    CN45               0.593      0.002    253.234      0.000
    CH1                0.484      0.003    183.936      0.000
    CH2                0.523      0.003    204.412      0.000
    CH3                0.557      0.002    227.494      0.000
    CH4                0.434      0.003    155.562      0.000
    CH5                0.488      0.003    191.777      0.000
    CH6                0.397      0.003    137.770      0.000
    CH9                0.588      0.002    256.696      0.000
    CH10               0.561      0.002    230.060      0.000
    CH13               0.568      0.002    241.699      0.000
    CH16               0.361      0.003    120.367      0.000
    CH17               0.471      0.003    182.064      0.000
    CH18               0.394      0.003    140.004      0.000
    CH19               0.498      0.003    191.687      0.000
    CH20               0.434      0.003    161.371      0.000
    CH25               0.365      0.003    127.332      0.000
    CH26               0.561      0.003    210.879      0.000
    CH27               0.470      0.003    182.734      0.000
    CH28               0.438      0.003    155.286      0.000
    CH29               0.470      0.003    172.182      0.000
    CH32               0.472      0.003    176.701      0.000
    CH34               0.511      0.003    202.696      0.000
    CH35               0.483      0.003    165.784      0.000
    CH37               0.434      0.003    161.623      0.000
    CH38               0.551      0.002    221.124      0.000
    CH39               0.457      0.003    162.273      0.000
    CH40               0.556      0.002    232.392      0.000
    CH43               0.404      0.003    138.983      0.000
    CH44               0.435      0.003    158.984      0.000
    CH45               0.390      0.003    138.403      0.000

 GERAL    WITH
    MT                 0.000      0.000    999.000    999.000
    L                  0.000      0.000    999.000    999.000
    CN                 0.000      0.000    999.000    999.000
    CH                 0.000      0.000    999.000    999.000

 MT       WITH
    L                  0.000      0.000    999.000    999.000
    CN                 0.000      0.000    999.000    999.000
    CH                 0.000      0.000    999.000    999.000

 L        WITH
    CN                 0.000      0.000    999.000    999.000
    CH                 0.000      0.000    999.000    999.000

 CN       WITH
    CH                 0.000      0.000    999.000    999.000

 Thresholds
    MT1$1              0.044      0.003     14.514      0.000
    MT2$1              0.505      0.003    158.380      0.000
    MT6$1              0.176      0.003     57.639      0.000
    MT10$1             0.029      0.003      9.423      0.000
    MT20$1             0.301      0.003     97.331      0.000
    MT21$1             0.616      0.003    188.991      0.000
    MT22$1             0.464      0.003    146.589      0.000
    MT27$1            -0.049      0.003    -16.062      0.000
    MT29$1            -0.062      0.003    -20.459      0.000
    MT34$1             0.252      0.003     81.876      0.000
    MT38$1            -0.462      0.003   -146.197      0.000
    MT40$1            -0.296      0.003    -95.741      0.000
    MT41$1             0.177      0.003     57.867      0.000
    MT42$1             0.593      0.003    182.664      0.000
    MT43$1             0.080      0.003     26.364      0.000
    MT44$1            -1.179      0.004   -298.479      0.000
    L1$1              -0.192      0.003    -62.616      0.000
    L2$1               0.074      0.003     24.336      0.000
    L3$1              -0.356      0.003   -114.357      0.000
    L4$1               1.137      0.004    293.360      0.000
    L5$1               0.025      0.003      8.190      0.000
    L6$1               0.418      0.003    132.984      0.000
    L7$1               0.369      0.003    118.485      0.000
    L8$1               1.148      0.004    294.740      0.000
    L10$1              0.713      0.003    213.386      0.000
    L11$1              0.127      0.003     41.548      0.000
    L12$1              0.529      0.003    165.281      0.000
    L14$1              0.045      0.003     14.878      0.000
    L15$1              0.228      0.003     74.220      0.000
    L16$1              0.046      0.003     15.038      0.000
    L19$1              0.730      0.003    217.571      0.000
    L25$1              0.546      0.003    170.023      0.000
    L26$1              0.095      0.003     31.134      0.000
    L28$1              0.370      0.003    118.736      0.000
    L29$1              0.453      0.003    143.358      0.000
    L31$1              0.552      0.003    171.604      0.000
    L35$1              0.374      0.003    119.920      0.000
    L36$1              0.177      0.003     57.862      0.000
    L37$1              0.001      0.003      0.332      0.740
    L40$1             -0.154      0.003    -50.504      0.000
    L41$1             -0.172      0.003    -56.127      0.000
    L45$1              0.384      0.003    122.909      0.000
    CN2$1             -0.058      0.003    -19.163      0.000
    CN3$1             -0.768      0.003   -226.459      0.000
    CN6$1              0.694      0.003    208.804      0.000
    CN7$1             -0.451      0.003   -142.917      0.000
    CN8$1             -1.268      0.004   -307.759      0.000
    CN10$1            -0.164      0.003    -53.801      0.000
    CN16$1            -0.118      0.003    -38.556      0.000
    CN18$1             0.432      0.003    137.404      0.000
    CN19$1            -0.327      0.003   -105.287      0.000
    CN20$1             0.366      0.003    117.373      0.000
    CN24$1             0.016      0.003      5.302      0.000
    CN25$1            -0.088      0.003    -28.882      0.000
    CN26$1             0.192      0.003     62.548      0.000
    CN27$1            -0.149      0.003    -48.720      0.000
    CN29$1             0.242      0.003     78.697      0.000
    CN30$1            -0.514      0.003   -160.958      0.000
    CN32$1            -0.610      0.003   -187.326      0.000
    CN33$1             0.335      0.003    107.911      0.000
    CN34$1             0.430      0.003    136.598      0.000
    CN35$1             0.205      0.003     66.782      0.000
    CN37$1            -0.027      0.003     -8.831      0.000
    CN41$1             0.119      0.003     39.176      0.000
    CN42$1             0.834      0.003    241.194      0.000
    CN45$1            -0.039      0.003    -12.893      0.000
    CH1$1             -0.001      0.003     -0.396      0.692
    CH2$1              0.030      0.003      9.894      0.000
    CH3$1             -0.001      0.003     -0.386      0.700
    CH4$1             -0.196      0.003    -64.147      0.000
    CH5$1             -0.231      0.003    -75.299      0.000
    CH6$1              0.022      0.003      7.317      0.000
    CH9$1             -0.727      0.003   -216.970      0.000
    CH10$1            -0.662      0.003   -200.940      0.000
    CH13$1            -0.169      0.003    -55.226      0.000
    CH16$1            -0.746      0.003   -221.333      0.000
    CH17$1            -0.307      0.003    -99.089      0.000
    CH18$1            -0.243      0.003    -78.919      0.000
    CH19$1            -0.100      0.003    -32.812      0.000
    CH20$1            -0.265      0.003    -86.011      0.000
    CH25$1            -0.310      0.003   -100.122      0.000
    CH26$1             0.280      0.003     90.624      0.000
    CH27$1            -0.384      0.003   -122.942      0.000
    CH28$1             0.067      0.003     21.852      0.000
    CH29$1             0.065      0.003     21.284      0.000
    CH32$1            -0.035      0.003    -11.588      0.000
    CH34$1            -0.339      0.003   -109.098      0.000
    CH35$1             0.373      0.003    119.713      0.000
    CH37$1            -0.322      0.003   -103.945      0.000
    CH38$1            -0.052      0.003    -16.984      0.000
    CH39$1             0.171      0.003     55.773      0.000
    CH40$1            -0.386      0.003   -123.630      0.000
    CH43$1             0.105      0.003     34.525      0.000
    CH44$1            -0.221      0.003    -72.022      0.000
    CH45$1            -0.019      0.003     -6.404      0.000

 Variances
    MT                 1.000      0.000    999.000    999.000
    L                  1.000      0.000    999.000    999.000
    CN                 1.000      0.000    999.000    999.000
    CH                 1.000      0.000    999.000    999.000
    GERAL              1.000      0.000    999.000    999.000


STD Standardization

                                                    Two-Tailed
                    Estimate       S.E.  Est./S.E.    P-Value

 MT       BY
    MT29               0.190      0.006     34.091      0.000
    MT38               0.412      0.007     62.063      0.000
    MT40               0.319      0.006     57.061      0.000
    MT44               0.587      0.009     64.075      0.000

 L        BY
    L1                 0.300      0.003     89.968      0.000
    L2                 0.350      0.003    106.319      0.000
    L3                 0.303      0.003     91.600      0.000
    L4                 0.243      0.005     50.716      0.000
    L5                 0.182      0.003     52.431      0.000
    L6                 0.329      0.004     92.488      0.000
    L7                 0.271      0.004     72.848      0.000
    L8                 0.245      0.005     49.780      0.000
    L10                0.372      0.004     96.141      0.000
    L11                0.365      0.003    107.763      0.000
    L12                0.270      0.004     69.741      0.000
    L14                0.407      0.003    127.972      0.000
    L15                0.391      0.003    118.216      0.000
    L16                0.350      0.003    104.561      0.000
    L19                0.278      0.004     66.221      0.000
    L25                0.298      0.004     76.635      0.000
    L26                0.367      0.003    107.937      0.000
    L28                0.360      0.004     99.296      0.000
    L29                0.290      0.004     76.312      0.000
    L31                0.337      0.004     89.803      0.000
    L35                0.349      0.004     95.673      0.000
    L36                0.288      0.004     80.330      0.000
    L37                0.393      0.003    120.079      0.000
    L40                0.376      0.003    111.946      0.000
    L41                0.353      0.003    105.834      0.000
    L45                0.329      0.004     90.638      0.000

 CN       BY
    CN2                0.181      0.008     22.523      0.000
    CN6                0.313      0.010     29.978      0.000
    CN16               0.183      0.008     23.235      0.000
    CN20               0.208      0.008     26.098      0.000
    CN42               0.253      0.009     27.080      0.000

 CH       BY
    CH4                0.172      0.004     40.800      0.000
    CH5                0.146      0.004     34.991      0.000
    CH6                0.202      0.004     47.492      0.000
    CH9                0.382      0.004     92.503      0.000
    CH10               0.269      0.004     62.850      0.000
    CH13               0.291      0.004     75.033      0.000
    CH16               0.317      0.005     66.677      0.000
    CH17               0.185      0.004     43.659      0.000
    CH18               0.163      0.004     37.709      0.000
    CH19               0.235      0.004     57.878      0.000
    CH25               0.257      0.004     59.685      0.000
    CH27               0.423      0.004    105.022      0.000
    CH28               0.304      0.004     74.201      0.000
    CH29               0.279      0.004     67.554      0.000
    CH32               0.285      0.004     69.784      0.000
    CH34               0.325      0.004     80.533      0.000
    CH37               0.270      0.004     63.755      0.000
    CH38               0.247      0.004     61.380      0.000
    CH39               0.224      0.004     52.780      0.000
    CH40               0.321      0.004     79.600      0.000
    CH44               0.269      0.004     64.799      0.000

 GERAL    BY
    MT1                0.569      0.002    231.200      0.000
    MT2                0.473      0.003    150.340      0.000
    MT6                0.483      0.003    176.844      0.000
    MT10               0.554      0.003    217.586      0.000
    MT20               0.424      0.003    143.372      0.000
    MT21               0.564      0.003    182.204      0.000
    MT22               0.489      0.003    160.679      0.000
    MT27               0.497      0.003    192.575      0.000
    MT29               0.421      0.003    148.368      0.000
    MT34               0.471      0.003    166.602      0.000
    MT38               0.440      0.003    159.934      0.000
    MT40               0.601      0.002    267.062      0.000
    MT41               0.425      0.003    148.282      0.000
    MT42               0.475      0.003    148.496      0.000
    MT43               0.509      0.003    194.185      0.000
    MT44               0.479      0.003    160.386      0.000
    L1                 0.474      0.003    180.584      0.000
    L2                 0.498      0.003    186.546      0.000
    L3                 0.509      0.003    201.517      0.000
    L4                 0.327      0.005     70.572      0.000
    L5                 0.523      0.003    201.093      0.000
    L6                 0.471      0.003    156.353      0.000
    L7                 0.371      0.003    119.490      0.000
    L8                 0.324      0.005     70.854      0.000
    L10                0.434      0.003    124.576      0.000
    L11                0.439      0.003    155.668      0.000
    L12                0.321      0.003     95.548      0.000
    L14                0.527      0.003    203.475      0.000
    L15                0.509      0.003    185.333      0.000
    L16                0.431      0.003    154.660      0.000
    L19                0.302      0.004     83.947      0.000
    L25                0.296      0.003     87.211      0.000
    L26                0.433      0.003    153.355      0.000
    L28                0.354      0.003    113.051      0.000
    L29                0.310      0.003     94.470      0.000
    L31                0.375      0.003    112.879      0.000
    L35                0.370      0.003    120.394      0.000
    L36                0.355      0.003    119.168      0.000
    L37                0.445      0.003    161.402      0.000
    L40                0.387      0.003    136.712      0.000
    L41                0.440      0.003    160.486      0.000
    L45                0.397      0.003    129.435      0.000
    CN2                0.430      0.003    154.556      0.000
    CN3                0.630      0.002    294.515      0.000
    CN6                0.394      0.004    112.526      0.000
    CN7                0.496      0.003    192.822      0.000
    CN8                0.449      0.003    130.830      0.000
    CN10               0.492      0.003    190.031      0.000
    CN16               0.487      0.003    188.320      0.000
    CN18               0.421      0.003    136.299      0.000
    CN19               0.479      0.003    179.845      0.000
    CN20               0.562      0.003    204.811      0.000
    CN24               0.459      0.003    169.924      0.000
    CN25               0.536      0.003    214.377      0.000
    CN26               0.467      0.003    166.311      0.000
    CN27               0.660      0.002    311.300      0.000
    CN29               0.567      0.003    216.538      0.000
    CN30               0.466      0.003    172.908      0.000
    CN32               0.389      0.003    136.411      0.000
    CN33               0.714      0.002    308.916      0.000
    CN34               0.443      0.003    145.236      0.000
    CN35               0.462      0.003    163.167      0.000
    CN37               0.583      0.002    244.659      0.000
    CN41               0.573      0.003    228.374      0.000
    CN42               0.521      0.004    144.251      0.000
    CN45               0.593      0.002    253.234      0.000
    CH1                0.484      0.003    183.936      0.000
    CH2                0.523      0.003    204.412      0.000
    CH3                0.557      0.002    227.494      0.000
    CH4                0.434      0.003    155.562      0.000
    CH5                0.488      0.003    191.777      0.000
    CH6                0.397      0.003    137.770      0.000
    CH9                0.588      0.002    256.696      0.000
    CH10               0.561      0.002    230.060      0.000
    CH13               0.568      0.002    241.699      0.000
    CH16               0.361      0.003    120.367      0.000
    CH17               0.471      0.003    182.064      0.000
    CH18               0.394      0.003    140.004      0.000
    CH19               0.498      0.003    191.687      0.000
    CH20               0.434      0.003    161.371      0.000
    CH25               0.365      0.003    127.332      0.000
    CH26               0.561      0.003    210.879      0.000
    CH27               0.470      0.003    182.734      0.000
    CH28               0.438      0.003    155.286      0.000
    CH29               0.470      0.003    172.182      0.000
    CH32               0.472      0.003    176.701      0.000
    CH34               0.511      0.003    202.696      0.000
    CH35               0.483      0.003    165.784      0.000
    CH37               0.434      0.003    161.623      0.000
    CH38               0.551      0.002    221.124      0.000
    CH39               0.457      0.003    162.273      0.000
    CH40               0.556      0.002    232.392      0.000
    CH43               0.404      0.003    138.983      0.000
    CH44               0.435      0.003    158.984      0.000
    CH45               0.390      0.003    138.403      0.000

 GERAL    WITH
    MT                 0.000      0.000    999.000    999.000
    L                  0.000      0.000    999.000    999.000
    CN                 0.000      0.000    999.000    999.000
    CH                 0.000      0.000    999.000    999.000

 MT       WITH
    L                  0.000      0.000    999.000    999.000
    CN                 0.000      0.000    999.000    999.000
    CH                 0.000      0.000    999.000    999.000

 L        WITH
    CN                 0.000      0.000    999.000    999.000
    CH                 0.000      0.000    999.000    999.000

 CN       WITH
    CH                 0.000      0.000    999.000    999.000

 Thresholds
    MT1$1              0.044      0.003     14.514      0.000
    MT2$1              0.505      0.003    158.380      0.000
    MT6$1              0.176      0.003     57.639      0.000
    MT10$1             0.029      0.003      9.423      0.000
    MT20$1             0.301      0.003     97.331      0.000
    MT21$1             0.616      0.003    188.991      0.000
    MT22$1             0.464      0.003    146.589      0.000
    MT27$1            -0.049      0.003    -16.062      0.000
    MT29$1            -0.062      0.003    -20.459      0.000
    MT34$1             0.252      0.003     81.876      0.000
    MT38$1            -0.462      0.003   -146.197      0.000
    MT40$1            -0.296      0.003    -95.741      0.000
    MT41$1             0.177      0.003     57.867      0.000
    MT42$1             0.593      0.003    182.664      0.000
    MT43$1             0.080      0.003     26.364      0.000
    MT44$1            -1.179      0.004   -298.479      0.000
    L1$1              -0.192      0.003    -62.616      0.000
    L2$1               0.074      0.003     24.336      0.000
    L3$1              -0.356      0.003   -114.357      0.000
    L4$1               1.137      0.004    293.360      0.000
    L5$1               0.025      0.003      8.190      0.000
    L6$1               0.418      0.003    132.984      0.000
    L7$1               0.369      0.003    118.485      0.000
    L8$1               1.148      0.004    294.740      0.000
    L10$1              0.713      0.003    213.386      0.000
    L11$1              0.127      0.003     41.548      0.000
    L12$1              0.529      0.003    165.281      0.000
    L14$1              0.045      0.003     14.878      0.000
    L15$1              0.228      0.003     74.220      0.000
    L16$1              0.046      0.003     15.038      0.000
    L19$1              0.730      0.003    217.571      0.000
    L25$1              0.546      0.003    170.023      0.000
    L26$1              0.095      0.003     31.134      0.000
    L28$1              0.370      0.003    118.736      0.000
    L29$1              0.453      0.003    143.358      0.000
    L31$1              0.552      0.003    171.604      0.000
    L35$1              0.374      0.003    119.920      0.000
    L36$1              0.177      0.003     57.862      0.000
    L37$1              0.001      0.003      0.332      0.740
    L40$1             -0.154      0.003    -50.504      0.000
    L41$1             -0.172      0.003    -56.127      0.000
    L45$1              0.384      0.003    122.909      0.000
    CN2$1             -0.058      0.003    -19.163      0.000
    CN3$1             -0.768      0.003   -226.459      0.000
    CN6$1              0.694      0.003    208.804      0.000
    CN7$1             -0.451      0.003   -142.917      0.000
    CN8$1             -1.268      0.004   -307.759      0.000
    CN10$1            -0.164      0.003    -53.801      0.000
    CN16$1            -0.118      0.003    -38.556      0.000
    CN18$1             0.432      0.003    137.404      0.000
    CN19$1            -0.327      0.003   -105.287      0.000
    CN20$1             0.366      0.003    117.373      0.000
    CN24$1             0.016      0.003      5.302      0.000
    CN25$1            -0.088      0.003    -28.882      0.000
    CN26$1             0.192      0.003     62.548      0.000
    CN27$1            -0.149      0.003    -48.720      0.000
    CN29$1             0.242      0.003     78.697      0.000
    CN30$1            -0.514      0.003   -160.958      0.000
    CN32$1            -0.610      0.003   -187.326      0.000
    CN33$1             0.335      0.003    107.911      0.000
    CN34$1             0.430      0.003    136.598      0.000
    CN35$1             0.205      0.003     66.782      0.000
    CN37$1            -0.027      0.003     -8.831      0.000
    CN41$1             0.119      0.003     39.176      0.000
    CN42$1             0.834      0.003    241.194      0.000
    CN45$1            -0.039      0.003    -12.893      0.000
    CH1$1             -0.001      0.003     -0.396      0.692
    CH2$1              0.030      0.003      9.894      0.000
    CH3$1             -0.001      0.003     -0.386      0.700
    CH4$1             -0.196      0.003    -64.147      0.000
    CH5$1             -0.231      0.003    -75.299      0.000
    CH6$1              0.022      0.003      7.317      0.000
    CH9$1             -0.727      0.003   -216.970      0.000
    CH10$1            -0.662      0.003   -200.940      0.000
    CH13$1            -0.169      0.003    -55.226      0.000
    CH16$1            -0.746      0.003   -221.333      0.000
    CH17$1            -0.307      0.003    -99.089      0.000
    CH18$1            -0.243      0.003    -78.919      0.000
    CH19$1            -0.100      0.003    -32.812      0.000
    CH20$1            -0.265      0.003    -86.011      0.000
    CH25$1            -0.310      0.003   -100.122      0.000
    CH26$1             0.280      0.003     90.624      0.000
    CH27$1            -0.384      0.003   -122.942      0.000
    CH28$1             0.067      0.003     21.852      0.000
    CH29$1             0.065      0.003     21.284      0.000
    CH32$1            -0.035      0.003    -11.588      0.000
    CH34$1            -0.339      0.003   -109.098      0.000
    CH35$1             0.373      0.003    119.713      0.000
    CH37$1            -0.322      0.003   -103.945      0.000
    CH38$1            -0.052      0.003    -16.984      0.000
    CH39$1             0.171      0.003     55.773      0.000
    CH40$1            -0.386      0.003   -123.630      0.000
    CH43$1             0.105      0.003     34.525      0.000
    CH44$1            -0.221      0.003    -72.022      0.000
    CH45$1            -0.019      0.003     -6.404      0.000

 Variances
    MT                 1.000      0.000    999.000    999.000
    L                  1.000      0.000    999.000    999.000
    CN                 1.000      0.000    999.000    999.000
    CH                 1.000      0.000    999.000    999.000
    GERAL              1.000      0.000    999.000    999.000


R-SQUARE

    Observed                                        Two-Tailed   Residual
    Variable        Estimate       S.E.  Est./S.E.    P-Value    Variance

    MT1                0.323      0.003    115.600      0.000      0.677
    MT2                0.224      0.003     75.170      0.000      0.776
    MT6                0.233      0.003     88.422      0.000      0.767
    MT10               0.307      0.003    108.793      0.000      0.693
    MT20               0.180      0.003     71.686      0.000      0.820
    MT21               0.318      0.003     91.102      0.000      0.682
    MT22               0.239      0.003     80.340      0.000      0.761
    MT27               0.247      0.003     96.288      0.000      0.753
    MT29               0.213      0.003     70.471      0.000      0.787
    MT34               0.222      0.003     83.301      0.000      0.778
    MT38               0.363      0.006     63.409      0.000      0.637
    MT40               0.463      0.004    109.885      0.000      0.537
    MT41               0.181      0.002     74.141      0.000      0.819
    MT42               0.225      0.003     74.248      0.000      0.775
    MT43               0.259      0.003     97.092      0.000      0.741
    MT44               0.574      0.011     53.960      0.000      0.426
    L1                 0.314      0.003    122.408      0.000      0.686
    L2                 0.371      0.003    128.703      0.000      0.629
    L3                 0.351      0.002    141.692      0.000      0.649
    L4                 0.166      0.004     42.259      0.000      0.834
    L5                 0.307      0.003    113.091      0.000      0.693
    L6                 0.330      0.003    101.065      0.000      0.670
    L7                 0.211      0.003     75.663      0.000      0.789
    L8                 0.165      0.004     42.439      0.000      0.835
    L10                0.327      0.004     83.645      0.000      0.673
    L11                0.326      0.003    110.923      0.000      0.674
    L12                0.176      0.003     62.271      0.000      0.824
    L14                0.444      0.003    151.689      0.000      0.556
    L15                0.411      0.003    131.670      0.000      0.589
    L16                0.309      0.003    110.951      0.000      0.691
    L19                0.169      0.003     55.263      0.000      0.831
    L25                0.176      0.003     60.669      0.000      0.824
    L26                0.322      0.003    109.294      0.000      0.678
    L28                0.255      0.003     82.741      0.000      0.745
    L29                0.180      0.003     64.559      0.000      0.820
    L31                0.254      0.003     77.481      0.000      0.746
    L35                0.259      0.003     84.113      0.000      0.741
    L36                0.209      0.003     79.863      0.000      0.791
    L37                0.352      0.003    123.444      0.000      0.648
    L40                0.291      0.003    107.473      0.000      0.709
    L41                0.318      0.003    117.632      0.000      0.682
    L45                0.266      0.003     87.112      0.000      0.734
    CN2                0.218      0.003     62.516      0.000      0.782
    CN3                0.397      0.003    147.258      0.000      0.603
    CN6                0.253      0.007     37.037      0.000      0.747
    CN7                0.246      0.003     96.411      0.000      0.754
    CN8                0.202      0.003     65.415      0.000      0.798
    CN10               0.242      0.003     95.016      0.000      0.758
    CN16               0.270      0.003     78.882      0.000      0.730
    CN18               0.177      0.003     68.149      0.000      0.823
    CN19               0.229      0.003     89.923      0.000      0.771
    CN20               0.359      0.004     85.934      0.000      0.641
    CN24               0.211      0.002     84.962      0.000      0.789
    CN25               0.288      0.003    107.188      0.000      0.712
    CN26               0.218      0.003     83.156      0.000      0.782
    CN27               0.435      0.003    155.650      0.000      0.565
    CN29               0.322      0.003    108.269      0.000      0.678
    CN30               0.217      0.003     86.454      0.000      0.783
    CN32               0.151      0.002     68.206      0.000      0.849
    CN33               0.509      0.003    154.458      0.000      0.491
    CN34               0.196      0.003     72.618      0.000      0.804
    CN35               0.213      0.003     81.584      0.000      0.787
    CN37               0.340      0.003    122.329      0.000      0.660
    CN41               0.328      0.003    114.187      0.000      0.672
    CN42               0.335      0.006     58.651      0.000      0.665
    CN45               0.352      0.003    126.617      0.000      0.648
    CH1                0.234      0.003     91.968      0.000      0.766
    CH2                0.274      0.003    102.206      0.000      0.726
    CH3                0.310      0.003    113.747      0.000      0.690
    CH4                0.218      0.003     83.942      0.000      0.782
    CH5                0.260      0.003     99.644      0.000      0.740
    CH6                0.198      0.003     76.831      0.000      0.802
    CH9                0.492      0.003    141.092      0.000      0.508
    CH10               0.387      0.003    123.560      0.000      0.613
    CH13               0.408      0.003    132.465      0.000      0.592
    CH16               0.231      0.003     68.428      0.000      0.769
    CH17               0.256      0.003     95.879      0.000      0.744
    CH18               0.182      0.002     74.676      0.000      0.818
    CH19               0.304      0.003    104.606      0.000      0.696
    CH20               0.189      0.002     80.685      0.000      0.811
    CH25               0.200      0.003     71.912      0.000      0.800
    CH26               0.315      0.003    105.440      0.000      0.685
    CH27               0.400      0.004    109.535      0.000      0.600
    CH28               0.284      0.003     92.227      0.000      0.716
    CH29               0.299      0.003     97.017      0.000      0.701
    CH32               0.304      0.003     99.485      0.000      0.696
    CH34               0.367      0.003    114.366      0.000      0.633
    CH35               0.233      0.003     82.892      0.000      0.767
    CH37               0.261      0.003     88.937      0.000      0.739
    CH38               0.365      0.003    120.714      0.000      0.635
    CH39               0.259      0.003     88.623      0.000      0.741
    CH40               0.412      0.003    129.798      0.000      0.588
    CH43               0.163      0.002     69.492      0.000      0.837
    CH44               0.262      0.003     89.776      0.000      0.738
    CH45               0.152      0.002     69.201      0.000      0.848


QUALITY OF NUMERICAL RESULTS

     Condition Number for the Information Matrix              0.288E-06
       (ratio of smallest to largest eigenvalue)


MODEL MODIFICATION INDICES

NOTE:  Modification indices for direct effects of observed dependent variables
regressed on covariates and residual covariances among observed dependent
variables may not be included.  To include these, request MODINDICES (ALL).

Minimum M.I. value for printing the modification index  1000.000

                            M.I.     E.P.C.  Std E.P.C.  StdYX E.P.C.

BY Statements

L        BY MT1          2325.937     0.379      0.114        0.114
L        BY MT2          3531.580     0.491      0.147        0.147
L        BY MT6          1017.791     0.255      0.076        0.076
L        BY MT21         3985.904     0.528      0.158        0.158
L        BY MT22         1628.978     0.332      0.100        0.100
L        BY MT34         2026.340     0.361      0.108        0.108
L        BY MT40         1105.465     0.266      0.080        0.080
L        BY MT41         3796.389     0.493      0.148        0.148
L        BY MT42         2565.995     0.427      0.128        0.128
L        BY MT43         1638.602     0.321      0.096        0.096
L        BY CN30         1228.783    -0.296     -0.089       -0.089
L        BY CN42         1229.311     0.315      0.094        0.094
L        BY CH27         1198.463    -0.295     -0.089       -0.089
CH       BY MT2          2568.951    -0.994     -0.171       -0.171
CH       BY MT21         1313.571    -0.721     -0.124       -0.124
CH       BY MT22         1324.876    -0.706     -0.122       -0.122
CH       BY MT34         1211.888    -0.656     -0.113       -0.113
CH       BY MT42         1023.267    -0.638     -0.110       -0.110
CH       BY MT43         2026.294    -0.837     -0.144       -0.144
CH       BY MT44         1293.760     0.848      0.146        0.146
CH       BY L4           1110.630    -0.832     -0.143       -0.143
CH       BY L6           1171.132    -0.680     -0.117       -0.117
CH       BY L8           1266.575    -0.893     -0.154       -0.154
CH       BY L10          1109.229    -0.709     -0.122       -0.122
CH       BY CN3          1246.386     0.697      0.120        0.120
CH       BY CN6          3039.681    -1.144     -0.197       -0.197
CH       BY CN27         1130.562     0.601      0.103        0.103
CH       BY CN30         2326.352     0.920      0.159        0.159
CH       BY CN32         1006.961     0.626      0.108        0.108
CH       BY CN42         1102.162    -0.709     -0.122       -0.122
CH       BY CH1          1042.495     0.594      0.102        0.102
CH       BY CH2          1757.007     0.766      0.132        0.132
CH       BY CH20         1894.973     0.810      0.140        0.140
CH       BY CH26         1196.856     0.638      0.110        0.110
CH       BY CH35         1426.169     0.713      0.123        0.123
CH       BY CH43         2048.132     0.839      0.145        0.145
CH       BY CH45         1919.244     0.811      0.140        0.140

ON/BY Statements

MT       ON CN       /
CN       BY MT           1186.888    -0.384     -0.367       -0.367
MT       ON CH       /
CH       BY MT           2297.153     0.241      0.219        0.219
L        ON CH       /
CH       BY L            8426.905    -0.389     -0.223       -0.223
CN       ON MT       /
MT       BY CN           1186.888    -0.351     -0.367       -0.367
CN       ON CH       /
CH       BY CN           1580.196    -0.286     -0.271       -0.271
CH       ON MT       /
MT       BY CH           2297.153     0.199      0.219        0.219
CH       ON L        /
L        BY CH           8426.905    -0.128     -0.223       -0.223
CH       ON CN       /
CN       BY CH           1580.196    -0.258     -0.271       -0.271

WITH Statements

CN       WITH MT         1186.888    -0.013     -0.367       -0.367
CH       WITH MT         2297.153     0.007      0.219        0.219
CH       WITH L          8426.905    -0.012     -0.223       -0.223
CH       WITH CN         1580.196    -0.008     -0.271       -0.271


     Beginning Time:  10:20:55
        Ending Time:  11:00:01
       Elapsed Time:  00:39:06



MUTHEN & MUTHEN
3463 Stoner Ave.
Los Angeles, CA  90066

Tel: (310) 391-9971
Fax: (310) 391-8971
Web: www.StatModel.com
Support: Support@StatModel.com

Copyright (c) 1998-2008 Muthen & Muthen
