Mplus VERSION 5.2
MUTHEN & MUTHEN
06/06/2013   6:47 PM

INPUT INSTRUCTIONS

  TITLE:        ENEM 2011
  DATA:        FILE IS DATA.txt;
  VARIABLE:        NAMES ARE mt1-mt45,cn1-cn45,ch1-ch45,l1-l45;
                  CATEGORICAL ARE ch1-ch6 ch9 ch10 ch13 ch16-ch20
              ch25-ch29 ch32 ch34 ch35 ch37-ch40 ch43-ch45;
              USEVARIABLES ARE ch1-ch6 ch9 ch10 ch13 ch16-ch20
              ch25-ch29 ch32 ch34 ch35 ch37-ch40 ch43-ch45;
  MODEL:
           CH BY ch1-ch6 ch9 ch10 ch13 ch16-ch20
              ch25-ch29 ch32 ch34 ch35 ch37-ch40 ch43-ch45;


  OUTPUT: STANDARDIZED;










INPUT READING TERMINATED NORMALLY



ENEM 2011

SUMMARY OF ANALYSIS

Number of groups                                                 1
Number of observations                                      169803

Number of dependent variables                                   29
Number of independent variables                                  0
Number of continuous latent variables                            1

Observed dependent variables

  Binary and ordered categorical (ordinal)
   CH1         CH2         CH3         CH4         CH5         CH6
   CH9         CH10        CH13        CH16        CH17        CH18
   CH19        CH20        CH25        CH26        CH27        CH28
   CH29        CH32        CH34        CH35        CH37        CH38
   CH39        CH40        CH43        CH44        CH45

Continuous latent variables
   CH


Estimator                                                    WLSMV
Maximum number of iterations                                  1000
Convergence criterion                                    0.500D-04
Maximum number of steepest descent iterations                   20
Parameterization                                             DELTA

Input data file(s)
  DATA.txt

Input data format  FREE


SUMMARY OF CATEGORICAL DATA PROPORTIONS

    CH1
      Category 1    0.500
      Category 2    0.500
    CH2
      Category 1    0.512
      Category 2    0.488
    CH3
      Category 1    0.500
      Category 2    0.500
    CH4
      Category 1    0.422
      Category 2    0.578
    CH5
      Category 1    0.409
      Category 2    0.591
    CH6
      Category 1    0.509
      Category 2    0.491
    CH9
      Category 1    0.233
      Category 2    0.767
    CH10
      Category 1    0.254
      Category 2    0.746
    CH13
      Category 1    0.433
      Category 2    0.567
    CH16
      Category 1    0.228
      Category 2    0.772
    CH17
      Category 1    0.380
      Category 2    0.620
    CH18
      Category 1    0.404
      Category 2    0.596
    CH19
      Category 1    0.460
      Category 2    0.540
    CH20
      Category 1    0.396
      Category 2    0.604
    CH25
      Category 1    0.378
      Category 2    0.622
    CH26
      Category 1    0.610
      Category 2    0.390
    CH27
      Category 1    0.350
      Category 2    0.650
    CH28
      Category 1    0.527
      Category 2    0.473
    CH29
      Category 1    0.526
      Category 2    0.474
    CH32
      Category 1    0.486
      Category 2    0.514
    CH34
      Category 1    0.367
      Category 2    0.633
    CH35
      Category 1    0.646
      Category 2    0.354
    CH37
      Category 1    0.374
      Category 2    0.626
    CH38
      Category 1    0.479
      Category 2    0.521
    CH39
      Category 1    0.568
      Category 2    0.432
    CH40
      Category 1    0.350
      Category 2    0.650
    CH43
      Category 1    0.542
      Category 2    0.458
    CH44
      Category 1    0.413
      Category 2    0.587
    CH45
      Category 1    0.492
      Category 2    0.508



THE MODEL ESTIMATION TERMINATED NORMALLY



TESTS OF MODEL FIT

Chi-Square Test of Model Fit

          Value                          35380.051*
          Degrees of Freedom                   364**
          P-Value                           0.0000

*   The chi-square value for MLM, MLMV, MLR, ULSMV, WLSM and WLSMV cannot be used
    for chi-square difference tests.  MLM, MLR and WLSM chi-square difference
    testing is described in the Mplus Technical Appendices at www.statmodel.com.
    See chi-square difference testing in the index of the Mplus User's Guide.

**  The degrees of freedom for MLMV, ULSMV and WLSMV are estimated according to
    a formula given in the Mplus Technical Appendices at www.statmodel.com.
    See degrees of freedom in the index of the Mplus User's Guide.

Chi-Square Test of Model Fit for the Baseline Model

          Value                         952265.009
          Degrees of Freedom                   168
          P-Value                           0.0000

CFI/TLI

          CFI                                0.963
          TLI                                0.983

Number of Free Parameters                       58

RMSEA (Root Mean Square Error Of Approximation)

          Estimate                           0.024

WRMR (Weighted Root Mean Square Residual)

          Value                              7.902



MODEL RESULTS

                                                    Two-Tailed
                    Estimate       S.E.  Est./S.E.    P-Value

 CH       BY
    CH1                1.000      0.000    999.000    999.000
    CH2                1.089      0.008    141.171      0.000
    CH3                1.057      0.008    135.442      0.000
    CH4                1.005      0.008    130.323      0.000
    CH5                1.097      0.008    144.504      0.000
    CH6                0.902      0.008    118.376      0.000
    CH9                1.414      0.009    155.123      0.000
    CH10               1.266      0.009    146.289      0.000
    CH13               1.302      0.009    151.209      0.000
    CH16               0.941      0.008    116.119      0.000
    CH17               1.029      0.008    130.347      0.000
    CH18               0.874      0.008    115.602      0.000
    CH19               1.117      0.008    137.169      0.000
    CH20               0.883      0.008    116.617      0.000
    CH25               0.896      0.008    116.846      0.000
    CH26               1.100      0.008    132.967      0.000
    CH27               1.226      0.008    144.678      0.000
    CH28               1.061      0.008    130.905      0.000
    CH29               1.106      0.008    134.614      0.000
    CH32               1.108      0.008    135.594      0.000
    CH34               1.217      0.008    144.422      0.000
    CH35               0.968      0.008    119.005      0.000
    CH37               1.029      0.008    130.568      0.000
    CH38               1.234      0.009    145.188      0.000
    CH39               1.045      0.008    128.680      0.000
    CH40               1.298      0.009    149.999      0.000
    CH43               0.828      0.008    108.826      0.000
    CH44               1.026      0.008    129.620      0.000
    CH45               0.807      0.007    109.350      0.000

 Thresholds
    CH1$1             -0.001      0.003     -0.396      0.692
    CH2$1              0.030      0.003      9.894      0.000
    CH3$1             -0.001      0.003     -0.386      0.700
    CH4$1             -0.196      0.003    -64.147      0.000
    CH5$1             -0.231      0.003    -75.299      0.000
    CH6$1              0.022      0.003      7.317      0.000
    CH9$1             -0.727      0.003   -216.970      0.000
    CH10$1            -0.662      0.003   -200.940      0.000
    CH13$1            -0.169      0.003    -55.226      0.000
    CH16$1            -0.746      0.003   -221.333      0.000
    CH17$1            -0.307      0.003    -99.089      0.000
    CH18$1            -0.243      0.003    -78.919      0.000
    CH19$1            -0.100      0.003    -32.812      0.000
    CH20$1            -0.265      0.003    -86.011      0.000
    CH25$1            -0.310      0.003   -100.122      0.000
    CH26$1             0.280      0.003     90.624      0.000
    CH27$1            -0.384      0.003   -122.942      0.000
    CH28$1             0.067      0.003     21.852      0.000
    CH29$1             0.065      0.003     21.284      0.000
    CH32$1            -0.035      0.003    -11.588      0.000
    CH34$1            -0.339      0.003   -109.098      0.000
    CH35$1             0.373      0.003    119.713      0.000
    CH37$1            -0.322      0.003   -103.945      0.000
    CH38$1            -0.052      0.003    -16.984      0.000
    CH39$1             0.171      0.003     55.773      0.000
    CH40$1            -0.386      0.003   -123.630      0.000
    CH43$1             0.105      0.003     34.525      0.000
    CH44$1            -0.221      0.003    -72.022      0.000
    CH45$1            -0.019      0.003     -6.404      0.000

 Variances
    CH                 0.240      0.003     88.318      0.000


IRT PARAMETERIZATION IN TWO-PARAMETER PROBIT METRIC
WHERE THE PROBIT IS DISCRIMINATION*(THETA - DIFFICULTY)

 Item Discriminations

 CH       BY
    CH1                0.562      0.004    134.284      0.000
    CH2                0.630      0.004    141.450      0.000
    CH3                0.605      0.004    139.187      0.000
    CH4                0.565      0.004    134.239      0.000
    CH5                0.637      0.004    145.369      0.000
    CH6                0.492      0.004    123.226      0.000
    CH9                0.960      0.006    158.818      0.000
    CH10               0.790      0.005    151.685      0.000
    CH13               0.828      0.005    159.529      0.000
    CH16               0.520      0.004    118.503      0.000
    CH17               0.583      0.004    138.035      0.000
    CH18               0.474      0.004    120.445      0.000
    CH19               0.654      0.005    144.910      0.000
    CH20               0.479      0.004    122.358      0.000
    CH25               0.488      0.004    121.930      0.000
    CH26               0.639      0.005    133.767      0.000
    CH27               0.750      0.005    154.854      0.000
    CH28               0.608      0.004    138.186      0.000
    CH29               0.644      0.005    140.623      0.000
    CH32               0.646      0.005    143.088      0.000
    CH34               0.742      0.005    153.307      0.000
    CH35               0.538      0.004    120.213      0.000
    CH37               0.583      0.004    137.763      0.000
    CH38               0.759      0.005    152.369      0.000
    CH39               0.595      0.004    132.601      0.000
    CH40               0.823      0.005    159.713      0.000
    CH43               0.444      0.004    113.523      0.000
    CH44               0.581      0.004    137.135      0.000
    CH45               0.430      0.004    113.042      0.000

 Item Difficulties
    CH1$1             -0.002      0.006     -0.396      0.692
    CH2$1              0.056      0.006      9.894      0.000
    CH3$1             -0.002      0.006     -0.386      0.700
    CH4$1             -0.399      0.007    -59.616      0.000
    CH5$1             -0.430      0.006    -69.447      0.000
    CH6$1              0.050      0.007      7.309      0.000
    CH9$1             -1.051      0.006   -166.102      0.000
    CH10$1            -1.069      0.007   -147.659      0.000
    CH13$1            -0.265      0.005    -53.443      0.000
    CH16$1            -1.618      0.013   -119.848      0.000
    CH17$1            -0.608      0.007    -85.348      0.000
    CH18$1            -0.567      0.008    -68.636      0.000
    CH19$1            -0.183      0.006    -32.245      0.000
    CH20$1            -0.613      0.008    -73.358      0.000
    CH25$1            -0.706      0.009    -82.003      0.000
    CH26$1             0.519      0.006     81.748      0.000
    CH27$1            -0.640      0.006   -106.136      0.000
    CH28$1             0.128      0.006     21.711      0.000
    CH29$1             0.120      0.006     21.205      0.000
    CH32$1            -0.065      0.006    -11.546      0.000
    CH34$1            -0.569      0.006    -96.473      0.000
    CH35$1             0.788      0.008     94.076      0.000
    CH37$1            -0.640      0.007    -88.478      0.000
    CH38$1            -0.085      0.005    -16.885      0.000
    CH39$1             0.333      0.006     53.495      0.000
    CH40$1            -0.608      0.006   -108.628      0.000
    CH43$1             0.259      0.008     33.399      0.000
    CH44$1            -0.440      0.007    -66.158      0.000
    CH45$1            -0.049      0.008     -6.390      0.000

 Variances
    CH                 1.000      0.000      0.000      1.000


STANDARDIZED MODEL RESULTS


STDYX Standardization

                                                    Two-Tailed
                    Estimate       S.E.  Est./S.E.    P-Value

 CH       BY
    CH1                0.490      0.003    176.635      0.000
    CH2                0.533      0.003    197.590      0.000
    CH3                0.517      0.003    190.056      0.000
    CH4                0.492      0.003    177.103      0.000
    CH5                0.537      0.003    204.375      0.000
    CH6                0.442      0.003    153.083      0.000
    CH9                0.692      0.002    305.039      0.000
    CH10               0.620      0.003    246.346      0.000
    CH13               0.638      0.002    268.784      0.000
    CH16               0.461      0.003    150.485      0.000
    CH17               0.504      0.003    185.001      0.000
    CH18               0.428      0.003    147.459      0.000
    CH19               0.547      0.003    206.837      0.000
    CH20               0.432      0.003    150.486      0.000
    CH25               0.439      0.003    150.999      0.000
    CH26               0.539      0.003    188.408      0.000
    CH27               0.600      0.002    242.011      0.000
    CH28               0.519      0.003    189.253      0.000
    CH29               0.541      0.003    198.924      0.000
    CH32               0.543      0.003    202.805      0.000
    CH34               0.596      0.003    237.625      0.000
    CH35               0.474      0.003    155.009      0.000
    CH37               0.504      0.003    184.612      0.000
    CH38               0.604      0.003    240.102      0.000
    CH39               0.512      0.003    179.608      0.000
    CH40               0.636      0.002    267.964      0.000
    CH43               0.406      0.003    135.882      0.000
    CH44               0.502      0.003    183.436      0.000
    CH45               0.395      0.003    133.933      0.000

 Thresholds
    CH1$1             -0.001      0.003     -0.396      0.692
    CH2$1              0.030      0.003      9.894      0.000
    CH3$1             -0.001      0.003     -0.386      0.700
    CH4$1             -0.196      0.003    -64.147      0.000
    CH5$1             -0.231      0.003    -75.299      0.000
    CH6$1              0.022      0.003      7.317      0.000
    CH9$1             -0.727      0.003   -216.970      0.000
    CH10$1            -0.662      0.003   -200.940      0.000
    CH13$1            -0.169      0.003    -55.226      0.000
    CH16$1            -0.746      0.003   -221.333      0.000
    CH17$1            -0.307      0.003    -99.089      0.000
    CH18$1            -0.243      0.003    -78.919      0.000
    CH19$1            -0.100      0.003    -32.812      0.000
    CH20$1            -0.265      0.003    -86.011      0.000
    CH25$1            -0.310      0.003   -100.122      0.000
    CH26$1             0.280      0.003     90.624      0.000
    CH27$1            -0.384      0.003   -122.942      0.000
    CH28$1             0.067      0.003     21.852      0.000
    CH29$1             0.065      0.003     21.284      0.000
    CH32$1            -0.035      0.003    -11.588      0.000
    CH34$1            -0.339      0.003   -109.098      0.000
    CH35$1             0.373      0.003    119.713      0.000
    CH37$1            -0.322      0.003   -103.945      0.000
    CH38$1            -0.052      0.003    -16.984      0.000
    CH39$1             0.171      0.003     55.773      0.000
    CH40$1            -0.386      0.003   -123.630      0.000
    CH43$1             0.105      0.003     34.525      0.000
    CH44$1            -0.221      0.003    -72.022      0.000
    CH45$1            -0.019      0.003     -6.404      0.000

 Variances
    CH                 1.000      0.000    999.000    999.000


STDY Standardization

                                                    Two-Tailed
                    Estimate       S.E.  Est./S.E.    P-Value

 CH       BY
    CH1                0.490      0.003    176.635      0.000
    CH2                0.533      0.003    197.590      0.000
    CH3                0.517      0.003    190.056      0.000
    CH4                0.492      0.003    177.103      0.000
    CH5                0.537      0.003    204.375      0.000
    CH6                0.442      0.003    153.083      0.000
    CH9                0.692      0.002    305.039      0.000
    CH10               0.620      0.003    246.346      0.000
    CH13               0.638      0.002    268.784      0.000
    CH16               0.461      0.003    150.485      0.000
    CH17               0.504      0.003    185.001      0.000
    CH18               0.428      0.003    147.459      0.000
    CH19               0.547      0.003    206.837      0.000
    CH20               0.432      0.003    150.486      0.000
    CH25               0.439      0.003    150.999      0.000
    CH26               0.539      0.003    188.408      0.000
    CH27               0.600      0.002    242.011      0.000
    CH28               0.519      0.003    189.253      0.000
    CH29               0.541      0.003    198.924      0.000
    CH32               0.543      0.003    202.805      0.000
    CH34               0.596      0.003    237.625      0.000
    CH35               0.474      0.003    155.009      0.000
    CH37               0.504      0.003    184.612      0.000
    CH38               0.604      0.003    240.102      0.000
    CH39               0.512      0.003    179.608      0.000
    CH40               0.636      0.002    267.964      0.000
    CH43               0.406      0.003    135.882      0.000
    CH44               0.502      0.003    183.436      0.000
    CH45               0.395      0.003    133.933      0.000

 Thresholds
    CH1$1             -0.001      0.003     -0.396      0.692
    CH2$1              0.030      0.003      9.894      0.000
    CH3$1             -0.001      0.003     -0.386      0.700
    CH4$1             -0.196      0.003    -64.147      0.000
    CH5$1             -0.231      0.003    -75.299      0.000
    CH6$1              0.022      0.003      7.317      0.000
    CH9$1             -0.727      0.003   -216.970      0.000
    CH10$1            -0.662      0.003   -200.940      0.000
    CH13$1            -0.169      0.003    -55.226      0.000
    CH16$1            -0.746      0.003   -221.333      0.000
    CH17$1            -0.307      0.003    -99.089      0.000
    CH18$1            -0.243      0.003    -78.919      0.000
    CH19$1            -0.100      0.003    -32.812      0.000
    CH20$1            -0.265      0.003    -86.011      0.000
    CH25$1            -0.310      0.003   -100.122      0.000
    CH26$1             0.280      0.003     90.624      0.000
    CH27$1            -0.384      0.003   -122.942      0.000
    CH28$1             0.067      0.003     21.852      0.000
    CH29$1             0.065      0.003     21.284      0.000
    CH32$1            -0.035      0.003    -11.588      0.000
    CH34$1            -0.339      0.003   -109.098      0.000
    CH35$1             0.373      0.003    119.713      0.000
    CH37$1            -0.322      0.003   -103.945      0.000
    CH38$1            -0.052      0.003    -16.984      0.000
    CH39$1             0.171      0.003     55.773      0.000
    CH40$1            -0.386      0.003   -123.630      0.000
    CH43$1             0.105      0.003     34.525      0.000
    CH44$1            -0.221      0.003    -72.022      0.000
    CH45$1            -0.019      0.003     -6.404      0.000

 Variances
    CH                 1.000      0.000    999.000    999.000


STD Standardization

                                                    Two-Tailed
                    Estimate       S.E.  Est./S.E.    P-Value

 CH       BY
    CH1                0.490      0.003    176.635      0.000
    CH2                0.533      0.003    197.590      0.000
    CH3                0.517      0.003    190.056      0.000
    CH4                0.492      0.003    177.103      0.000
    CH5                0.537      0.003    204.375      0.000
    CH6                0.442      0.003    153.083      0.000
    CH9                0.692      0.002    305.039      0.000
    CH10               0.620      0.003    246.346      0.000
    CH13               0.638      0.002    268.784      0.000
    CH16               0.461      0.003    150.485      0.000
    CH17               0.504      0.003    185.001      0.000
    CH18               0.428      0.003    147.459      0.000
    CH19               0.547      0.003    206.837      0.000
    CH20               0.432      0.003    150.486      0.000
    CH25               0.439      0.003    150.999      0.000
    CH26               0.539      0.003    188.408      0.000
    CH27               0.600      0.002    242.011      0.000
    CH28               0.519      0.003    189.253      0.000
    CH29               0.541      0.003    198.924      0.000
    CH32               0.543      0.003    202.805      0.000
    CH34               0.596      0.003    237.625      0.000
    CH35               0.474      0.003    155.009      0.000
    CH37               0.504      0.003    184.612      0.000
    CH38               0.604      0.003    240.102      0.000
    CH39               0.512      0.003    179.608      0.000
    CH40               0.636      0.002    267.964      0.000
    CH43               0.406      0.003    135.882      0.000
    CH44               0.502      0.003    183.436      0.000
    CH45               0.395      0.003    133.933      0.000

 Thresholds
    CH1$1             -0.001      0.003     -0.396      0.692
    CH2$1              0.030      0.003      9.894      0.000
    CH3$1             -0.001      0.003     -0.386      0.700
    CH4$1             -0.196      0.003    -64.147      0.000
    CH5$1             -0.231      0.003    -75.299      0.000
    CH6$1              0.022      0.003      7.317      0.000
    CH9$1             -0.727      0.003   -216.970      0.000
    CH10$1            -0.662      0.003   -200.940      0.000
    CH13$1            -0.169      0.003    -55.226      0.000
    CH16$1            -0.746      0.003   -221.333      0.000
    CH17$1            -0.307      0.003    -99.089      0.000
    CH18$1            -0.243      0.003    -78.919      0.000
    CH19$1            -0.100      0.003    -32.812      0.000
    CH20$1            -0.265      0.003    -86.011      0.000
    CH25$1            -0.310      0.003   -100.122      0.000
    CH26$1             0.280      0.003     90.624      0.000
    CH27$1            -0.384      0.003   -122.942      0.000
    CH28$1             0.067      0.003     21.852      0.000
    CH29$1             0.065      0.003     21.284      0.000
    CH32$1            -0.035      0.003    -11.588      0.000
    CH34$1            -0.339      0.003   -109.098      0.000
    CH35$1             0.373      0.003    119.713      0.000
    CH37$1            -0.322      0.003   -103.945      0.000
    CH38$1            -0.052      0.003    -16.984      0.000
    CH39$1             0.171      0.003     55.773      0.000
    CH40$1            -0.386      0.003   -123.630      0.000
    CH43$1             0.105      0.003     34.525      0.000
    CH44$1            -0.221      0.003    -72.022      0.000
    CH45$1            -0.019      0.003     -6.404      0.000

 Variances
    CH                 1.000      0.000    999.000    999.000


R-SQUARE

    Observed                                        Two-Tailed   Residual
    Variable        Estimate       S.E.  Est./S.E.    P-Value    Variance

    CH1                0.240      0.003     88.318      0.000      0.760
    CH2                0.284      0.003     98.795      0.000      0.716
    CH3                0.268      0.003     95.028      0.000      0.732
    CH4                0.242      0.003     88.552      0.000      0.758
    CH5                0.289      0.003    102.188      0.000      0.711
    CH6                0.195      0.003     76.542      0.000      0.805
    CH9                0.479      0.003    152.519      0.000      0.521
    CH10               0.384      0.003    123.173      0.000      0.616
    CH13               0.406      0.003    134.392      0.000      0.594
    CH16               0.213      0.003     75.243      0.000      0.787
    CH17               0.254      0.003     92.500      0.000      0.746
    CH18               0.183      0.002     73.729      0.000      0.817
    CH19               0.299      0.003    103.419      0.000      0.701
    CH20               0.187      0.002     75.243      0.000      0.813
    CH25               0.193      0.003     75.500      0.000      0.807
    CH26               0.290      0.003     94.204      0.000      0.710
    CH27               0.360      0.003    121.005      0.000      0.640
    CH28               0.270      0.003     94.626      0.000      0.730
    CH29               0.293      0.003     99.462      0.000      0.707
    CH32               0.294      0.003    101.402      0.000      0.706
    CH34               0.355      0.003    118.813      0.000      0.645
    CH35               0.224      0.003     77.504      0.000      0.776
    CH37               0.254      0.003     92.306      0.000      0.746
    CH38               0.365      0.003    120.051      0.000      0.635
    CH39               0.262      0.003     89.804      0.000      0.738
    CH40               0.404      0.003    133.982      0.000      0.596
    CH43               0.165      0.002     67.941      0.000      0.835
    CH44               0.252      0.003     91.718      0.000      0.748
    CH45               0.156      0.002     66.967      0.000      0.844


QUALITY OF NUMERICAL RESULTS

     Condition Number for the Information Matrix              0.990E-04
       (ratio of smallest to largest eigenvalue)


     Beginning Time:  18:47:11
        Ending Time:  18:48:26
       Elapsed Time:  00:01:15



MUTHEN & MUTHEN
3463 Stoner Ave.
Los Angeles, CA  90066

Tel: (310) 391-9971
Fax: (310) 391-8971
Web: www.StatModel.com
Support: Support@StatModel.com

Copyright (c) 1998-2008 Muthen & Muthen
