Mplus VERSION 5.2
MUTHEN & MUTHEN
06/06/2013   6:39 PM

INPUT INSTRUCTIONS

  TITLE:        ENEM 2011
  DATA:        FILE IS DATA.txt;
  VARIABLE:        NAMES ARE mt1-mt45,cn1-cn45,ch1-ch45,l1-l45;
                  CATEGORICAL ARE ch1-ch45;
              USEVARIABLES ARE ch1-ch45;
  MODEL:
            MT BY ch1-ch45;


  OUTPUT: STANDARDIZED;










INPUT READING TERMINATED NORMALLY



ENEM 2011

SUMMARY OF ANALYSIS

Number of groups                                                 1
Number of observations                                      169803

Number of dependent variables                                   45
Number of independent variables                                  0
Number of continuous latent variables                            1

Observed dependent variables

  Binary and ordered categorical (ordinal)
   CH1         CH2         CH3         CH4         CH5         CH6
   CH7         CH8         CH9         CH10        CH11        CH12
   CH13        CH14        CH15        CH16        CH17        CH18
   CH19        CH20        CH21        CH22        CH23        CH24
   CH25        CH26        CH27        CH28        CH29        CH30
   CH31        CH32        CH33        CH34        CH35        CH36
   CH37        CH38        CH39        CH40        CH41        CH42
   CH43        CH44        CH45

Continuous latent variables
   MT


Estimator                                                    WLSMV
Maximum number of iterations                                  1000
Convergence criterion                                    0.500D-04
Maximum number of steepest descent iterations                   20
Parameterization                                             DELTA

Input data file(s)
  DATA.txt

Input data format  FREE


SUMMARY OF CATEGORICAL DATA PROPORTIONS

    CH1
      Category 1    0.500
      Category 2    0.500
    CH2
      Category 1    0.512
      Category 2    0.488
    CH3
      Category 1    0.500
      Category 2    0.500
    CH4
      Category 1    0.422
      Category 2    0.578
    CH5
      Category 1    0.409
      Category 2    0.591
    CH6
      Category 1    0.509
      Category 2    0.491
    CH7
      Category 1    0.441
      Category 2    0.559
    CH8
      Category 1    0.554
      Category 2    0.446
    CH9
      Category 1    0.233
      Category 2    0.767
    CH10
      Category 1    0.254
      Category 2    0.746
    CH11
      Category 1    0.641
      Category 2    0.359
    CH12
      Category 1    0.646
      Category 2    0.354
    CH13
      Category 1    0.433
      Category 2    0.567
    CH14
      Category 1    0.472
      Category 2    0.528
    CH15
      Category 1    0.636
      Category 2    0.364
    CH16
      Category 1    0.228
      Category 2    0.772
    CH17
      Category 1    0.380
      Category 2    0.620
    CH18
      Category 1    0.404
      Category 2    0.596
    CH19
      Category 1    0.460
      Category 2    0.540
    CH20
      Category 1    0.396
      Category 2    0.604
    CH21
      Category 1    0.650
      Category 2    0.350
    CH22
      Category 1    0.460
      Category 2    0.540
    CH23
      Category 1    0.648
      Category 2    0.352
    CH24
      Category 1    0.818
      Category 2    0.182
    CH25
      Category 1    0.378
      Category 2    0.622
    CH26
      Category 1    0.610
      Category 2    0.390
    CH27
      Category 1    0.350
      Category 2    0.650
    CH28
      Category 1    0.527
      Category 2    0.473
    CH29
      Category 1    0.526
      Category 2    0.474
    CH30
      Category 1    0.801
      Category 2    0.199
    CH31
      Category 1    0.685
      Category 2    0.315
    CH32
      Category 1    0.486
      Category 2    0.514
    CH33
      Category 1    0.808
      Category 2    0.192
    CH34
      Category 1    0.367
      Category 2    0.633
    CH35
      Category 1    0.646
      Category 2    0.354
    CH36
      Category 1    0.544
      Category 2    0.456
    CH37
      Category 1    0.374
      Category 2    0.626
    CH38
      Category 1    0.479
      Category 2    0.521
    CH39
      Category 1    0.568
      Category 2    0.432
    CH40
      Category 1    0.350
      Category 2    0.650
    CH41
      Category 1    0.560
      Category 2    0.440
    CH42
      Category 1    0.794
      Category 2    0.206
    CH43
      Category 1    0.542
      Category 2    0.458
    CH44
      Category 1    0.413
      Category 2    0.587
    CH45
      Category 1    0.492
      Category 2    0.508



THE MODEL ESTIMATION TERMINATED NORMALLY



TESTS OF MODEL FIT

Chi-Square Test of Model Fit

          Value                          53970.335*
          Degrees of Freedom                   907**
          P-Value                           0.0000

*   The chi-square value for MLM, MLMV, MLR, ULSMV, WLSM and WLSMV cannot be used
    for chi-square difference tests.  MLM, MLR and WLSM chi-square difference
    testing is described in the Mplus Technical Appendices at www.statmodel.com.
    See chi-square difference testing in the index of the Mplus User's Guide.

**  The degrees of freedom for MLMV, ULSMV and WLSMV are estimated according to
    a formula given in the Mplus Technical Appendices at www.statmodel.com.
    See degrees of freedom in the index of the Mplus User's Guide.

Chi-Square Test of Model Fit for the Baseline Model

          Value                         **********
          Degrees of Freedom                   390
          P-Value                           0.0000

CFI/TLI

          CFI                                0.958
          TLI                                0.982

Number of Free Parameters                       90

RMSEA (Root Mean Square Error Of Approximation)

          Estimate                           0.019

WRMR (Weighted Root Mean Square Residual)

          Value                              6.526



MODEL RESULTS

                                                    Two-Tailed
                    Estimate       S.E.  Est./S.E.    P-Value

 MT       BY
    CH1                1.000      0.000    999.000    999.000
    CH2                1.087      0.008    143.166      0.000
    CH3                1.080      0.008    139.512      0.000
    CH4                0.993      0.008    130.581      0.000
    CH5                1.088      0.007    146.062      0.000
    CH6                0.906      0.008    119.835      0.000
    CH7                0.810      0.007    111.876      0.000
    CH8                0.780      0.007    105.477      0.000
    CH9                1.413      0.009    157.106      0.000
    CH10               1.277      0.009    148.781      0.000
    CH11               0.713      0.007     95.738      0.000
    CH12               0.763      0.008    100.534      0.000
    CH13               1.313      0.009    153.902      0.000
    CH14               0.503      0.007     72.105      0.000
    CH15               0.495      0.007     68.723      0.000
    CH16               0.949      0.008    118.057      0.000
    CH17               1.044      0.008    133.195      0.000
    CH18               0.885      0.007    118.043      0.000
    CH19               1.121      0.008    139.082      0.000
    CH20               0.902      0.008    119.837      0.000
    CH21               0.754      0.008     99.844      0.000
    CH22               0.763      0.007    103.451      0.000
    CH23               0.655      0.007     88.040      0.000
    CH24               0.510      0.009     58.244      0.000
    CH25               0.899      0.008    118.360      0.000
    CH26               1.121      0.008    136.350      0.000
    CH27               1.225      0.008    146.527      0.000
    CH28               1.062      0.008    132.358      0.000
    CH29               1.111      0.008    136.641      0.000
    CH30               0.267      0.008     32.118      0.000
    CH31               0.753      0.008     98.112      0.000
    CH32               1.107      0.008    137.312      0.000
    CH33               0.036      0.008      4.439      0.000
    CH34               1.222      0.008    146.558      0.000
    CH35               0.983      0.008    121.618      0.000
    CH36               0.627      0.007     87.916      0.000
    CH37               1.035      0.008    132.850      0.000
    CH38               1.247      0.008    147.870      0.000
    CH39               1.058      0.008    131.304      0.000
    CH40               1.305      0.009    152.343      0.000
    CH41               0.797      0.007    107.694      0.000
    CH42               0.131      0.008     16.114      0.000
    CH43               0.827      0.008    109.381      0.000
    CH44               1.024      0.008    130.876      0.000
    CH45               0.826      0.007    112.727      0.000

 Thresholds
    CH1$1             -0.001      0.003     -0.396      0.692
    CH2$1              0.030      0.003      9.894      0.000
    CH3$1             -0.001      0.003     -0.386      0.700
    CH4$1             -0.196      0.003    -64.147      0.000
    CH5$1             -0.231      0.003    -75.299      0.000
    CH6$1              0.022      0.003      7.317      0.000
    CH7$1             -0.147      0.003    -48.221      0.000
    CH8$1              0.135      0.003     44.395      0.000
    CH9$1             -0.727      0.003   -216.970      0.000
    CH10$1            -0.662      0.003   -200.940      0.000
    CH11$1             0.362      0.003    116.072      0.000
    CH12$1             0.375      0.003    120.137      0.000
    CH13$1            -0.169      0.003    -55.226      0.000
    CH14$1            -0.070      0.003    -23.108      0.000
    CH15$1             0.347      0.003    111.513      0.000
    CH16$1            -0.746      0.003   -221.333      0.000
    CH17$1            -0.307      0.003    -99.089      0.000
    CH18$1            -0.243      0.003    -78.919      0.000
    CH19$1            -0.100      0.003    -32.812      0.000
    CH20$1            -0.265      0.003    -86.011      0.000
    CH21$1             0.385      0.003    123.178      0.000
    CH22$1            -0.100      0.003    -32.851      0.000
    CH23$1             0.379      0.003    121.412      0.000
    CH24$1             0.907      0.004    255.941      0.000
    CH25$1            -0.310      0.003   -100.122      0.000
    CH26$1             0.280      0.003     90.624      0.000
    CH27$1            -0.384      0.003   -122.942      0.000
    CH28$1             0.067      0.003     21.852      0.000
    CH29$1             0.065      0.003     21.284      0.000
    CH30$1             0.843      0.003    243.118      0.000
    CH31$1             0.483      0.003    152.089      0.000
    CH32$1            -0.035      0.003    -11.588      0.000
    CH33$1             0.872      0.004    249.097      0.000
    CH34$1            -0.339      0.003   -109.098      0.000
    CH35$1             0.373      0.003    119.713      0.000
    CH36$1             0.110      0.003     36.242      0.000
    CH37$1            -0.322      0.003   -103.945      0.000
    CH38$1            -0.052      0.003    -16.984      0.000
    CH39$1             0.171      0.003     55.773      0.000
    CH40$1            -0.386      0.003   -123.630      0.000
    CH41$1             0.152      0.003     49.651      0.000
    CH42$1             0.820      0.003    238.027      0.000
    CH43$1             0.105      0.003     34.525      0.000
    CH44$1            -0.221      0.003    -72.022      0.000
    CH45$1            -0.019      0.003     -6.404      0.000

 Variances
    MT                 0.237      0.003     89.201      0.000


IRT PARAMETERIZATION IN TWO-PARAMETER PROBIT METRIC
WHERE THE PROBIT IS DISCRIMINATION*(THETA - DIFFICULTY)

 Item Discriminations

 MT       BY
    CH1                0.557      0.004    136.183      0.000
    CH2                0.623      0.004    143.556      0.000
    CH3                0.617      0.004    143.689      0.000
    CH4                0.552      0.004    134.470      0.000
    CH5                0.624      0.004    146.956      0.000
    CH6                0.491      0.004    124.776      0.000
    CH7                0.429      0.004    115.375      0.000
    CH8                0.410      0.004    108.378      0.000
    CH9                0.946      0.006    163.251      0.000
    CH10               0.793      0.005    155.402      0.000
    CH11               0.370      0.004     97.417      0.000
    CH12               0.399      0.004    100.744      0.000
    CH13               0.831      0.005    163.739      0.000
    CH14               0.253      0.003     73.484      0.000
    CH15               0.248      0.004     69.546      0.000
    CH16               0.520      0.004    120.772      0.000
    CH17               0.589      0.004    141.662      0.000
    CH18               0.477      0.004    123.238      0.000
    CH19               0.650      0.004    147.293      0.000
    CH20               0.488      0.004    126.186      0.000
    CH21               0.394      0.004    100.710      0.000
    CH22               0.400      0.004    107.597      0.000
    CH23               0.336      0.004     89.906      0.000
    CH24               0.256      0.004     57.155      0.000
    CH25               0.486      0.004    123.611      0.000
    CH26               0.650      0.005    137.220      0.000
    CH27               0.742      0.005    157.947      0.000
    CH28               0.603      0.004    139.832      0.000
    CH29               0.642      0.004    143.063      0.000
    CH30               0.131      0.004     31.886      0.000
    CH31               0.393      0.004    100.006      0.000
    CH32               0.639      0.004    145.282      0.000
    CH33               0.017      0.004      4.436      0.000
    CH34               0.739      0.005    156.488      0.000
    CH35               0.545      0.004    122.932      0.000
    CH36               0.320      0.004     89.888      0.000
    CH37               0.583      0.004    140.556      0.000
    CH38               0.763      0.005    156.075      0.000
    CH39               0.601      0.004    135.547      0.000
    CH40               0.822      0.005    163.644      0.000
    CH41               0.421      0.004    110.383      0.000
    CH42               0.064      0.004     16.059      0.000
    CH43               0.439      0.004    114.146      0.000
    CH44               0.574      0.004    138.637      0.000
    CH45               0.439      0.004    116.725      0.000

 Item Difficulties
    CH1$1             -0.002      0.006     -0.396      0.692
    CH2$1              0.057      0.006      9.896      0.000
    CH3$1             -0.002      0.006     -0.386      0.700
    CH4$1             -0.407      0.007    -59.532      0.000
    CH5$1             -0.437      0.006    -69.387      0.000
    CH6$1              0.050      0.007      7.310      0.000
    CH7$1             -0.374      0.008    -45.023      0.000
    CH8$1              0.357      0.009     41.923      0.000
    CH9$1             -1.059      0.006   -166.618      0.000
    CH10$1            -1.066      0.007   -149.029      0.000
    CH11$1             1.042      0.013     79.251      0.000
    CH12$1             1.011      0.012     83.326      0.000
    CH13$1            -0.264      0.005    -53.479      0.000
    CH14$1            -0.287      0.013    -22.146      0.000
    CH15$1             1.441      0.024     61.127      0.000
    CH16$1            -1.616      0.013   -121.303      0.000
    CH17$1            -0.604      0.007    -85.840      0.000
    CH18$1            -0.564      0.008    -68.949      0.000
    CH19$1            -0.183      0.006    -32.244      0.000
    CH20$1            -0.604      0.008    -73.943      0.000
    CH21$1             1.049      0.013     83.849      0.000
    CH22$1            -0.270      0.009    -31.714      0.000
    CH23$1             1.190      0.016     76.341      0.000
    CH24$1             3.655      0.062     58.799      0.000
    CH25$1            -0.709      0.009    -82.257      0.000
    CH26$1             0.513      0.006     82.433      0.000
    CH27$1            -0.644      0.006   -106.305      0.000
    CH28$1             0.129      0.006     21.717      0.000
    CH29$1             0.120      0.006     21.213      0.000
    CH30$1             6.492      0.202     32.074      0.000
    CH31$1             1.319      0.015     90.427      0.000
    CH32$1            -0.065      0.006    -11.544      0.000
    CH33$1            50.053     11.283      4.436      0.000
    CH34$1            -0.570      0.006    -96.721      0.000
    CH35$1             0.781      0.008     95.153      0.000
    CH36$1             0.362      0.011     34.054      0.000
    CH37$1            -0.640      0.007    -88.808      0.000
    CH38$1            -0.085      0.005    -16.883      0.000
    CH39$1             0.331      0.006     53.668      0.000
    CH40$1            -0.609      0.006   -108.960      0.000
    CH41$1             0.391      0.008     46.501      0.000
    CH42$1            12.878      0.801     16.078      0.000
    CH43$1             0.262      0.008     33.409      0.000
    CH44$1            -0.444      0.007    -66.171      0.000
    CH45$1            -0.048      0.008     -6.390      0.000

 Variances
    MT                 1.000      0.000      0.000      1.000


STANDARDIZED MODEL RESULTS


STDYX Standardization

                                                    Two-Tailed
                    Estimate       S.E.  Est./S.E.    P-Value

 MT       BY
    CH1                0.486      0.003    178.403      0.000
    CH2                0.529      0.003    199.245      0.000
    CH3                0.525      0.003    198.473      0.000
    CH4                0.483      0.003    175.421      0.000
    CH5                0.530      0.003    204.217      0.000
    CH6                0.441      0.003    154.876      0.000
    CH7                0.394      0.003    136.572      0.000
    CH8                0.379      0.003    126.600      0.000
    CH9                0.687      0.002    309.327      0.000
    CH10               0.621      0.002    253.042      0.000
    CH11               0.347      0.003    110.745      0.000
    CH12               0.371      0.003    116.818      0.000
    CH13               0.639      0.002    276.708      0.000
    CH14               0.245      0.003     78.170      0.000
    CH15               0.241      0.003     73.819      0.000
    CH16               0.462      0.003    153.478      0.000
    CH17               0.508      0.003    190.851      0.000
    CH18               0.431      0.003    151.278      0.000
    CH19               0.545      0.003    209.614      0.000
    CH20               0.439      0.003    156.236      0.000
    CH21               0.367      0.003    116.369      0.000
    CH22               0.371      0.003    124.792      0.000
    CH23               0.319      0.003    100.064      0.000
    CH24               0.248      0.004     60.902      0.000
    CH25               0.437      0.003    152.853      0.000
    CH26               0.545      0.003    195.283      0.000
    CH27               0.596      0.002    244.968      0.000
    CH28               0.517      0.003    190.730      0.000
    CH29               0.540      0.003    202.074      0.000
    CH30               0.130      0.004     32.433      0.000
    CH31               0.366      0.003    115.484      0.000
    CH32               0.539      0.003    204.638      0.000
    CH33               0.017      0.004      4.437      0.000
    CH34               0.595      0.002    242.043      0.000
    CH35               0.478      0.003    159.408      0.000
    CH36               0.305      0.003     99.102      0.000
    CH37               0.503      0.003    188.283      0.000
    CH38               0.607      0.002    247.030      0.000
    CH39               0.515      0.003    184.426      0.000
    CH40               0.635      0.002    274.154      0.000
    CH41               0.388      0.003    129.923      0.000
    CH42               0.064      0.004     16.125      0.000
    CH43               0.402      0.003    136.164      0.000
    CH44               0.498      0.003    184.391      0.000
    CH45               0.402      0.003    139.202      0.000

 Thresholds
    CH1$1             -0.001      0.003     -0.396      0.692
    CH2$1              0.030      0.003      9.894      0.000
    CH3$1             -0.001      0.003     -0.386      0.700
    CH4$1             -0.196      0.003    -64.147      0.000
    CH5$1             -0.231      0.003    -75.299      0.000
    CH6$1              0.022      0.003      7.317      0.000
    CH7$1             -0.147      0.003    -48.221      0.000
    CH8$1              0.135      0.003     44.395      0.000
    CH9$1             -0.727      0.003   -216.970      0.000
    CH10$1            -0.662      0.003   -200.940      0.000
    CH11$1             0.362      0.003    116.072      0.000
    CH12$1             0.375      0.003    120.137      0.000
    CH13$1            -0.169      0.003    -55.226      0.000
    CH14$1            -0.070      0.003    -23.108      0.000
    CH15$1             0.347      0.003    111.513      0.000
    CH16$1            -0.746      0.003   -221.333      0.000
    CH17$1            -0.307      0.003    -99.089      0.000
    CH18$1            -0.243      0.003    -78.919      0.000
    CH19$1            -0.100      0.003    -32.812      0.000
    CH20$1            -0.265      0.003    -86.011      0.000
    CH21$1             0.385      0.003    123.178      0.000
    CH22$1            -0.100      0.003    -32.851      0.000
    CH23$1             0.379      0.003    121.412      0.000
    CH24$1             0.907      0.004    255.941      0.000
    CH25$1            -0.310      0.003   -100.122      0.000
    CH26$1             0.280      0.003     90.624      0.000
    CH27$1            -0.384      0.003   -122.942      0.000
    CH28$1             0.067      0.003     21.852      0.000
    CH29$1             0.065      0.003     21.284      0.000
    CH30$1             0.843      0.003    243.118      0.000
    CH31$1             0.483      0.003    152.089      0.000
    CH32$1            -0.035      0.003    -11.588      0.000
    CH33$1             0.872      0.004    249.097      0.000
    CH34$1            -0.339      0.003   -109.098      0.000
    CH35$1             0.373      0.003    119.713      0.000
    CH36$1             0.110      0.003     36.242      0.000
    CH37$1            -0.322      0.003   -103.945      0.000
    CH38$1            -0.052      0.003    -16.984      0.000
    CH39$1             0.171      0.003     55.773      0.000
    CH40$1            -0.386      0.003   -123.630      0.000
    CH41$1             0.152      0.003     49.651      0.000
    CH42$1             0.820      0.003    238.027      0.000
    CH43$1             0.105      0.003     34.525      0.000
    CH44$1            -0.221      0.003    -72.022      0.000
    CH45$1            -0.019      0.003     -6.404      0.000

 Variances
    MT                 1.000      0.000    999.000    999.000


STDY Standardization

                                                    Two-Tailed
                    Estimate       S.E.  Est./S.E.    P-Value

 MT       BY
    CH1                0.486      0.003    178.403      0.000
    CH2                0.529      0.003    199.245      0.000
    CH3                0.525      0.003    198.473      0.000
    CH4                0.483      0.003    175.421      0.000
    CH5                0.530      0.003    204.217      0.000
    CH6                0.441      0.003    154.876      0.000
    CH7                0.394      0.003    136.572      0.000
    CH8                0.379      0.003    126.600      0.000
    CH9                0.687      0.002    309.327      0.000
    CH10               0.621      0.002    253.042      0.000
    CH11               0.347      0.003    110.745      0.000
    CH12               0.371      0.003    116.818      0.000
    CH13               0.639      0.002    276.708      0.000
    CH14               0.245      0.003     78.170      0.000
    CH15               0.241      0.003     73.819      0.000
    CH16               0.462      0.003    153.478      0.000
    CH17               0.508      0.003    190.851      0.000
    CH18               0.431      0.003    151.278      0.000
    CH19               0.545      0.003    209.614      0.000
    CH20               0.439      0.003    156.236      0.000
    CH21               0.367      0.003    116.369      0.000
    CH22               0.371      0.003    124.792      0.000
    CH23               0.319      0.003    100.064      0.000
    CH24               0.248      0.004     60.902      0.000
    CH25               0.437      0.003    152.853      0.000
    CH26               0.545      0.003    195.283      0.000
    CH27               0.596      0.002    244.968      0.000
    CH28               0.517      0.003    190.730      0.000
    CH29               0.540      0.003    202.074      0.000
    CH30               0.130      0.004     32.433      0.000
    CH31               0.366      0.003    115.484      0.000
    CH32               0.539      0.003    204.638      0.000
    CH33               0.017      0.004      4.437      0.000
    CH34               0.595      0.002    242.043      0.000
    CH35               0.478      0.003    159.408      0.000
    CH36               0.305      0.003     99.102      0.000
    CH37               0.503      0.003    188.283      0.000
    CH38               0.607      0.002    247.030      0.000
    CH39               0.515      0.003    184.426      0.000
    CH40               0.635      0.002    274.154      0.000
    CH41               0.388      0.003    129.923      0.000
    CH42               0.064      0.004     16.125      0.000
    CH43               0.402      0.003    136.164      0.000
    CH44               0.498      0.003    184.391      0.000
    CH45               0.402      0.003    139.202      0.000

 Thresholds
    CH1$1             -0.001      0.003     -0.396      0.692
    CH2$1              0.030      0.003      9.894      0.000
    CH3$1             -0.001      0.003     -0.386      0.700
    CH4$1             -0.196      0.003    -64.147      0.000
    CH5$1             -0.231      0.003    -75.299      0.000
    CH6$1              0.022      0.003      7.317      0.000
    CH7$1             -0.147      0.003    -48.221      0.000
    CH8$1              0.135      0.003     44.395      0.000
    CH9$1             -0.727      0.003   -216.970      0.000
    CH10$1            -0.662      0.003   -200.940      0.000
    CH11$1             0.362      0.003    116.072      0.000
    CH12$1             0.375      0.003    120.137      0.000
    CH13$1            -0.169      0.003    -55.226      0.000
    CH14$1            -0.070      0.003    -23.108      0.000
    CH15$1             0.347      0.003    111.513      0.000
    CH16$1            -0.746      0.003   -221.333      0.000
    CH17$1            -0.307      0.003    -99.089      0.000
    CH18$1            -0.243      0.003    -78.919      0.000
    CH19$1            -0.100      0.003    -32.812      0.000
    CH20$1            -0.265      0.003    -86.011      0.000
    CH21$1             0.385      0.003    123.178      0.000
    CH22$1            -0.100      0.003    -32.851      0.000
    CH23$1             0.379      0.003    121.412      0.000
    CH24$1             0.907      0.004    255.941      0.000
    CH25$1            -0.310      0.003   -100.122      0.000
    CH26$1             0.280      0.003     90.624      0.000
    CH27$1            -0.384      0.003   -122.942      0.000
    CH28$1             0.067      0.003     21.852      0.000
    CH29$1             0.065      0.003     21.284      0.000
    CH30$1             0.843      0.003    243.118      0.000
    CH31$1             0.483      0.003    152.089      0.000
    CH32$1            -0.035      0.003    -11.588      0.000
    CH33$1             0.872      0.004    249.097      0.000
    CH34$1            -0.339      0.003   -109.098      0.000
    CH35$1             0.373      0.003    119.713      0.000
    CH36$1             0.110      0.003     36.242      0.000
    CH37$1            -0.322      0.003   -103.945      0.000
    CH38$1            -0.052      0.003    -16.984      0.000
    CH39$1             0.171      0.003     55.773      0.000
    CH40$1            -0.386      0.003   -123.630      0.000
    CH41$1             0.152      0.003     49.651      0.000
    CH42$1             0.820      0.003    238.027      0.000
    CH43$1             0.105      0.003     34.525      0.000
    CH44$1            -0.221      0.003    -72.022      0.000
    CH45$1            -0.019      0.003     -6.404      0.000

 Variances
    MT                 1.000      0.000    999.000    999.000


STD Standardization

                                                    Two-Tailed
                    Estimate       S.E.  Est./S.E.    P-Value

 MT       BY
    CH1                0.486      0.003    178.403      0.000
    CH2                0.529      0.003    199.245      0.000
    CH3                0.525      0.003    198.473      0.000
    CH4                0.483      0.003    175.421      0.000
    CH5                0.530      0.003    204.217      0.000
    CH6                0.441      0.003    154.876      0.000
    CH7                0.394      0.003    136.572      0.000
    CH8                0.379      0.003    126.600      0.000
    CH9                0.687      0.002    309.327      0.000
    CH10               0.621      0.002    253.042      0.000
    CH11               0.347      0.003    110.745      0.000
    CH12               0.371      0.003    116.818      0.000
    CH13               0.639      0.002    276.708      0.000
    CH14               0.245      0.003     78.170      0.000
    CH15               0.241      0.003     73.819      0.000
    CH16               0.462      0.003    153.478      0.000
    CH17               0.508      0.003    190.851      0.000
    CH18               0.431      0.003    151.278      0.000
    CH19               0.545      0.003    209.614      0.000
    CH20               0.439      0.003    156.236      0.000
    CH21               0.367      0.003    116.369      0.000
    CH22               0.371      0.003    124.792      0.000
    CH23               0.319      0.003    100.064      0.000
    CH24               0.248      0.004     60.902      0.000
    CH25               0.437      0.003    152.853      0.000
    CH26               0.545      0.003    195.283      0.000
    CH27               0.596      0.002    244.968      0.000
    CH28               0.517      0.003    190.730      0.000
    CH29               0.540      0.003    202.074      0.000
    CH30               0.130      0.004     32.433      0.000
    CH31               0.366      0.003    115.484      0.000
    CH32               0.539      0.003    204.638      0.000
    CH33               0.017      0.004      4.437      0.000
    CH34               0.595      0.002    242.043      0.000
    CH35               0.478      0.003    159.408      0.000
    CH36               0.305      0.003     99.102      0.000
    CH37               0.503      0.003    188.283      0.000
    CH38               0.607      0.002    247.030      0.000
    CH39               0.515      0.003    184.426      0.000
    CH40               0.635      0.002    274.154      0.000
    CH41               0.388      0.003    129.923      0.000
    CH42               0.064      0.004     16.125      0.000
    CH43               0.402      0.003    136.164      0.000
    CH44               0.498      0.003    184.391      0.000
    CH45               0.402      0.003    139.202      0.000

 Thresholds
    CH1$1             -0.001      0.003     -0.396      0.692
    CH2$1              0.030      0.003      9.894      0.000
    CH3$1             -0.001      0.003     -0.386      0.700
    CH4$1             -0.196      0.003    -64.147      0.000
    CH5$1             -0.231      0.003    -75.299      0.000
    CH6$1              0.022      0.003      7.317      0.000
    CH7$1             -0.147      0.003    -48.221      0.000
    CH8$1              0.135      0.003     44.395      0.000
    CH9$1             -0.727      0.003   -216.970      0.000
    CH10$1            -0.662      0.003   -200.940      0.000
    CH11$1             0.362      0.003    116.072      0.000
    CH12$1             0.375      0.003    120.137      0.000
    CH13$1            -0.169      0.003    -55.226      0.000
    CH14$1            -0.070      0.003    -23.108      0.000
    CH15$1             0.347      0.003    111.513      0.000
    CH16$1            -0.746      0.003   -221.333      0.000
    CH17$1            -0.307      0.003    -99.089      0.000
    CH18$1            -0.243      0.003    -78.919      0.000
    CH19$1            -0.100      0.003    -32.812      0.000
    CH20$1            -0.265      0.003    -86.011      0.000
    CH21$1             0.385      0.003    123.178      0.000
    CH22$1            -0.100      0.003    -32.851      0.000
    CH23$1             0.379      0.003    121.412      0.000
    CH24$1             0.907      0.004    255.941      0.000
    CH25$1            -0.310      0.003   -100.122      0.000
    CH26$1             0.280      0.003     90.624      0.000
    CH27$1            -0.384      0.003   -122.942      0.000
    CH28$1             0.067      0.003     21.852      0.000
    CH29$1             0.065      0.003     21.284      0.000
    CH30$1             0.843      0.003    243.118      0.000
    CH31$1             0.483      0.003    152.089      0.000
    CH32$1            -0.035      0.003    -11.588      0.000
    CH33$1             0.872      0.004    249.097      0.000
    CH34$1            -0.339      0.003   -109.098      0.000
    CH35$1             0.373      0.003    119.713      0.000
    CH36$1             0.110      0.003     36.242      0.000
    CH37$1            -0.322      0.003   -103.945      0.000
    CH38$1            -0.052      0.003    -16.984      0.000
    CH39$1             0.171      0.003     55.773      0.000
    CH40$1            -0.386      0.003   -123.630      0.000
    CH41$1             0.152      0.003     49.651      0.000
    CH42$1             0.820      0.003    238.027      0.000
    CH43$1             0.105      0.003     34.525      0.000
    CH44$1            -0.221      0.003    -72.022      0.000
    CH45$1            -0.019      0.003     -6.404      0.000

 Variances
    MT                 1.000      0.000    999.000    999.000


R-SQUARE

    Observed                                        Two-Tailed   Residual
    Variable        Estimate       S.E.  Est./S.E.    P-Value    Variance

    CH1                0.237      0.003     89.201      0.000      0.763
    CH2                0.280      0.003     99.622      0.000      0.720
    CH3                0.276      0.003     99.237      0.000      0.724
    CH4                0.233      0.003     87.711      0.000      0.767
    CH5                0.280      0.003    102.108      0.000      0.720
    CH6                0.194      0.003     77.438      0.000      0.806
    CH7                0.155      0.002     68.286      0.000      0.845
    CH8                0.144      0.002     63.300      0.000      0.856
    CH9                0.472      0.003    154.663      0.000      0.528
    CH10               0.386      0.003    126.521      0.000      0.614
    CH11               0.120      0.002     55.373      0.000      0.880
    CH12               0.138      0.002     58.409      0.000      0.862
    CH13               0.408      0.003    138.354      0.000      0.592
    CH14               0.060      0.002     39.085      0.000      0.940
    CH15               0.058      0.002     36.910      0.000      0.942
    CH16               0.213      0.003     76.739      0.000      0.787
    CH17               0.258      0.003     95.425      0.000      0.742
    CH18               0.185      0.002     75.639      0.000      0.815
    CH19               0.297      0.003    104.807      0.000      0.703
    CH20               0.192      0.002     78.118      0.000      0.808
    CH21               0.135      0.002     58.184      0.000      0.865
    CH22               0.138      0.002     62.396      0.000      0.862
    CH23               0.102      0.002     50.032      0.000      0.898
    CH24               0.062      0.002     30.451      0.000      0.938
    CH25               0.191      0.003     76.427      0.000      0.809
    CH26               0.297      0.003     97.641      0.000      0.703
    CH27               0.355      0.003    122.484      0.000      0.645
    CH28               0.267      0.003     95.365      0.000      0.733
    CH29               0.292      0.003    101.037      0.000      0.708
    CH30               0.017      0.001     16.216      0.000      0.983
    CH31               0.134      0.002     57.742      0.000      0.866
    CH32               0.290      0.003    102.319      0.000      0.710
    CH33               0.000      0.000      2.219      0.027      1.000
    CH34               0.353      0.003    121.022      0.000      0.647
    CH35               0.229      0.003     79.704      0.000      0.771
    CH36               0.093      0.002     49.551      0.000      0.907
    CH37               0.253      0.003     94.142      0.000      0.747
    CH38               0.368      0.003    123.515      0.000      0.632
    CH39               0.265      0.003     92.213      0.000      0.735
    CH40               0.403      0.003    137.077      0.000      0.597
    CH41               0.150      0.002     64.961      0.000      0.850
    CH42               0.004      0.001      8.062      0.000      0.996
    CH43               0.162      0.002     68.082      0.000      0.838
    CH44               0.248      0.003     92.195      0.000      0.752
    CH45               0.161      0.002     69.601      0.000      0.839


QUALITY OF NUMERICAL RESULTS

     Condition Number for the Information Matrix              0.681E-04
       (ratio of smallest to largest eigenvalue)


     Beginning Time:  18:39:25
        Ending Time:  18:42:18
       Elapsed Time:  00:02:53



MUTHEN & MUTHEN
3463 Stoner Ave.
Los Angeles, CA  90066

Tel: (310) 391-9971
Fax: (310) 391-8971
Web: www.StatModel.com
Support: Support@StatModel.com

Copyright (c) 1998-2008 Muthen & Muthen
