TITLE:	ENEM 2011
DATA:	FILE IS DATA.txt;
VARIABLE:	NAMES ARE mt1-mt45,cn1-cn45,ch1-ch45,l1-l45;
        	CATEGORICAL ARE cn1-cn45;
            USEVARIABLES ARE cn1-cn45;
MODEL:
          CN BY cn1-cn45;
          

OUTPUT: STANDARDIZED;







