Mplus VERSION 5.2
MUTHEN & MUTHEN
06/06/2013   6:30 PM

INPUT INSTRUCTIONS

  TITLE:        ENEM 2011
  DATA:        FILE IS DATA.txt;
  VARIABLE:        NAMES ARE mt1-mt45,cn1-cn45,ch1-ch45,l1-l45;
                  CATEGORICAL ARE l1-l45;
              USEVARIABLES ARE l1-l45;
  MODEL:
            L BY l1-l45;


  OUTPUT: STANDARDIZED;










INPUT READING TERMINATED NORMALLY



ENEM 2011

SUMMARY OF ANALYSIS

Number of groups                                                 1
Number of observations                                      169803

Number of dependent variables                                   45
Number of independent variables                                  0
Number of continuous latent variables                            1

Observed dependent variables

  Binary and ordered categorical (ordinal)
   L1          L2          L3          L4          L5          L6
   L7          L8          L9          L10         L11         L12
   L13         L14         L15         L16         L17         L18
   L19         L20         L21         L22         L23         L24
   L25         L26         L27         L28         L29         L30
   L31         L32         L33         L34         L35         L36
   L37         L38         L39         L40         L41         L42
   L43         L44         L45

Continuous latent variables
   L


Estimator                                                    WLSMV
Maximum number of iterations                                  1000
Convergence criterion                                    0.500D-04
Maximum number of steepest descent iterations                   20
Parameterization                                             DELTA

Input data file(s)
  DATA.txt

Input data format  FREE


SUMMARY OF CATEGORICAL DATA PROPORTIONS

    L1
      Category 1    0.424
      Category 2    0.576
    L2
      Category 1    0.530
      Category 2    0.470
    L3
      Category 1    0.361
      Category 2    0.639
    L4
      Category 1    0.872
      Category 2    0.128
    L5
      Category 1    0.510
      Category 2    0.490
    L6
      Category 1    0.662
      Category 2    0.338
    L7
      Category 1    0.644
      Category 2    0.356
    L8
      Category 1    0.874
      Category 2    0.126
    L9
      Category 1    0.797
      Category 2    0.203
    L10
      Category 1    0.762
      Category 2    0.238
    L11
      Category 1    0.550
      Category 2    0.450
    L12
      Category 1    0.702
      Category 2    0.298
    L13
      Category 1    0.704
      Category 2    0.296
    L14
      Category 1    0.518
      Category 2    0.482
    L15
      Category 1    0.590
      Category 2    0.410
    L16
      Category 1    0.518
      Category 2    0.482
    L17
      Category 1    0.788
      Category 2    0.212
    L18
      Category 1    0.776
      Category 2    0.224
    L19
      Category 1    0.767
      Category 2    0.233
    L20
      Category 1    0.845
      Category 2    0.155
    L21
      Category 1    0.786
      Category 2    0.214
    L22
      Category 1    0.769
      Category 2    0.231
    L23
      Category 1    0.768
      Category 2    0.232
    L24
      Category 1    0.846
      Category 2    0.154
    L25
      Category 1    0.708
      Category 2    0.292
    L26
      Category 1    0.538
      Category 2    0.462
    L27
      Category 1    0.732
      Category 2    0.268
    L28
      Category 1    0.644
      Category 2    0.356
    L29
      Category 1    0.675
      Category 2    0.325
    L30
      Category 1    0.765
      Category 2    0.235
    L31
      Category 1    0.709
      Category 2    0.291
    L32
      Category 1    0.683
      Category 2    0.317
    L33
      Category 1    0.795
      Category 2    0.205
    L34
      Category 1    0.693
      Category 2    0.307
    L35
      Category 1    0.646
      Category 2    0.354
    L36
      Category 1    0.570
      Category 2    0.430
    L37
      Category 1    0.500
      Category 2    0.500
    L38
      Category 1    0.809
      Category 2    0.191
    L39
      Category 1    0.838
      Category 2    0.162
    L40
      Category 1    0.439
      Category 2    0.561
    L41
      Category 1    0.432
      Category 2    0.568
    L42
      Category 1    0.732
      Category 2    0.268
    L43
      Category 1    0.801
      Category 2    0.199
    L44
      Category 1    0.676
      Category 2    0.324
    L45
      Category 1    0.650
      Category 2    0.350



THE MODEL ESTIMATION TERMINATED NORMALLY



TESTS OF MODEL FIT

Chi-Square Test of Model Fit

          Value                          86136.970*
          Degrees of Freedom                   878**
          P-Value                           0.0000

*   The chi-square value for MLM, MLMV, MLR, ULSMV, WLSM and WLSMV cannot be used
    for chi-square difference tests.  MLM, MLR and WLSM chi-square difference
    testing is described in the Mplus Technical Appendices at www.statmodel.com.
    See chi-square difference testing in the index of the Mplus User's Guide.

**  The degrees of freedom for MLMV, ULSMV and WLSMV are estimated according to
    a formula given in the Mplus Technical Appendices at www.statmodel.com.
    See degrees of freedom in the index of the Mplus User's Guide.

Chi-Square Test of Model Fit for the Baseline Model

          Value                         598475.659
          Degrees of Freedom                   259
          P-Value                           0.0000

CFI/TLI

          CFI                                0.857
          TLI                                0.958

Number of Free Parameters                       90

RMSEA (Root Mean Square Error Of Approximation)

          Estimate                           0.024

WRMR (Weighted Root Mean Square Residual)

          Value                              8.342



MODEL RESULTS

                                                    Two-Tailed
                    Estimate       S.E.  Est./S.E.    P-Value

 L        BY
    L1                 1.000      0.000    999.000    999.000
    L2                 1.096      0.006    189.074      0.000
    L3                 1.038      0.005    197.746      0.000
    L4                 0.809      0.009     86.099      0.000
    L5                 0.937      0.006    162.268      0.000
    L6                 1.056      0.006    164.780      0.000
    L7                 0.848      0.006    135.771      0.000
    L8                 0.795      0.009     85.461      0.000
    L9                 0.464      0.007     61.985      0.000
    L10                1.065      0.007    146.065      0.000
    L11                1.027      0.006    174.345      0.000
    L12                0.792      0.007    119.721      0.000
    L13                0.509      0.007     76.267      0.000
    L14                1.187      0.006    201.759      0.000
    L15                1.162      0.006    190.031      0.000
    L16                1.000      0.006    175.797      0.000
    L17                0.429      0.008     57.007      0.000
    L18                0.444      0.007     59.942      0.000
    L19                0.770      0.007    106.079      0.000
    L20               -0.125      0.008    -15.923      0.000
    L21                0.335      0.007     44.905      0.000
    L22                0.526      0.007     72.096      0.000
    L23                0.207      0.007     29.255      0.000
    L24                0.595      0.008     70.158      0.000
    L25                0.782      0.007    116.766      0.000
    L26                1.010      0.006    168.931      0.000
    L27                0.295      0.007     42.712      0.000
    L28                0.916      0.006    145.471      0.000
    L29                0.801      0.006    125.625      0.000
    L30                0.450      0.007     62.259      0.000
    L31                0.944      0.007    141.672      0.000
    L32                0.469      0.007     71.446      0.000
    L33                0.179      0.007     24.024      0.000
    L34                0.574      0.007     87.193      0.000
    L35                0.915      0.006    144.640      0.000
    L36                0.827      0.006    139.864      0.000
    L37                1.063      0.006    185.650      0.000
    L38                0.571      0.008     70.372      0.000
    L39                0.285      0.008     35.187      0.000
    L40                0.953      0.006    171.162      0.000
    L41                0.991      0.006    176.053      0.000
    L42                0.650      0.007     93.706      0.000
    L43                0.260      0.008     33.312      0.000
    L44                0.649      0.006    100.462      0.000
    L45                0.944      0.006    149.505      0.000

 Thresholds
    L1$1              -0.192      0.003    -62.616      0.000
    L2$1               0.074      0.003     24.336      0.000
    L3$1              -0.356      0.003   -114.357      0.000
    L4$1               1.137      0.004    293.361      0.000
    L5$1               0.025      0.003      8.190      0.000
    L6$1               0.418      0.003    132.984      0.000
    L7$1               0.369      0.003    118.485      0.000
    L8$1               1.148      0.004    294.740      0.000
    L9$1               0.830      0.003    240.269      0.000
    L10$1              0.713      0.003    213.386      0.000
    L11$1              0.127      0.003     41.548      0.000
    L12$1              0.529      0.003    165.281      0.000
    L13$1              0.536      0.003    167.325      0.000
    L14$1              0.045      0.003     14.878      0.000
    L15$1              0.228      0.003     74.220      0.000
    L16$1              0.046      0.003     15.038      0.000
    L17$1              0.800      0.003    233.717      0.000
    L18$1              0.757      0.003    223.960      0.000
    L19$1              0.730      0.003    217.573      0.000
    L20$1              1.017      0.004    275.691      0.000
    L21$1              0.793      0.003    232.167      0.000
    L22$1              0.735      0.003    218.846      0.000
    L23$1              0.734      0.003    218.442      0.000
    L24$1              1.020      0.004    276.170      0.000
    L25$1              0.546      0.003    170.023      0.000
    L26$1              0.095      0.003     31.134      0.000
    L27$1              0.620      0.003    189.965      0.000
    L28$1              0.370      0.003    118.736      0.000
    L29$1              0.453      0.003    143.358      0.000
    L30$1              0.722      0.003    215.726      0.000
    L31$1              0.552      0.003    171.604      0.000
    L32$1              0.477      0.003    150.521      0.000
    L33$1              0.824      0.003    238.936      0.000
    L34$1              0.503      0.003    158.036      0.000
    L35$1              0.374      0.003    119.920      0.000
    L36$1              0.177      0.003     57.862      0.000
    L37$1              0.001      0.003      0.332      0.740
    L38$1              0.876      0.004    249.822      0.000
    L39$1              0.984      0.004    270.235      0.000
    L40$1             -0.154      0.003    -50.504      0.000
    L41$1             -0.172      0.003    -56.127      0.000
    L42$1              0.618      0.003    189.490      0.000
    L43$1              0.846      0.003    243.554      0.000
    L44$1              0.458      0.003    144.823      0.000
    L45$1              0.384      0.003    122.909      0.000

 Variances
    L                  0.301      0.002    122.546      0.000


IRT PARAMETERIZATION IN TWO-PARAMETER PROBIT METRIC
WHERE THE PROBIT IS DISCRIMINATION*(THETA - DIFFICULTY)

 Item Discriminations

 L        BY
    L1                 0.656      0.004    171.428      0.000
    L2                 0.752      0.005    166.576      0.000
    L3                 0.692      0.004    187.075      0.000
    L4                 0.495      0.007     72.948      0.000
    L5                 0.599      0.004    147.805      0.000
    L6                 0.710      0.005    137.712      0.000
    L7                 0.525      0.004    121.895      0.000
    L8                 0.484      0.007     72.763      0.000
    L9                 0.263      0.004     59.432      0.000
    L10                0.719      0.006    115.366      0.000
    L11                0.681      0.004    155.013      0.000
    L12                0.482      0.004    107.217      0.000
    L13                0.291      0.004     72.968      0.000
    L14                0.857      0.005    175.989      0.000
    L15                0.827      0.005    160.563      0.000
    L16                0.656      0.004    159.971      0.000
    L17                0.242      0.004     54.802      0.000
    L18                0.251      0.004     57.579      0.000
    L19                0.465      0.005     95.009      0.000
    L20               -0.069      0.004    -15.892      0.000
    L21                0.187      0.004     43.885      0.000
    L22                0.301      0.004     68.321      0.000
    L23                0.114      0.004     28.990      0.000
    L24                0.345      0.005     64.895      0.000
    L25                0.475      0.005    105.239      0.000
    L26                0.665      0.004    152.187      0.000
    L27                0.164      0.004     41.993      0.000
    L28                0.581      0.004    129.226      0.000
    L29                0.489      0.004    112.645      0.000
    L30                0.255      0.004     59.787      0.000
    L31                0.605      0.005    120.810      0.000
    L32                0.266      0.004     68.950      0.000
    L33                0.098      0.004     23.877      0.000
    L34                0.331      0.004     82.576      0.000
    L35                0.580      0.005    128.680      0.000
    L36                0.508      0.004    129.759      0.000
    L37                0.717      0.004    168.969      0.000
    L38                0.330      0.005     65.417      0.000
    L39                0.158      0.005     34.620      0.000
    L40                0.613      0.004    161.479      0.000
    L41                0.647      0.004    164.559      0.000
    L42                0.381      0.004     86.539      0.000
    L43                0.144      0.004     32.810      0.000
    L44                0.381      0.004     94.286      0.000
    L45                0.604      0.005    131.957      0.000

 Item Difficulties
    L1$1              -0.350      0.006    -58.931      0.000
    L2$1               0.123      0.005     24.470      0.000
    L3$1              -0.626      0.006   -100.067      0.000
    L4$1               2.565      0.030     86.132      0.000
    L5$1               0.048      0.006      8.207      0.000
    L6$1               0.721      0.006    114.805      0.000
    L7$1               0.795      0.008     95.495      0.000
    L8$1               2.634      0.031     85.181      0.000
    L9$1               3.266      0.053     61.051      0.000
    L10$1              1.220      0.009    137.162      0.000
    L11$1              0.225      0.005     41.453      0.000
    L12$1              1.218      0.012    103.977      0.000
    L13$1              1.922      0.027     71.388      0.000
    L14$1              0.070      0.005     14.950      0.000
    L15$1              0.358      0.005     73.422      0.000
    L16$1              0.083      0.006     15.105      0.000
    L17$1              3.399      0.061     56.096      0.000
    L18$1              3.110      0.053     58.837      0.000
    L19$1              1.730      0.017    101.586      0.000
    L20$1            -14.859      0.933    -15.928      0.000
    L21$1              4.322      0.097     44.438      0.000
    L22$1              2.551      0.036     70.249      0.000
    L23$1              6.470      0.223     29.057      0.000
    L24$1              3.124      0.045     69.728      0.000
    L25$1              1.274      0.012    103.570      0.000
    L26$1              0.171      0.006     31.114      0.000
    L27$1              3.827      0.091     41.972      0.000
    L28$1              0.737      0.007     99.629      0.000
    L29$1              1.030      0.010    101.491      0.000
    L30$1              2.927      0.048     60.848      0.000
    L31$1              1.066      0.009    120.937      0.000
    L32$1              1.857      0.028     66.279      0.000
    L33$1              8.408      0.351     23.959      0.000
    L34$1              1.601      0.020     79.201      0.000
    L35$1              0.746      0.007     99.924      0.000
    L36$1              0.391      0.007     55.343      0.000
    L37$1              0.002      0.005      0.333      0.740
    L38$1              2.799      0.040     69.475      0.000
    L39$1              6.303      0.180     35.090      0.000
    L40$1             -0.295      0.006    -48.159      0.000
    L41$1             -0.316      0.006    -53.280      0.000
    L42$1              1.736      0.020     87.997      0.000
    L43$1              5.924      0.179     33.128      0.000
    L44$1              1.286      0.015     86.958      0.000
    L45$1              0.742      0.007    103.565      0.000

 Variances
    L                  1.000      0.000      0.000      1.000


STANDARDIZED MODEL RESULTS


STDYX Standardization

                                                    Two-Tailed
                    Estimate       S.E.  Est./S.E.    P-Value

 L        BY
    L1                 0.548      0.002    245.092      0.000
    L2                 0.601      0.002    260.689      0.000
    L3                 0.569      0.002    276.586      0.000
    L4                 0.443      0.005     90.794      0.000
    L5                 0.514      0.003    200.864      0.000
    L6                 0.579      0.003    207.126      0.000
    L7                 0.465      0.003    155.482      0.000
    L8                 0.436      0.005     89.828      0.000
    L9                 0.254      0.004     63.536      0.000
    L10                0.584      0.003    175.055      0.000
    L11                0.563      0.002    226.889      0.000
    L12                0.434      0.003    132.165      0.000
    L13                0.279      0.004     79.135      0.000
    L14                0.651      0.002    305.291      0.000
    L15                0.637      0.002    270.291      0.000
    L16                0.548      0.002    228.713      0.000
    L17                0.235      0.004     58.016      0.000
    L18                0.243      0.004     61.205      0.000
    L19                0.422      0.004    115.589      0.000
    L20               -0.068      0.004    -15.967      0.000
    L21                0.183      0.004     45.414      0.000
    L22                0.288      0.004     74.514      0.000
    L23                0.113      0.004     29.367      0.000
    L24                0.326      0.004     72.635      0.000
    L25                0.429      0.003    128.941      0.000
    L26                0.554      0.003    219.439      0.000
    L27                0.162      0.004     43.125      0.000
    L28                0.502      0.003    172.791      0.000
    L29                0.439      0.003    139.586      0.000
    L30                0.247      0.004     63.662      0.000
    L31                0.517      0.003    164.992      0.000
    L32                0.257      0.003     73.829      0.000
    L33                0.098      0.004     24.108      0.000
    L34                0.314      0.003     91.638      0.000
    L35                0.501      0.003    171.909      0.000
    L36                0.453      0.003    163.285      0.000
    L37                0.582      0.002    255.745      0.000
    L38                0.313      0.004     72.520      0.000
    L39                0.156      0.004     35.485      0.000
    L40                0.523      0.002    222.131      0.000
    L41                0.543      0.002    233.387      0.000
    L42                0.356      0.004     99.114      0.000
    L43                0.143      0.004     33.492      0.000
    L44                0.356      0.003    107.953      0.000
    L45                0.517      0.003    180.173      0.000

 Thresholds
    L1$1              -0.192      0.003    -62.616      0.000
    L2$1               0.074      0.003     24.336      0.000
    L3$1              -0.356      0.003   -114.357      0.000
    L4$1               1.137      0.004    293.361      0.000
    L5$1               0.025      0.003      8.190      0.000
    L6$1               0.418      0.003    132.984      0.000
    L7$1               0.369      0.003    118.485      0.000
    L8$1               1.148      0.004    294.740      0.000
    L9$1               0.830      0.003    240.269      0.000
    L10$1              0.713      0.003    213.386      0.000
    L11$1              0.127      0.003     41.548      0.000
    L12$1              0.529      0.003    165.281      0.000
    L13$1              0.536      0.003    167.325      0.000
    L14$1              0.045      0.003     14.878      0.000
    L15$1              0.228      0.003     74.220      0.000
    L16$1              0.046      0.003     15.038      0.000
    L17$1              0.800      0.003    233.717      0.000
    L18$1              0.757      0.003    223.960      0.000
    L19$1              0.730      0.003    217.573      0.000
    L20$1              1.017      0.004    275.691      0.000
    L21$1              0.793      0.003    232.167      0.000
    L22$1              0.735      0.003    218.846      0.000
    L23$1              0.734      0.003    218.442      0.000
    L24$1              1.020      0.004    276.170      0.000
    L25$1              0.546      0.003    170.023      0.000
    L26$1              0.095      0.003     31.134      0.000
    L27$1              0.620      0.003    189.965      0.000
    L28$1              0.370      0.003    118.736      0.000
    L29$1              0.453      0.003    143.358      0.000
    L30$1              0.722      0.003    215.726      0.000
    L31$1              0.552      0.003    171.604      0.000
    L32$1              0.477      0.003    150.521      0.000
    L33$1              0.824      0.003    238.936      0.000
    L34$1              0.503      0.003    158.036      0.000
    L35$1              0.374      0.003    119.920      0.000
    L36$1              0.177      0.003     57.862      0.000
    L37$1              0.001      0.003      0.332      0.740
    L38$1              0.876      0.004    249.822      0.000
    L39$1              0.984      0.004    270.235      0.000
    L40$1             -0.154      0.003    -50.504      0.000
    L41$1             -0.172      0.003    -56.127      0.000
    L42$1              0.618      0.003    189.490      0.000
    L43$1              0.846      0.003    243.554      0.000
    L44$1              0.458      0.003    144.823      0.000
    L45$1              0.384      0.003    122.909      0.000

 Variances
    L                  1.000      0.000    999.000    999.000


STDY Standardization

                                                    Two-Tailed
                    Estimate       S.E.  Est./S.E.    P-Value

 L        BY
    L1                 0.548      0.002    245.092      0.000
    L2                 0.601      0.002    260.689      0.000
    L3                 0.569      0.002    276.586      0.000
    L4                 0.443      0.005     90.794      0.000
    L5                 0.514      0.003    200.864      0.000
    L6                 0.579      0.003    207.126      0.000
    L7                 0.465      0.003    155.482      0.000
    L8                 0.436      0.005     89.828      0.000
    L9                 0.254      0.004     63.536      0.000
    L10                0.584      0.003    175.055      0.000
    L11                0.563      0.002    226.889      0.000
    L12                0.434      0.003    132.165      0.000
    L13                0.279      0.004     79.135      0.000
    L14                0.651      0.002    305.291      0.000
    L15                0.637      0.002    270.291      0.000
    L16                0.548      0.002    228.713      0.000
    L17                0.235      0.004     58.016      0.000
    L18                0.243      0.004     61.205      0.000
    L19                0.422      0.004    115.589      0.000
    L20               -0.068      0.004    -15.967      0.000
    L21                0.183      0.004     45.414      0.000
    L22                0.288      0.004     74.514      0.000
    L23                0.113      0.004     29.367      0.000
    L24                0.326      0.004     72.635      0.000
    L25                0.429      0.003    128.941      0.000
    L26                0.554      0.003    219.439      0.000
    L27                0.162      0.004     43.125      0.000
    L28                0.502      0.003    172.791      0.000
    L29                0.439      0.003    139.586      0.000
    L30                0.247      0.004     63.662      0.000
    L31                0.517      0.003    164.992      0.000
    L32                0.257      0.003     73.829      0.000
    L33                0.098      0.004     24.108      0.000
    L34                0.314      0.003     91.638      0.000
    L35                0.501      0.003    171.909      0.000
    L36                0.453      0.003    163.285      0.000
    L37                0.582      0.002    255.745      0.000
    L38                0.313      0.004     72.520      0.000
    L39                0.156      0.004     35.485      0.000
    L40                0.523      0.002    222.131      0.000
    L41                0.543      0.002    233.387      0.000
    L42                0.356      0.004     99.114      0.000
    L43                0.143      0.004     33.492      0.000
    L44                0.356      0.003    107.953      0.000
    L45                0.517      0.003    180.173      0.000

 Thresholds
    L1$1              -0.192      0.003    -62.616      0.000
    L2$1               0.074      0.003     24.336      0.000
    L3$1              -0.356      0.003   -114.357      0.000
    L4$1               1.137      0.004    293.361      0.000
    L5$1               0.025      0.003      8.190      0.000
    L6$1               0.418      0.003    132.984      0.000
    L7$1               0.369      0.003    118.485      0.000
    L8$1               1.148      0.004    294.740      0.000
    L9$1               0.830      0.003    240.269      0.000
    L10$1              0.713      0.003    213.386      0.000
    L11$1              0.127      0.003     41.548      0.000
    L12$1              0.529      0.003    165.281      0.000
    L13$1              0.536      0.003    167.325      0.000
    L14$1              0.045      0.003     14.878      0.000
    L15$1              0.228      0.003     74.220      0.000
    L16$1              0.046      0.003     15.038      0.000
    L17$1              0.800      0.003    233.717      0.000
    L18$1              0.757      0.003    223.960      0.000
    L19$1              0.730      0.003    217.573      0.000
    L20$1              1.017      0.004    275.691      0.000
    L21$1              0.793      0.003    232.167      0.000
    L22$1              0.735      0.003    218.846      0.000
    L23$1              0.734      0.003    218.442      0.000
    L24$1              1.020      0.004    276.170      0.000
    L25$1              0.546      0.003    170.023      0.000
    L26$1              0.095      0.003     31.134      0.000
    L27$1              0.620      0.003    189.965      0.000
    L28$1              0.370      0.003    118.736      0.000
    L29$1              0.453      0.003    143.358      0.000
    L30$1              0.722      0.003    215.726      0.000
    L31$1              0.552      0.003    171.604      0.000
    L32$1              0.477      0.003    150.521      0.000
    L33$1              0.824      0.003    238.936      0.000
    L34$1              0.503      0.003    158.036      0.000
    L35$1              0.374      0.003    119.920      0.000
    L36$1              0.177      0.003     57.862      0.000
    L37$1              0.001      0.003      0.332      0.740
    L38$1              0.876      0.004    249.822      0.000
    L39$1              0.984      0.004    270.235      0.000
    L40$1             -0.154      0.003    -50.504      0.000
    L41$1             -0.172      0.003    -56.127      0.000
    L42$1              0.618      0.003    189.490      0.000
    L43$1              0.846      0.003    243.554      0.000
    L44$1              0.458      0.003    144.823      0.000
    L45$1              0.384      0.003    122.909      0.000

 Variances
    L                  1.000      0.000    999.000    999.000


STD Standardization

                                                    Two-Tailed
                    Estimate       S.E.  Est./S.E.    P-Value

 L        BY
    L1                 0.548      0.002    245.092      0.000
    L2                 0.601      0.002    260.689      0.000
    L3                 0.569      0.002    276.586      0.000
    L4                 0.443      0.005     90.794      0.000
    L5                 0.514      0.003    200.864      0.000
    L6                 0.579      0.003    207.126      0.000
    L7                 0.465      0.003    155.482      0.000
    L8                 0.436      0.005     89.828      0.000
    L9                 0.254      0.004     63.536      0.000
    L10                0.584      0.003    175.055      0.000
    L11                0.563      0.002    226.889      0.000
    L12                0.434      0.003    132.165      0.000
    L13                0.279      0.004     79.135      0.000
    L14                0.651      0.002    305.291      0.000
    L15                0.637      0.002    270.291      0.000
    L16                0.548      0.002    228.713      0.000
    L17                0.235      0.004     58.016      0.000
    L18                0.243      0.004     61.205      0.000
    L19                0.422      0.004    115.589      0.000
    L20               -0.068      0.004    -15.967      0.000
    L21                0.183      0.004     45.414      0.000
    L22                0.288      0.004     74.514      0.000
    L23                0.113      0.004     29.367      0.000
    L24                0.326      0.004     72.635      0.000
    L25                0.429      0.003    128.941      0.000
    L26                0.554      0.003    219.439      0.000
    L27                0.162      0.004     43.125      0.000
    L28                0.502      0.003    172.791      0.000
    L29                0.439      0.003    139.586      0.000
    L30                0.247      0.004     63.662      0.000
    L31                0.517      0.003    164.992      0.000
    L32                0.257      0.003     73.829      0.000
    L33                0.098      0.004     24.108      0.000
    L34                0.314      0.003     91.638      0.000
    L35                0.501      0.003    171.909      0.000
    L36                0.453      0.003    163.285      0.000
    L37                0.582      0.002    255.745      0.000
    L38                0.313      0.004     72.520      0.000
    L39                0.156      0.004     35.485      0.000
    L40                0.523      0.002    222.131      0.000
    L41                0.543      0.002    233.387      0.000
    L42                0.356      0.004     99.114      0.000
    L43                0.143      0.004     33.492      0.000
    L44                0.356      0.003    107.953      0.000
    L45                0.517      0.003    180.173      0.000

 Thresholds
    L1$1              -0.192      0.003    -62.616      0.000
    L2$1               0.074      0.003     24.336      0.000
    L3$1              -0.356      0.003   -114.357      0.000
    L4$1               1.137      0.004    293.361      0.000
    L5$1               0.025      0.003      8.190      0.000
    L6$1               0.418      0.003    132.984      0.000
    L7$1               0.369      0.003    118.485      0.000
    L8$1               1.148      0.004    294.740      0.000
    L9$1               0.830      0.003    240.269      0.000
    L10$1              0.713      0.003    213.386      0.000
    L11$1              0.127      0.003     41.548      0.000
    L12$1              0.529      0.003    165.281      0.000
    L13$1              0.536      0.003    167.325      0.000
    L14$1              0.045      0.003     14.878      0.000
    L15$1              0.228      0.003     74.220      0.000
    L16$1              0.046      0.003     15.038      0.000
    L17$1              0.800      0.003    233.717      0.000
    L18$1              0.757      0.003    223.960      0.000
    L19$1              0.730      0.003    217.573      0.000
    L20$1              1.017      0.004    275.691      0.000
    L21$1              0.793      0.003    232.167      0.000
    L22$1              0.735      0.003    218.846      0.000
    L23$1              0.734      0.003    218.442      0.000
    L24$1              1.020      0.004    276.170      0.000
    L25$1              0.546      0.003    170.023      0.000
    L26$1              0.095      0.003     31.134      0.000
    L27$1              0.620      0.003    189.965      0.000
    L28$1              0.370      0.003    118.736      0.000
    L29$1              0.453      0.003    143.358      0.000
    L30$1              0.722      0.003    215.726      0.000
    L31$1              0.552      0.003    171.604      0.000
    L32$1              0.477      0.003    150.521      0.000
    L33$1              0.824      0.003    238.936      0.000
    L34$1              0.503      0.003    158.036      0.000
    L35$1              0.374      0.003    119.920      0.000
    L36$1              0.177      0.003     57.862      0.000
    L37$1              0.001      0.003      0.332      0.740
    L38$1              0.876      0.004    249.822      0.000
    L39$1              0.984      0.004    270.235      0.000
    L40$1             -0.154      0.003    -50.504      0.000
    L41$1             -0.172      0.003    -56.127      0.000
    L42$1              0.618      0.003    189.490      0.000
    L43$1              0.846      0.003    243.554      0.000
    L44$1              0.458      0.003    144.823      0.000
    L45$1              0.384      0.003    122.909      0.000

 Variances
    L                  1.000      0.000    999.000    999.000


R-SQUARE

    Observed                                        Two-Tailed   Residual
    Variable        Estimate       S.E.  Est./S.E.    P-Value    Variance

    L1                 0.301      0.002    122.546      0.000      0.699
    L2                 0.361      0.003    130.344      0.000      0.639
    L3                 0.324      0.002    138.293      0.000      0.676
    L4                 0.197      0.004     45.397      0.000      0.803
    L5                 0.264      0.003    100.432      0.000      0.736
    L6                 0.335      0.003    103.563      0.000      0.665
    L7                 0.216      0.003     77.741      0.000      0.784
    L8                 0.190      0.004     44.914      0.000      0.810
    L9                 0.065      0.002     31.768      0.000      0.935
    L10                0.341      0.004     87.527      0.000      0.659
    L11                0.317      0.003    113.444      0.000      0.683
    L12                0.189      0.003     66.082      0.000      0.811
    L13                0.078      0.002     39.567      0.000      0.922
    L14                0.424      0.003    152.645      0.000      0.576
    L15                0.406      0.003    135.145      0.000      0.594
    L16                0.301      0.003    114.356      0.000      0.699
    L17                0.055      0.002     29.008      0.000      0.945
    L18                0.059      0.002     30.602      0.000      0.941
    L19                0.178      0.003     57.794      0.000      0.822
    L20                0.005      0.001      7.983      0.000      0.995
    L21                0.034      0.001     22.707      0.000      0.966
    L22                0.083      0.002     37.257      0.000      0.917
    L23                0.013      0.001     14.684      0.000      0.987
    L24                0.107      0.003     36.317      0.000      0.893
    L25                0.184      0.003     64.471      0.000      0.816
    L26                0.306      0.003    109.719      0.000      0.694
    L27                0.026      0.001     21.562      0.000      0.974
    L28                0.252      0.003     86.395      0.000      0.748
    L29                0.193      0.003     69.793      0.000      0.807
    L30                0.061      0.002     31.831      0.000      0.939
    L31                0.268      0.003     82.496      0.000      0.732
    L32                0.066      0.002     36.915      0.000      0.934
    L33                0.010      0.001     12.054      0.000      0.990
    L34                0.099      0.002     45.819      0.000      0.901
    L35                0.251      0.003     85.954      0.000      0.749
    L36                0.205      0.003     81.643      0.000      0.795
    L37                0.339      0.003    127.873      0.000      0.661
    L38                0.098      0.003     36.260      0.000      0.902
    L39                0.024      0.001     17.743      0.000      0.976
    L40                0.273      0.002    111.066      0.000      0.727
    L41                0.295      0.003    116.694      0.000      0.705
    L42                0.127      0.003     49.557      0.000      0.873
    L43                0.020      0.001     16.746      0.000      0.980
    L44                0.127      0.002     53.976      0.000      0.873
    L45                0.268      0.003     90.087      0.000      0.732


QUALITY OF NUMERICAL RESULTS

     Condition Number for the Information Matrix              0.235E-03
       (ratio of smallest to largest eigenvalue)


     Beginning Time:  18:30:30
        Ending Time:  18:33:21
       Elapsed Time:  00:02:51



MUTHEN & MUTHEN
3463 Stoner Ave.
Los Angeles, CA  90066

Tel: (310) 391-9971
Fax: (310) 391-8971
Web: www.StatModel.com
Support: Support@StatModel.com

Copyright (c) 1998-2008 Muthen & Muthen
