TITLE:	ENEM 2011
DATA:	FILE IS DATA.txt;
VARIABLE:	NAMES ARE mt1-mt45,cn1-cn45,ch1-ch45,l1-l45;
        	CATEGORICAL ARE l1-l8 l10-l12 l14-l16 l19 l25 
            l26 l28 l29 l31 l35-l37 l40 l41 l45;
            USEVARIABLES ARE l1-l8 l10-l12 l14-l16 l19 l25 
            l26 l28 l29 l31 l35-l37 l40 l41 l45;
MODEL:
          L BY l1-l8 l10-l12 l14-l16 l19 l25 
            l26 l28 l29 l31 l35-l37 l40 l41 l45;
          

OUTPUT: STANDARDIZED;







