Mplus VERSION 5.2
MUTHEN & MUTHEN
06/06/2013   6:08 PM

INPUT INSTRUCTIONS

  TITLE:        ENEM 2011
  DATA:        FILE IS DATA.txt;
  VARIABLE:        NAMES ARE mt1-mt45,cn1-cn45,ch1-ch45,l1-l45;
                  CATEGORICAL ARE mt1-mt45;
              USEVARIABLES ARE mt1-mt45;
  MODEL:
            MT BY mt1-mt45;


  OUTPUT: STANDARDIZED;










INPUT READING TERMINATED NORMALLY



ENEM 2011

SUMMARY OF ANALYSIS

Number of groups                                                 1
Number of observations                                      169803

Number of dependent variables                                   45
Number of independent variables                                  0
Number of continuous latent variables                            1

Observed dependent variables

  Binary and ordered categorical (ordinal)
   MT1         MT2         MT3         MT4         MT5         MT6
   MT7         MT8         MT9         MT10        MT11        MT12
   MT13        MT14        MT15        MT16        MT17        MT18
   MT19        MT20        MT21        MT22        MT23        MT24
   MT25        MT26        MT27        MT28        MT29        MT30
   MT31        MT32        MT33        MT34        MT35        MT36
   MT37        MT38        MT39        MT40        MT41        MT42
   MT43        MT44        MT45

Continuous latent variables
   MT


Estimator                                                    WLSMV
Maximum number of iterations                                  1000
Convergence criterion                                    0.500D-04
Maximum number of steepest descent iterations                   20
Parameterization                                             DELTA

Input data file(s)
  DATA.txt

Input data format  FREE


SUMMARY OF CATEGORICAL DATA PROPORTIONS

    MT1
      Category 1    0.518
      Category 2    0.482
    MT2
      Category 1    0.693
      Category 2    0.307
    MT3
      Category 1    0.932
      Category 2    0.068
    MT4
      Category 1    0.558
      Category 2    0.442
    MT5
      Category 1    0.787
      Category 2    0.213
    MT6
      Category 1    0.570
      Category 2    0.430
    MT7
      Category 1    0.638
      Category 2    0.362
    MT8
      Category 1    0.719
      Category 2    0.281
    MT9
      Category 1    0.721
      Category 2    0.279
    MT10
      Category 1    0.511
      Category 2    0.489
    MT11
      Category 1    0.549
      Category 2    0.451
    MT12
      Category 1    0.700
      Category 2    0.300
    MT13
      Category 1    0.888
      Category 2    0.112
    MT14
      Category 1    0.879
      Category 2    0.121
    MT15
      Category 1    0.751
      Category 2    0.249
    MT16
      Category 1    0.836
      Category 2    0.164
    MT17
      Category 1    0.828
      Category 2    0.172
    MT18
      Category 1    0.791
      Category 2    0.209
    MT19
      Category 1    0.849
      Category 2    0.151
    MT20
      Category 1    0.618
      Category 2    0.382
    MT21
      Category 1    0.731
      Category 2    0.269
    MT22
      Category 1    0.679
      Category 2    0.321
    MT23
      Category 1    0.719
      Category 2    0.281
    MT24
      Category 1    0.771
      Category 2    0.229
    MT25
      Category 1    0.890
      Category 2    0.110
    MT26
      Category 1    0.713
      Category 2    0.287
    MT27
      Category 1    0.481
      Category 2    0.519
    MT28
      Category 1    0.644
      Category 2    0.356
    MT29
      Category 1    0.475
      Category 2    0.525
    MT30
      Category 1    0.707
      Category 2    0.293
    MT31
      Category 1    0.783
      Category 2    0.217
    MT32
      Category 1    0.693
      Category 2    0.307
    MT33
      Category 1    0.828
      Category 2    0.172
    MT34
      Category 1    0.599
      Category 2    0.401
    MT35
      Category 1    0.812
      Category 2    0.188
    MT36
      Category 1    0.779
      Category 2    0.221
    MT37
      Category 1    0.766
      Category 2    0.234
    MT38
      Category 1    0.322
      Category 2    0.678
    MT39
      Category 1    0.803
      Category 2    0.197
    MT40
      Category 1    0.384
      Category 2    0.616
    MT41
      Category 1    0.570
      Category 2    0.430
    MT42
      Category 1    0.723
      Category 2    0.277
    MT43
      Category 1    0.532
      Category 2    0.468
    MT44
      Category 1    0.119
      Category 2    0.881
    MT45
      Category 1    0.637
      Category 2    0.363



THE MODEL ESTIMATION TERMINATED NORMALLY



TESTS OF MODEL FIT

Chi-Square Test of Model Fit

          Value                          51085.818*
          Degrees of Freedom                   900**
          P-Value                           0.0000

*   The chi-square value for MLM, MLMV, MLR, ULSMV, WLSM and WLSMV cannot be used
    for chi-square difference tests.  MLM, MLR and WLSM chi-square difference
    testing is described in the Mplus Technical Appendices at www.statmodel.com.
    See chi-square difference testing in the index of the Mplus User's Guide.

**  The degrees of freedom for MLMV, ULSMV and WLSMV are estimated according to
    a formula given in the Mplus Technical Appendices at www.statmodel.com.
    See degrees of freedom in the index of the Mplus User's Guide.

Chi-Square Test of Model Fit for the Baseline Model

          Value                         494262.973
          Degrees of Freedom                   497
          P-Value                           0.0000

CFI/TLI

          CFI                                0.898
          TLI                                0.944

Number of Free Parameters                       90

RMSEA (Root Mean Square Error Of Approximation)

          Estimate                           0.018

WRMR (Weighted Root Mean Square Residual)

          Value                              6.636



MODEL RESULTS

                                                    Two-Tailed
                    Estimate       S.E.  Est./S.E.    P-Value

 MT       BY
    MT1                1.000      0.000    999.000    999.000
    MT2                0.961      0.007    135.050      0.000
    MT3                0.357      0.013     28.053      0.000
    MT4                0.521      0.006     81.343      0.000
    MT5                0.241      0.008     31.940      0.000
    MT6                0.925      0.006    142.999      0.000
    MT7                0.328      0.007     49.760      0.000
    MT8                0.076      0.007     10.744      0.000
    MT9                0.663      0.007     92.506      0.000
    MT10               0.961      0.007    144.151      0.000
    MT11               0.356      0.006     56.774      0.000
    MT12               0.611      0.007     87.472      0.000
    MT13               0.672      0.010     65.973      0.000
    MT14               0.216      0.009     22.833      0.000
    MT15               0.425      0.007     58.580      0.000
    MT16               0.400      0.009     46.230      0.000
    MT17               0.466      0.009     54.677      0.000
    MT18               0.282      0.007     37.966      0.000
    MT19               0.229      0.008     27.499      0.000
    MT20               0.808      0.007    121.629      0.000
    MT21               1.049      0.007    140.596      0.000
    MT22               0.893      0.007    126.770      0.000
    MT23               0.638      0.007     89.012      0.000
    MT24               0.313      0.007     41.901      0.000
    MT25              -0.145      0.008    -17.428      0.000
    MT26               0.410      0.007     58.755      0.000
    MT27               0.939      0.006    148.415      0.000
    MT28               0.446      0.007     67.327      0.000
    MT29               0.757      0.007    115.014      0.000
    MT30               0.375      0.007     54.669      0.000
    MT31               0.362      0.008     46.626      0.000
    MT32               0.711      0.007    102.079      0.000
    MT33               0.089      0.008     11.699      0.000
    MT34               0.927      0.007    138.067      0.000
    MT35               0.386      0.008     47.299      0.000
    MT36               0.216      0.007     29.141      0.000
    MT37               0.548      0.008     72.927      0.000
    MT38               0.849      0.006    132.894      0.000
    MT39              -0.049      0.008     -6.434      0.000
    MT40               1.129      0.007    169.586      0.000
    MT41               0.816      0.006    126.879      0.000
    MT42               0.882      0.007    121.393      0.000
    MT43               0.984      0.007    150.658      0.000
    MT44               0.946      0.007    134.685      0.000
    MT45               0.543      0.007     82.050      0.000

 Thresholds
    MT1$1              0.044      0.003     14.514      0.000
    MT2$1              0.505      0.003    158.380      0.000
    MT3$1              1.493      0.005    320.467      0.000
    MT4$1              0.145      0.003     47.498      0.000
    MT5$1              0.798      0.003    233.157      0.000
    MT6$1              0.176      0.003     57.639      0.000
    MT7$1              0.354      0.003    113.798      0.000
    MT8$1              0.579      0.003    178.936      0.000
    MT9$1              0.586      0.003    180.860      0.000
    MT10$1             0.029      0.003      9.423      0.000
    MT11$1             0.123      0.003     40.462      0.000
    MT12$1             0.525      0.003    164.025      0.000
    MT13$1             1.218      0.004    302.845      0.000
    MT14$1             1.172      0.004    297.715      0.000
    MT15$1             0.679      0.003    205.124      0.000
    MT16$1             0.979      0.004    269.270      0.000
    MT17$1             0.946      0.004    263.461      0.000
    MT18$1             0.810      0.003    235.938      0.000
    MT19$1             1.033      0.004    278.256      0.000
    MT20$1             0.301      0.003     97.331      0.000
    MT21$1             0.616      0.003    188.991      0.000
    MT22$1             0.464      0.003    146.589      0.000
    MT23$1             0.579      0.003    179.087      0.000
    MT24$1             0.742      0.003    220.476      0.000
    MT25$1             1.226      0.004    303.716      0.000
    MT26$1             0.562      0.003    174.340      0.000
    MT27$1            -0.049      0.003    -16.062      0.000
    MT28$1             0.369      0.003    118.495      0.000
    MT29$1            -0.062      0.003    -20.459      0.000
    MT30$1             0.546      0.003    169.876      0.000
    MT31$1             0.782      0.003    229.566      0.000
    MT32$1             0.506      0.003    158.661      0.000
    MT33$1             0.947      0.004    263.575      0.000
    MT34$1             0.252      0.003     81.876      0.000
    MT35$1             0.884      0.004    251.510      0.000
    MT36$1             0.770      0.003    227.012      0.000
    MT37$1             0.726      0.003    216.675      0.000
    MT38$1            -0.462      0.003   -146.197      0.000
    MT39$1             0.851      0.003    244.748      0.000
    MT40$1            -0.296      0.003    -95.741      0.000
    MT41$1             0.177      0.003     57.867      0.000
    MT42$1             0.593      0.003    182.664      0.000
    MT43$1             0.080      0.003     26.364      0.000
    MT44$1            -1.179      0.004   -298.479      0.000
    MT45$1             0.351      0.003    112.901      0.000

 Variances
    MT                 0.298      0.003    104.803      0.000


IRT PARAMETERIZATION IN TWO-PARAMETER PROBIT METRIC
WHERE THE PROBIT IS DISCRIMINATION*(THETA - DIFFICULTY)

 Item Discriminations

 MT       BY
    MT1                0.651      0.004    147.233      0.000
    MT2                0.616      0.005    119.575      0.000
    MT3                0.198      0.007     27.140      0.000
    MT4                0.297      0.004     80.094      0.000
    MT5                0.133      0.004     31.629      0.000
    MT6                0.584      0.004    135.264      0.000
    MT7                0.182      0.004     49.195      0.000
    MT8                0.041      0.004     10.725      0.000
    MT9                0.388      0.004     87.684      0.000
    MT10               0.616      0.004    137.387      0.000
    MT11               0.198      0.004     56.177      0.000
    MT12               0.354      0.004     83.644      0.000
    MT13               0.394      0.007     59.258      0.000
    MT14               0.119      0.005     22.569      0.000
    MT15               0.238      0.004     57.196      0.000
    MT16               0.224      0.005     44.662      0.000
    MT17               0.263      0.005     52.158      0.000
    MT18               0.156      0.004     37.592      0.000
    MT19               0.126      0.005     27.232      0.000
    MT20               0.491      0.004    115.365      0.000
    MT21               0.698      0.006    118.666      0.000
    MT22               0.558      0.005    116.443      0.000
    MT23               0.371      0.004     84.315      0.000
    MT24               0.173      0.004     41.280      0.000
    MT25              -0.079      0.005    -17.384      0.000
    MT26               0.230      0.004     57.614      0.000
    MT27               0.596      0.004    143.890      0.000
    MT28               0.251      0.004     66.509      0.000
    MT29               0.454      0.004    112.895      0.000
    MT30               0.209      0.004     54.068      0.000
    MT31               0.202      0.004     45.411      0.000
    MT32               0.421      0.004     96.721      0.000
    MT33               0.048      0.004     11.684      0.000
    MT34               0.586      0.005    130.132      0.000
    MT35               0.215      0.005     45.938      0.000
    MT36               0.119      0.004     28.905      0.000
    MT37               0.313      0.004     69.742      0.000
    MT38               0.523      0.004    130.411      0.000
    MT39              -0.027      0.004     -6.438      0.000
    MT40               0.782      0.005    166.254      0.000
    MT41               0.497      0.004    120.896      0.000
    MT42               0.549      0.005    108.998      0.000
    MT43               0.636      0.004    143.673      0.000
    MT44               0.602      0.005    127.747      0.000
    MT45               0.310      0.004     80.051      0.000

 Item Difficulties
    MT1$1              0.081      0.006     14.554      0.000
    MT2$1              0.963      0.008    116.229      0.000
    MT3$1              7.676      0.274     28.035      0.000
    MT4$1              0.510      0.012     41.735      0.000
    MT5$1              6.056      0.190     31.819      0.000
    MT6$1              0.349      0.006     55.919      0.000
    MT7$1              1.979      0.043     46.373      0.000
    MT8$1             14.018      1.307     10.722      0.000
    MT9$1              1.620      0.018     87.682      0.000
    MT10$1             0.055      0.006      9.436      0.000
    MT11$1             0.636      0.019     33.390      0.000
    MT12$1             1.574      0.019     81.411      0.000
    MT13$1             3.320      0.050     66.297      0.000
    MT14$1             9.955      0.437     22.790      0.000
    MT15$1             2.931      0.051     57.673      0.000
    MT16$1             4.482      0.097     46.052      0.000
    MT17$1             3.721      0.068     54.349      0.000
    MT18$1             5.259      0.139     37.874      0.000
    MT19$1             8.252      0.300     27.476      0.000
    MT20$1             0.683      0.008     81.414      0.000
    MT21$1             1.077      0.008    130.460      0.000
    MT22$1             0.951      0.009    106.604      0.000
    MT23$1             1.664      0.020     84.481      0.000
    MT24$1             4.344      0.104     41.632      0.000
    MT25$1           -15.549      0.891    -17.445      0.000
    MT26$1             2.511      0.044     57.063      0.000
    MT27$1            -0.095      0.006    -15.911      0.000
    MT28$1             1.518      0.025     60.422      0.000
    MT29$1            -0.151      0.007    -20.157      0.000
    MT30$1             2.667      0.050     53.279      0.000
    MT31$1             3.955      0.086     46.174      0.000
    MT32$1             1.304      0.014     92.190      0.000
    MT33$1            19.591      1.675     11.695      0.000
    MT34$1             0.498      0.007     75.265      0.000
    MT35$1             4.204      0.089     47.059      0.000
    MT36$1             6.540      0.225     29.018      0.000
    MT37$1             2.431      0.034     71.780      0.000
    MT38$1            -0.998      0.009   -105.394      0.000
    MT39$1           -31.621      4.911     -6.439      0.000
    MT40$1            -0.480      0.006    -86.787      0.000
    MT41$1             0.398      0.007     54.711      0.000
    MT42$1             1.231      0.011    112.031      0.000
    MT43$1             0.150      0.006     26.378      0.000
    MT44$1            -2.285      0.016   -140.286      0.000
    MT45$1             1.185      0.017     69.224      0.000

 Variances
    MT                 1.000      0.000      0.000      1.000


STANDARDIZED MODEL RESULTS


STDYX Standardization

                                                    Two-Tailed
                    Estimate       S.E.  Est./S.E.    P-Value

 MT       BY
    MT1                0.545      0.003    209.605      0.000
    MT2                0.524      0.003    164.879      0.000
    MT3                0.195      0.007     28.207      0.000
    MT4                0.284      0.003     87.136      0.000
    MT5                0.132      0.004     32.187      0.000
    MT6                0.504      0.003    181.436      0.000
    MT7                0.179      0.004     50.823      0.000
    MT8                0.041      0.004     10.744      0.000
    MT9                0.362      0.004    100.867      0.000
    MT10               0.524      0.003    189.451      0.000
    MT11               0.194      0.003     58.379      0.000
    MT12               0.333      0.004     94.102      0.000
    MT13               0.367      0.005     68.470      0.000
    MT14               0.118      0.005     22.887      0.000
    MT15               0.232      0.004     60.441      0.000
    MT16               0.218      0.005     46.899      0.000
    MT17               0.254      0.005     55.765      0.000
    MT18               0.154      0.004     38.505      0.000
    MT19               0.125      0.005     27.665      0.000
    MT20               0.441      0.003    143.155      0.000
    MT21               0.572      0.003    176.406      0.000
    MT22               0.487      0.003    152.715      0.000
    MT23               0.348      0.004     95.946      0.000
    MT24               0.171      0.004     42.521      0.000
    MT25              -0.079      0.005    -17.493      0.000
    MT26               0.224      0.004     60.650      0.000
    MT27               0.512      0.003    195.042      0.000
    MT28               0.243      0.003     70.697      0.000
    MT29               0.413      0.003    136.138      0.000
    MT30               0.205      0.004     56.430      0.000
    MT31               0.198      0.004     47.256      0.000
    MT32               0.388      0.003    113.841      0.000
    MT33               0.048      0.004     11.711      0.000
    MT34               0.505      0.003    174.781      0.000
    MT35               0.210      0.004     48.065      0.000
    MT36               0.118      0.004     29.312      0.000
    MT37               0.299      0.004     76.575      0.000
    MT38               0.463      0.003    166.016      0.000
    MT39              -0.027      0.004     -6.442      0.000
    MT40               0.616      0.002    267.924      0.000
    MT41               0.445      0.003    150.731      0.000
    MT42               0.481      0.003    141.876      0.000
    MT43               0.537      0.003    201.809      0.000
    MT44               0.516      0.003    174.084      0.000
    MT45               0.296      0.003     87.758      0.000

 Thresholds
    MT1$1              0.044      0.003     14.514      0.000
    MT2$1              0.505      0.003    158.380      0.000
    MT3$1              1.493      0.005    320.467      0.000
    MT4$1              0.145      0.003     47.498      0.000
    MT5$1              0.798      0.003    233.157      0.000
    MT6$1              0.176      0.003     57.639      0.000
    MT7$1              0.354      0.003    113.798      0.000
    MT8$1              0.579      0.003    178.936      0.000
    MT9$1              0.586      0.003    180.860      0.000
    MT10$1             0.029      0.003      9.423      0.000
    MT11$1             0.123      0.003     40.462      0.000
    MT12$1             0.525      0.003    164.025      0.000
    MT13$1             1.218      0.004    302.845      0.000
    MT14$1             1.172      0.004    297.715      0.000
    MT15$1             0.679      0.003    205.124      0.000
    MT16$1             0.979      0.004    269.270      0.000
    MT17$1             0.946      0.004    263.461      0.000
    MT18$1             0.810      0.003    235.938      0.000
    MT19$1             1.033      0.004    278.256      0.000
    MT20$1             0.301      0.003     97.331      0.000
    MT21$1             0.616      0.003    188.991      0.000
    MT22$1             0.464      0.003    146.589      0.000
    MT23$1             0.579      0.003    179.087      0.000
    MT24$1             0.742      0.003    220.476      0.000
    MT25$1             1.226      0.004    303.716      0.000
    MT26$1             0.562      0.003    174.340      0.000
    MT27$1            -0.049      0.003    -16.062      0.000
    MT28$1             0.369      0.003    118.495      0.000
    MT29$1            -0.062      0.003    -20.459      0.000
    MT30$1             0.546      0.003    169.876      0.000
    MT31$1             0.782      0.003    229.566      0.000
    MT32$1             0.506      0.003    158.661      0.000
    MT33$1             0.947      0.004    263.575      0.000
    MT34$1             0.252      0.003     81.876      0.000
    MT35$1             0.884      0.004    251.510      0.000
    MT36$1             0.770      0.003    227.012      0.000
    MT37$1             0.726      0.003    216.675      0.000
    MT38$1            -0.462      0.003   -146.197      0.000
    MT39$1             0.851      0.003    244.748      0.000
    MT40$1            -0.296      0.003    -95.741      0.000
    MT41$1             0.177      0.003     57.867      0.000
    MT42$1             0.593      0.003    182.664      0.000
    MT43$1             0.080      0.003     26.364      0.000
    MT44$1            -1.179      0.004   -298.479      0.000
    MT45$1             0.351      0.003    112.901      0.000

 Variances
    MT                 1.000      0.000    999.000    999.000


STDY Standardization

                                                    Two-Tailed
                    Estimate       S.E.  Est./S.E.    P-Value

 MT       BY
    MT1                0.545      0.003    209.605      0.000
    MT2                0.524      0.003    164.879      0.000
    MT3                0.195      0.007     28.207      0.000
    MT4                0.284      0.003     87.136      0.000
    MT5                0.132      0.004     32.187      0.000
    MT6                0.504      0.003    181.436      0.000
    MT7                0.179      0.004     50.823      0.000
    MT8                0.041      0.004     10.744      0.000
    MT9                0.362      0.004    100.867      0.000
    MT10               0.524      0.003    189.451      0.000
    MT11               0.194      0.003     58.379      0.000
    MT12               0.333      0.004     94.102      0.000
    MT13               0.367      0.005     68.470      0.000
    MT14               0.118      0.005     22.887      0.000
    MT15               0.232      0.004     60.441      0.000
    MT16               0.218      0.005     46.899      0.000
    MT17               0.254      0.005     55.765      0.000
    MT18               0.154      0.004     38.505      0.000
    MT19               0.125      0.005     27.665      0.000
    MT20               0.441      0.003    143.155      0.000
    MT21               0.572      0.003    176.406      0.000
    MT22               0.487      0.003    152.715      0.000
    MT23               0.348      0.004     95.946      0.000
    MT24               0.171      0.004     42.521      0.000
    MT25              -0.079      0.005    -17.493      0.000
    MT26               0.224      0.004     60.650      0.000
    MT27               0.512      0.003    195.042      0.000
    MT28               0.243      0.003     70.697      0.000
    MT29               0.413      0.003    136.138      0.000
    MT30               0.205      0.004     56.430      0.000
    MT31               0.198      0.004     47.256      0.000
    MT32               0.388      0.003    113.841      0.000
    MT33               0.048      0.004     11.711      0.000
    MT34               0.505      0.003    174.781      0.000
    MT35               0.210      0.004     48.065      0.000
    MT36               0.118      0.004     29.312      0.000
    MT37               0.299      0.004     76.575      0.000
    MT38               0.463      0.003    166.016      0.000
    MT39              -0.027      0.004     -6.442      0.000
    MT40               0.616      0.002    267.924      0.000
    MT41               0.445      0.003    150.731      0.000
    MT42               0.481      0.003    141.876      0.000
    MT43               0.537      0.003    201.809      0.000
    MT44               0.516      0.003    174.084      0.000
    MT45               0.296      0.003     87.758      0.000

 Thresholds
    MT1$1              0.044      0.003     14.514      0.000
    MT2$1              0.505      0.003    158.380      0.000
    MT3$1              1.493      0.005    320.467      0.000
    MT4$1              0.145      0.003     47.498      0.000
    MT5$1              0.798      0.003    233.157      0.000
    MT6$1              0.176      0.003     57.639      0.000
    MT7$1              0.354      0.003    113.798      0.000
    MT8$1              0.579      0.003    178.936      0.000
    MT9$1              0.586      0.003    180.860      0.000
    MT10$1             0.029      0.003      9.423      0.000
    MT11$1             0.123      0.003     40.462      0.000
    MT12$1             0.525      0.003    164.025      0.000
    MT13$1             1.218      0.004    302.845      0.000
    MT14$1             1.172      0.004    297.715      0.000
    MT15$1             0.679      0.003    205.124      0.000
    MT16$1             0.979      0.004    269.270      0.000
    MT17$1             0.946      0.004    263.461      0.000
    MT18$1             0.810      0.003    235.938      0.000
    MT19$1             1.033      0.004    278.256      0.000
    MT20$1             0.301      0.003     97.331      0.000
    MT21$1             0.616      0.003    188.991      0.000
    MT22$1             0.464      0.003    146.589      0.000
    MT23$1             0.579      0.003    179.087      0.000
    MT24$1             0.742      0.003    220.476      0.000
    MT25$1             1.226      0.004    303.716      0.000
    MT26$1             0.562      0.003    174.340      0.000
    MT27$1            -0.049      0.003    -16.062      0.000
    MT28$1             0.369      0.003    118.495      0.000
    MT29$1            -0.062      0.003    -20.459      0.000
    MT30$1             0.546      0.003    169.876      0.000
    MT31$1             0.782      0.003    229.566      0.000
    MT32$1             0.506      0.003    158.661      0.000
    MT33$1             0.947      0.004    263.575      0.000
    MT34$1             0.252      0.003     81.876      0.000
    MT35$1             0.884      0.004    251.510      0.000
    MT36$1             0.770      0.003    227.012      0.000
    MT37$1             0.726      0.003    216.675      0.000
    MT38$1            -0.462      0.003   -146.197      0.000
    MT39$1             0.851      0.003    244.748      0.000
    MT40$1            -0.296      0.003    -95.741      0.000
    MT41$1             0.177      0.003     57.867      0.000
    MT42$1             0.593      0.003    182.664      0.000
    MT43$1             0.080      0.003     26.364      0.000
    MT44$1            -1.179      0.004   -298.479      0.000
    MT45$1             0.351      0.003    112.901      0.000

 Variances
    MT                 1.000      0.000    999.000    999.000


STD Standardization

                                                    Two-Tailed
                    Estimate       S.E.  Est./S.E.    P-Value

 MT       BY
    MT1                0.545      0.003    209.605      0.000
    MT2                0.524      0.003    164.879      0.000
    MT3                0.195      0.007     28.207      0.000
    MT4                0.284      0.003     87.136      0.000
    MT5                0.132      0.004     32.187      0.000
    MT6                0.504      0.003    181.436      0.000
    MT7                0.179      0.004     50.823      0.000
    MT8                0.041      0.004     10.744      0.000
    MT9                0.362      0.004    100.867      0.000
    MT10               0.524      0.003    189.451      0.000
    MT11               0.194      0.003     58.379      0.000
    MT12               0.333      0.004     94.102      0.000
    MT13               0.367      0.005     68.470      0.000
    MT14               0.118      0.005     22.887      0.000
    MT15               0.232      0.004     60.441      0.000
    MT16               0.218      0.005     46.899      0.000
    MT17               0.254      0.005     55.765      0.000
    MT18               0.154      0.004     38.505      0.000
    MT19               0.125      0.005     27.665      0.000
    MT20               0.441      0.003    143.155      0.000
    MT21               0.572      0.003    176.406      0.000
    MT22               0.487      0.003    152.715      0.000
    MT23               0.348      0.004     95.946      0.000
    MT24               0.171      0.004     42.521      0.000
    MT25              -0.079      0.005    -17.493      0.000
    MT26               0.224      0.004     60.650      0.000
    MT27               0.512      0.003    195.042      0.000
    MT28               0.243      0.003     70.697      0.000
    MT29               0.413      0.003    136.138      0.000
    MT30               0.205      0.004     56.430      0.000
    MT31               0.198      0.004     47.256      0.000
    MT32               0.388      0.003    113.841      0.000
    MT33               0.048      0.004     11.711      0.000
    MT34               0.505      0.003    174.781      0.000
    MT35               0.210      0.004     48.065      0.000
    MT36               0.118      0.004     29.312      0.000
    MT37               0.299      0.004     76.575      0.000
    MT38               0.463      0.003    166.016      0.000
    MT39              -0.027      0.004     -6.442      0.000
    MT40               0.616      0.002    267.924      0.000
    MT41               0.445      0.003    150.731      0.000
    MT42               0.481      0.003    141.876      0.000
    MT43               0.537      0.003    201.809      0.000
    MT44               0.516      0.003    174.084      0.000
    MT45               0.296      0.003     87.758      0.000

 Thresholds
    MT1$1              0.044      0.003     14.514      0.000
    MT2$1              0.505      0.003    158.380      0.000
    MT3$1              1.493      0.005    320.467      0.000
    MT4$1              0.145      0.003     47.498      0.000
    MT5$1              0.798      0.003    233.157      0.000
    MT6$1              0.176      0.003     57.639      0.000
    MT7$1              0.354      0.003    113.798      0.000
    MT8$1              0.579      0.003    178.936      0.000
    MT9$1              0.586      0.003    180.860      0.000
    MT10$1             0.029      0.003      9.423      0.000
    MT11$1             0.123      0.003     40.462      0.000
    MT12$1             0.525      0.003    164.025      0.000
    MT13$1             1.218      0.004    302.845      0.000
    MT14$1             1.172      0.004    297.715      0.000
    MT15$1             0.679      0.003    205.124      0.000
    MT16$1             0.979      0.004    269.270      0.000
    MT17$1             0.946      0.004    263.461      0.000
    MT18$1             0.810      0.003    235.938      0.000
    MT19$1             1.033      0.004    278.256      0.000
    MT20$1             0.301      0.003     97.331      0.000
    MT21$1             0.616      0.003    188.991      0.000
    MT22$1             0.464      0.003    146.589      0.000
    MT23$1             0.579      0.003    179.087      0.000
    MT24$1             0.742      0.003    220.476      0.000
    MT25$1             1.226      0.004    303.716      0.000
    MT26$1             0.562      0.003    174.340      0.000
    MT27$1            -0.049      0.003    -16.062      0.000
    MT28$1             0.369      0.003    118.495      0.000
    MT29$1            -0.062      0.003    -20.459      0.000
    MT30$1             0.546      0.003    169.876      0.000
    MT31$1             0.782      0.003    229.566      0.000
    MT32$1             0.506      0.003    158.661      0.000
    MT33$1             0.947      0.004    263.575      0.000
    MT34$1             0.252      0.003     81.876      0.000
    MT35$1             0.884      0.004    251.510      0.000
    MT36$1             0.770      0.003    227.012      0.000
    MT37$1             0.726      0.003    216.675      0.000
    MT38$1            -0.462      0.003   -146.197      0.000
    MT39$1             0.851      0.003    244.748      0.000
    MT40$1            -0.296      0.003    -95.741      0.000
    MT41$1             0.177      0.003     57.867      0.000
    MT42$1             0.593      0.003    182.664      0.000
    MT43$1             0.080      0.003     26.364      0.000
    MT44$1            -1.179      0.004   -298.479      0.000
    MT45$1             0.351      0.003    112.901      0.000

 Variances
    MT                 1.000      0.000    999.000    999.000


R-SQUARE

    Observed                                        Two-Tailed   Residual
    Variable        Estimate       S.E.  Est./S.E.    P-Value    Variance

    MT1                0.298      0.003    104.803      0.000      0.702
    MT2                0.275      0.003     82.440      0.000      0.725
    MT3                0.038      0.003     14.104      0.000      0.962
    MT4                0.081      0.002     43.568      0.000      0.919
    MT5                0.017      0.001     16.094      0.000      0.983
    MT6                0.254      0.003     90.718      0.000      0.746
    MT7                0.032      0.001     25.411      0.000      0.968
    MT8                0.002      0.000      5.372      0.000      0.998
    MT9                0.131      0.003     50.434      0.000      0.869
    MT10               0.275      0.003     94.725      0.000      0.725
    MT11               0.038      0.001     29.189      0.000      0.962
    MT12               0.111      0.002     47.051      0.000      0.889
    MT13               0.135      0.004     34.235      0.000      0.865
    MT14               0.014      0.001     11.443      0.000      0.986
    MT15               0.054      0.002     30.220      0.000      0.946
    MT16               0.048      0.002     23.449      0.000      0.952
    MT17               0.065      0.002     27.882      0.000      0.935
    MT18               0.024      0.001     19.253      0.000      0.976
    MT19               0.016      0.001     13.833      0.000      0.984
    MT20               0.194      0.003     71.578      0.000      0.806
    MT21               0.327      0.004     88.203      0.000      0.673
    MT22               0.238      0.003     76.358      0.000      0.762
    MT23               0.121      0.003     47.973      0.000      0.879
    MT24               0.029      0.001     21.260      0.000      0.971
    MT25               0.006      0.001      8.746      0.000      0.994
    MT26               0.050      0.002     30.325      0.000      0.950
    MT27               0.262      0.003     97.521      0.000      0.738
    MT28               0.059      0.002     35.348      0.000      0.941
    MT29               0.171      0.003     68.069      0.000      0.829
    MT30               0.042      0.001     28.215      0.000      0.958
    MT31               0.039      0.002     23.628      0.000      0.961
    MT32               0.150      0.003     56.921      0.000      0.850
    MT33               0.002      0.000      5.855      0.000      0.998
    MT34               0.255      0.003     87.391      0.000      0.745
    MT35               0.044      0.002     24.032      0.000      0.956
    MT36               0.014      0.001     14.656      0.000      0.986
    MT37               0.089      0.002     38.287      0.000      0.911
    MT38               0.214      0.003     83.008      0.000      0.786
    MT39               0.001      0.000      3.221      0.001      0.999
    MT40               0.379      0.003    133.962      0.000      0.621
    MT41               0.198      0.003     75.366      0.000      0.802
    MT42               0.232      0.003     70.938      0.000      0.768
    MT43               0.288      0.003    100.905      0.000      0.712
    MT44               0.266      0.003     87.042      0.000      0.734
    MT45               0.088      0.002     43.879      0.000      0.912


QUALITY OF NUMERICAL RESULTS

     Condition Number for the Information Matrix              0.487E-03
       (ratio of smallest to largest eigenvalue)


     Beginning Time:  18:08:38
        Ending Time:  18:11:22
       Elapsed Time:  00:02:44



MUTHEN & MUTHEN
3463 Stoner Ave.
Los Angeles, CA  90066

Tel: (310) 391-9971
Fax: (310) 391-8971
Web: www.StatModel.com
Support: Support@StatModel.com

Copyright (c) 1998-2008 Muthen & Muthen
