Mplus VERSION 5.2
MUTHEN & MUTHEN
06/17/2013   7:33 PM

INPUT INSTRUCTIONS

  TITLE:        ENEM 2010
  DATA:        FILE IS DATA.txt;
  VARIABLE:        NAMES ARE cn1-cn45 ch1-ch45 l1-l45 mt1-mt45;
                  CATEGORICAL ARE l4 l6 l7 l10-l13
              l17-l22 l25 l26 l29 l31-l33 l35-l37 l39 l41 l42 l44;
              USEVARIABLES ARE l4 l6 l7 l10-l13
              l17-l22 l25 l26 l29 l31-l33 l35-l37 l39 l41 l42 l44;
  MODEL:
            L BY l4 l6 l7 l10-l13
             l17-l22 l25 l26 l29 l31-l33 l35-l37 l39 l41 l42 l44;


  OUTPUT: STANDARDIZED;










INPUT READING TERMINATED NORMALLY



ENEM 2010

SUMMARY OF ANALYSIS

Number of groups                                                 1
Number of observations                                      167220

Number of dependent variables                                   26
Number of independent variables                                  0
Number of continuous latent variables                            1

Observed dependent variables

  Binary and ordered categorical (ordinal)
   L4          L6          L7          L10         L11         L12
   L13         L17         L18         L19         L20         L21
   L22         L25         L26         L29         L31         L32
   L33         L35         L36         L37         L39         L41
   L42         L44

Continuous latent variables
   L


Estimator                                                    WLSMV
Maximum number of iterations                                  1000
Convergence criterion                                    0.500D-04
Maximum number of steepest descent iterations                   20
Parameterization                                             DELTA

Input data file(s)
  DATA.txt

Input data format  FREE


SUMMARY OF CATEGORICAL DATA PROPORTIONS

    L4
      Category 1    0.703
      Category 2    0.297
    L6
      Category 1    0.440
      Category 2    0.560
    L7
      Category 1    0.227
      Category 2    0.773
    L10
      Category 1    0.348
      Category 2    0.652
    L11
      Category 1    0.351
      Category 2    0.649
    L12
      Category 1    0.510
      Category 2    0.490
    L13
      Category 1    0.560
      Category 2    0.440
    L17
      Category 1    0.487
      Category 2    0.513
    L18
      Category 1    0.613
      Category 2    0.387
    L19
      Category 1    0.229
      Category 2    0.771
    L20
      Category 1    0.195
      Category 2    0.805
    L21
      Category 1    0.506
      Category 2    0.494
    L22
      Category 1    0.428
      Category 2    0.572
    L25
      Category 1    0.618
      Category 2    0.382
    L26
      Category 1    0.575
      Category 2    0.425
    L29
      Category 1    0.322
      Category 2    0.678
    L31
      Category 1    0.657
      Category 2    0.343
    L32
      Category 1    0.242
      Category 2    0.758
    L33
      Category 1    0.552
      Category 2    0.448
    L35
      Category 1    0.505
      Category 2    0.495
    L36
      Category 1    0.380
      Category 2    0.620
    L37
      Category 1    0.451
      Category 2    0.549
    L39
      Category 1    0.606
      Category 2    0.394
    L41
      Category 1    0.511
      Category 2    0.489
    L42
      Category 1    0.221
      Category 2    0.779
    L44
      Category 1    0.677
      Category 2    0.323



THE MODEL ESTIMATION TERMINATED NORMALLY



TESTS OF MODEL FIT

Chi-Square Test of Model Fit

          Value                          16569.625*
          Degrees of Freedom                   291**
          P-Value                           0.0000

*   The chi-square value for MLM, MLMV, MLR, ULSMV, WLSM and WLSMV cannot be used
    for chi-square difference tests.  MLM, MLR and WLSM chi-square difference
    testing is described in the Mplus Technical Appendices at www.statmodel.com.
    See chi-square difference testing in the index of the Mplus User's Guide.

**  The degrees of freedom for MLMV, ULSMV and WLSMV are estimated according to
    a formula given in the Mplus Technical Appendices at www.statmodel.com.
    See degrees of freedom in the index of the Mplus User's Guide.

Chi-Square Test of Model Fit for the Baseline Model

          Value                         875840.677
          Degrees of Freedom                   138
          P-Value                           0.0000

CFI/TLI

          CFI                                0.981
          TLI                                0.991

Number of Free Parameters                       52

RMSEA (Root Mean Square Error Of Approximation)

          Estimate                           0.018

WRMR (Weighted Root Mean Square Residual)

          Value                              5.928



MODEL RESULTS

                                                    Two-Tailed
                    Estimate       S.E.  Est./S.E.    P-Value

 L        BY
    L4                 1.000      0.000    999.000    999.000
    L6                 1.379      0.011    123.395      0.000
    L7                 1.329      0.011    116.886      0.000
    L10                1.266      0.011    118.674      0.000
    L11                1.434      0.012    124.147      0.000
    L12                1.047      0.010    108.276      0.000
    L13                0.999      0.009    106.053      0.000
    L17                1.206      0.010    117.148      0.000
    L18                1.107      0.010    110.074      0.000
    L19                1.109      0.011    104.112      0.000
    L20                1.445      0.012    121.783      0.000
    L21                1.423      0.011    125.117      0.000
    L22                1.307      0.011    120.430      0.000
    L25                0.956      0.009    101.190      0.000
    L26                1.199      0.010    114.606      0.000
    L29                1.428      0.012    122.098      0.000
    L31                1.005      0.010    102.041      0.000
    L32                1.229      0.011    113.674      0.000
    L33                1.124      0.010    111.847      0.000
    L35                1.054      0.010    108.220      0.000
    L36                1.430      0.012    123.659      0.000
    L37                1.549      0.012    127.755      0.000
    L39                0.905      0.009     97.688      0.000
    L41                0.953      0.009    102.190      0.000
    L42                1.477      0.012    123.506      0.000
    L44                0.931      0.010     97.252      0.000

 Thresholds
    L4$1               0.533      0.003    165.190      0.000
    L6$1              -0.152      0.003    -49.414      0.000
    L7$1              -0.747      0.003   -219.936      0.000
    L10$1             -0.391      0.003   -123.995      0.000
    L11$1             -0.383      0.003   -121.717      0.000
    L12$1              0.025      0.003      8.026      0.000
    L13$1              0.150      0.003     48.867      0.000
    L17$1             -0.034      0.003    -11.004      0.000
    L18$1              0.287      0.003     92.284      0.000
    L19$1             -0.741      0.003   -218.518      0.000
    L20$1             -0.861      0.004   -244.923      0.000
    L21$1              0.016      0.003      5.223      0.000
    L22$1             -0.182      0.003    -59.149      0.000
    L25$1              0.300      0.003     96.213      0.000
    L26$1              0.189      0.003     61.151      0.000
    L29$1             -0.461      0.003   -144.644      0.000
    L31$1              0.404      0.003    127.983      0.000
    L32$1             -0.699      0.003   -208.522      0.000
    L33$1              0.132      0.003     42.828      0.000
    L35$1              0.012      0.003      3.859      0.000
    L36$1             -0.305      0.003    -97.804      0.000
    L37$1             -0.124      0.003    -40.409      0.000
    L39$1              0.270      0.003     86.916      0.000
    L41$1              0.027      0.003      8.955      0.000
    L42$1             -0.768      0.003   -224.757      0.000
    L44$1              0.459      0.003    144.220      0.000

 Variances
    L                  0.203      0.003     69.023      0.000


IRT PARAMETERIZATION IN TWO-PARAMETER PROBIT METRIC
WHERE THE PROBIT IS DISCRIMINATION*(THETA - DIFFICULTY)

 Item Discriminations

 L        BY
    L4                 0.504      0.005    110.085      0.000
    L6                 0.792      0.005    154.075      0.000
    L7                 0.747      0.005    139.513      0.000
    L10                0.693      0.005    145.794      0.000
    L11                0.845      0.005    155.921      0.000
    L12                0.534      0.004    127.790      0.000
    L13                0.504      0.004    122.822      0.000
    L17                0.646      0.005    142.035      0.000
    L18                0.575      0.005    125.932      0.000
    L19                0.576      0.005    119.363      0.000
    L20                0.856      0.006    146.040      0.000
    L21                0.834      0.005    152.713      0.000
    L22                0.727      0.005    150.091      0.000
    L25                0.477      0.004    114.776      0.000
    L26                0.641      0.005    136.346      0.000
    L29                0.839      0.006    151.199      0.000
    L31                0.507      0.004    115.678      0.000
    L32                0.664      0.005    136.602      0.000
    L33                0.587      0.004    132.043      0.000
    L35                0.539      0.004    127.872      0.000
    L36                0.841      0.005    156.567      0.000
    L37                0.972      0.006    157.545      0.000
    L39                0.446      0.004    109.276      0.000
    L41                0.475      0.004    118.293      0.000
    L42                0.890      0.006    152.170      0.000
    L44                0.461      0.004    105.677      0.000

 Item Difficulties
    L4$1               1.185      0.011    104.342      0.000
    L6$1              -0.245      0.005    -47.975      0.000
    L7$1              -1.249      0.008   -147.060      0.000
    L10$1             -0.686      0.007   -104.524      0.000
    L11$1             -0.594      0.006   -107.663      0.000
    L12$1              0.052      0.007      8.019      0.000
    L13$1              0.334      0.007     46.456      0.000
    L17$1             -0.062      0.006    -10.970      0.000
    L18$1              0.576      0.007     80.551      0.000
    L19$1             -1.484      0.012   -124.293      0.000
    L20$1             -1.324      0.008   -164.783      0.000
    L21$1              0.025      0.005      5.226      0.000
    L22$1             -0.310      0.005    -56.704      0.000
    L25$1              0.697      0.009     78.804      0.000
    L26$1              0.350      0.006     58.271      0.000
    L29$1             -0.717      0.006   -121.983      0.000
    L31$1              0.893      0.009     94.784      0.000
    L32$1             -1.264      0.009   -136.557      0.000
    L33$1              0.260      0.006     41.741      0.000
    L35$1              0.025      0.006      3.860      0.000
    L36$1             -0.474      0.005    -89.877      0.000
    L37$1             -0.178      0.004    -39.761      0.000
    L39$1              0.663      0.009     72.107      0.000
    L41$1              0.064      0.007      8.947      0.000
    L42$1             -1.155      0.007   -162.906      0.000
    L44$1              1.097      0.012     94.856      0.000

 Variances
    L                  1.000      0.000      0.000      1.000


STANDARDIZED MODEL RESULTS


STDYX Standardization

                                                    Two-Tailed
                    Estimate       S.E.  Est./S.E.    P-Value

 L        BY
    L4                 0.450      0.003    138.046      0.000
    L6                 0.621      0.002    250.658      0.000
    L7                 0.598      0.003    217.291      0.000
    L10                0.570      0.003    215.811      0.000
    L11                0.646      0.002    267.357      0.000
    L12                0.471      0.003    164.241      0.000
    L13                0.450      0.003    153.962      0.000
    L17                0.543      0.003    201.356      0.000
    L18                0.498      0.003    167.506      0.000
    L19                0.499      0.003    159.002      0.000
    L20                0.650      0.003    253.013      0.000
    L21                0.640      0.002    258.911      0.000
    L22                0.588      0.003    229.446      0.000
    L25                0.430      0.003    140.838      0.000
    L26                0.540      0.003    192.336      0.000
    L29                0.643      0.002    257.511      0.000
    L31                0.452      0.003    145.460      0.000
    L32                0.553      0.003    196.862      0.000
    L33                0.506      0.003    177.506      0.000
    L35                0.474      0.003    165.009      0.000
    L36                0.644      0.002    267.332      0.000
    L37                0.697      0.002    306.327      0.000
    L39                0.407      0.003    131.010      0.000
    L41                0.429      0.003    144.980      0.000
    L42                0.665      0.002    272.653      0.000
    L44                0.419      0.003    128.152      0.000

 Thresholds
    L4$1               0.533      0.003    165.190      0.000
    L6$1              -0.152      0.003    -49.414      0.000
    L7$1              -0.747      0.003   -219.936      0.000
    L10$1             -0.391      0.003   -123.995      0.000
    L11$1             -0.383      0.003   -121.717      0.000
    L12$1              0.025      0.003      8.026      0.000
    L13$1              0.150      0.003     48.867      0.000
    L17$1             -0.034      0.003    -11.004      0.000
    L18$1              0.287      0.003     92.284      0.000
    L19$1             -0.741      0.003   -218.518      0.000
    L20$1             -0.861      0.004   -244.923      0.000
    L21$1              0.016      0.003      5.223      0.000
    L22$1             -0.182      0.003    -59.149      0.000
    L25$1              0.300      0.003     96.213      0.000
    L26$1              0.189      0.003     61.151      0.000
    L29$1             -0.461      0.003   -144.644      0.000
    L31$1              0.404      0.003    127.983      0.000
    L32$1             -0.699      0.003   -208.522      0.000
    L33$1              0.132      0.003     42.828      0.000
    L35$1              0.012      0.003      3.859      0.000
    L36$1             -0.305      0.003    -97.804      0.000
    L37$1             -0.124      0.003    -40.409      0.000
    L39$1              0.270      0.003     86.916      0.000
    L41$1              0.027      0.003      8.955      0.000
    L42$1             -0.768      0.003   -224.757      0.000
    L44$1              0.459      0.003    144.220      0.000

 Variances
    L                  1.000      0.000    999.000    999.000


STDY Standardization

                                                    Two-Tailed
                    Estimate       S.E.  Est./S.E.    P-Value

 L        BY
    L4                 0.450      0.003    138.046      0.000
    L6                 0.621      0.002    250.658      0.000
    L7                 0.598      0.003    217.291      0.000
    L10                0.570      0.003    215.811      0.000
    L11                0.646      0.002    267.357      0.000
    L12                0.471      0.003    164.241      0.000
    L13                0.450      0.003    153.962      0.000
    L17                0.543      0.003    201.356      0.000
    L18                0.498      0.003    167.506      0.000
    L19                0.499      0.003    159.002      0.000
    L20                0.650      0.003    253.013      0.000
    L21                0.640      0.002    258.911      0.000
    L22                0.588      0.003    229.446      0.000
    L25                0.430      0.003    140.838      0.000
    L26                0.540      0.003    192.336      0.000
    L29                0.643      0.002    257.511      0.000
    L31                0.452      0.003    145.460      0.000
    L32                0.553      0.003    196.862      0.000
    L33                0.506      0.003    177.506      0.000
    L35                0.474      0.003    165.009      0.000
    L36                0.644      0.002    267.332      0.000
    L37                0.697      0.002    306.327      0.000
    L39                0.407      0.003    131.010      0.000
    L41                0.429      0.003    144.980      0.000
    L42                0.665      0.002    272.653      0.000
    L44                0.419      0.003    128.152      0.000

 Thresholds
    L4$1               0.533      0.003    165.190      0.000
    L6$1              -0.152      0.003    -49.414      0.000
    L7$1              -0.747      0.003   -219.936      0.000
    L10$1             -0.391      0.003   -123.995      0.000
    L11$1             -0.383      0.003   -121.717      0.000
    L12$1              0.025      0.003      8.026      0.000
    L13$1              0.150      0.003     48.867      0.000
    L17$1             -0.034      0.003    -11.004      0.000
    L18$1              0.287      0.003     92.284      0.000
    L19$1             -0.741      0.003   -218.518      0.000
    L20$1             -0.861      0.004   -244.923      0.000
    L21$1              0.016      0.003      5.223      0.000
    L22$1             -0.182      0.003    -59.149      0.000
    L25$1              0.300      0.003     96.213      0.000
    L26$1              0.189      0.003     61.151      0.000
    L29$1             -0.461      0.003   -144.644      0.000
    L31$1              0.404      0.003    127.983      0.000
    L32$1             -0.699      0.003   -208.522      0.000
    L33$1              0.132      0.003     42.828      0.000
    L35$1              0.012      0.003      3.859      0.000
    L36$1             -0.305      0.003    -97.804      0.000
    L37$1             -0.124      0.003    -40.409      0.000
    L39$1              0.270      0.003     86.916      0.000
    L41$1              0.027      0.003      8.955      0.000
    L42$1             -0.768      0.003   -224.757      0.000
    L44$1              0.459      0.003    144.220      0.000

 Variances
    L                  1.000      0.000    999.000    999.000


STD Standardization

                                                    Two-Tailed
                    Estimate       S.E.  Est./S.E.    P-Value

 L        BY
    L4                 0.450      0.003    138.046      0.000
    L6                 0.621      0.002    250.658      0.000
    L7                 0.598      0.003    217.291      0.000
    L10                0.570      0.003    215.811      0.000
    L11                0.646      0.002    267.357      0.000
    L12                0.471      0.003    164.241      0.000
    L13                0.450      0.003    153.962      0.000
    L17                0.543      0.003    201.356      0.000
    L18                0.498      0.003    167.506      0.000
    L19                0.499      0.003    159.002      0.000
    L20                0.650      0.003    253.013      0.000
    L21                0.640      0.002    258.911      0.000
    L22                0.588      0.003    229.446      0.000
    L25                0.430      0.003    140.838      0.000
    L26                0.540      0.003    192.336      0.000
    L29                0.643      0.002    257.511      0.000
    L31                0.452      0.003    145.460      0.000
    L32                0.553      0.003    196.862      0.000
    L33                0.506      0.003    177.506      0.000
    L35                0.474      0.003    165.009      0.000
    L36                0.644      0.002    267.332      0.000
    L37                0.697      0.002    306.327      0.000
    L39                0.407      0.003    131.010      0.000
    L41                0.429      0.003    144.980      0.000
    L42                0.665      0.002    272.653      0.000
    L44                0.419      0.003    128.152      0.000

 Thresholds
    L4$1               0.533      0.003    165.190      0.000
    L6$1              -0.152      0.003    -49.414      0.000
    L7$1              -0.747      0.003   -219.936      0.000
    L10$1             -0.391      0.003   -123.995      0.000
    L11$1             -0.383      0.003   -121.717      0.000
    L12$1              0.025      0.003      8.026      0.000
    L13$1              0.150      0.003     48.867      0.000
    L17$1             -0.034      0.003    -11.004      0.000
    L18$1              0.287      0.003     92.284      0.000
    L19$1             -0.741      0.003   -218.518      0.000
    L20$1             -0.861      0.004   -244.923      0.000
    L21$1              0.016      0.003      5.223      0.000
    L22$1             -0.182      0.003    -59.149      0.000
    L25$1              0.300      0.003     96.213      0.000
    L26$1              0.189      0.003     61.151      0.000
    L29$1             -0.461      0.003   -144.644      0.000
    L31$1              0.404      0.003    127.983      0.000
    L32$1             -0.699      0.003   -208.522      0.000
    L33$1              0.132      0.003     42.828      0.000
    L35$1              0.012      0.003      3.859      0.000
    L36$1             -0.305      0.003    -97.804      0.000
    L37$1             -0.124      0.003    -40.409      0.000
    L39$1              0.270      0.003     86.916      0.000
    L41$1              0.027      0.003      8.955      0.000
    L42$1             -0.768      0.003   -224.757      0.000
    L44$1              0.459      0.003    144.220      0.000

 Variances
    L                  1.000      0.000    999.000    999.000


R-SQUARE

    Observed                                        Two-Tailed   Residual
    Variable        Estimate       S.E.  Est./S.E.    P-Value    Variance

    L4                 0.203      0.003     69.023      0.000      0.797
    L6                 0.385      0.003    125.329      0.000      0.615
    L7                 0.358      0.003    108.645      0.000      0.642
    L10                0.324      0.003    107.906      0.000      0.676
    L11                0.417      0.003    133.678      0.000      0.583
    L12                0.222      0.003     82.120      0.000      0.778
    L13                0.202      0.003     76.981      0.000      0.798
    L17                0.295      0.003    100.678      0.000      0.705
    L18                0.248      0.003     83.753      0.000      0.752
    L19                0.249      0.003     79.501      0.000      0.751
    L20                0.423      0.003    126.506      0.000      0.577
    L21                0.410      0.003    129.456      0.000      0.590
    L22                0.346      0.003    114.723      0.000      0.654
    L25                0.185      0.003     70.419      0.000      0.815
    L26                0.291      0.003     96.168      0.000      0.709
    L29                0.413      0.003    128.755      0.000      0.587
    L31                0.205      0.003     72.730      0.000      0.795
    L32                0.306      0.003     98.431      0.000      0.694
    L33                0.256      0.003     88.753      0.000      0.744
    L35                0.225      0.003     82.505      0.000      0.775
    L36                0.414      0.003    133.666      0.000      0.586
    L37                0.486      0.003    153.164      0.000      0.514
    L39                0.166      0.003     65.505      0.000      0.834
    L41                0.184      0.003     72.490      0.000      0.816
    L42                0.442      0.003    136.327      0.000      0.558
    L44                0.175      0.003     64.076      0.000      0.825


QUALITY OF NUMERICAL RESULTS

     Condition Number for the Information Matrix              0.480E-04
       (ratio of smallest to largest eigenvalue)


     Beginning Time:  19:33:11
        Ending Time:  19:34:13
       Elapsed Time:  00:01:02



MUTHEN & MUTHEN
3463 Stoner Ave.
Los Angeles, CA  90066

Tel: (310) 391-9971
Fax: (310) 391-8971
Web: www.StatModel.com
Support: Support@StatModel.com

Copyright (c) 1998-2008 Muthen & Muthen
