Mplus VERSION 5.2
MUTHEN & MUTHEN
06/15/2013   1:20 PM

INPUT INSTRUCTIONS

  TITLE:        ENEM 2009
  DATA:        FILE IS DATA.txt;
  VARIABLE:        NAMES ARE cn1-cn45 ch1-ch45 l1-l10 l12-l45 mt1-mt45;
                  CATEGORICAL ch2 ch6-ch9 ch12 ch14-ch17 ch19 ch23 ch24 ch27
             ch29-ch31 ch33 ch34 ch36-ch40
             cn1 cn2 cn4-cn6 cn8 cn10 cn11
                cn13 cn16 cn19-cn22 cn33 cn37
              l2 l5 l7 l8-l10 l12 l14 l15 l17 l19 l20 l22
               l23 l25 l26 l28-l34 l36-l38 l42-l44
              mt1 mt2 mt5 mt7 mt10 mt13 mt17 mt19 mt24;
               USEVARIABLES ch2 ch6-ch9 ch12 ch14-ch17 ch19 ch23 ch24 ch27
             ch29-ch31 ch33 ch34 ch36-ch40
             cn1 cn2 cn4-cn6 cn8 cn10 cn11
                cn13 cn16 cn19-cn22 cn33 cn37
               l2 l5 l7 l8-l10 l12 l14 l15 l17 l19 l20 l22
               l23 l25 l26 l28-l34 l36-l38 l42-l44
               mt1 mt2 mt5 mt7 mt10 mt13 mt17 mt19 mt24;
  MODEL:
            GERAL BY ch2 ch6-ch9 ch12 ch14-ch17 ch19 ch23 ch24 ch27
             ch29-ch31 ch33 ch34 ch36-ch40
             cn1 cn2 cn4-cn6 cn8 cn10 cn11
                cn13 cn16 cn19-cn22 cn33 cn37
              l2 l5 l7 l8-l10 l12 l14 l15 l17 l19 l20 l22
               l23 l25 l26 l28-l34 l36-l38 l42-l44
              mt1 mt2 mt5 mt7 mt10 mt13 mt17 mt19 mt24;
            MT BY mt1 mt2 mt5 mt7 mt10 mt13 mt17 mt19 mt24;
            CN BY cn1 cn2 cn4-cn6 cn8 cn10 cn11
                cn13 cn16 cn19-cn22 cn33 cn37;
            CH BY ch2 ch6-ch9 ch12 ch14-ch17 ch19 ch23 ch24 ch27
             ch29-ch31 ch33 ch34 ch36-ch40;
            L BY l2 l5 l7 l8-l10 l12 l14 l15 l17 l19 l20 l22
               l23 l25 l26 l28-l34 l36-l38 l42-l44;
               GERAL WITH MT@0;
               GERAL WITH CN@0;
               GERAL WITH CH@0;
               GERAL WITH L@0;
               MT WITH CN@0;
               MT WITH CH@0;
               MT WITH L@0;
               CN WITH CH@0;
               CN WITH L@0;
               CH WITH L@0;

  OUTPUT: STANDARDIZED;








INPUT READING TERMINATED NORMALLY



ENEM 2009

SUMMARY OF ANALYSIS

Number of groups                                                 1
Number of observations                                      288117

Number of dependent variables                                   78
Number of independent variables                                  0
Number of continuous latent variables                            5

Observed dependent variables

  Binary and ordered categorical (ordinal)
   CH2         CH6         CH7         CH8         CH9         CH12
   CH14        CH15        CH16        CH17        CH19        CH23
   CH24        CH27        CH29        CH30        CH31        CH33
   CH34        CH36        CH37        CH38        CH39        CH40
   CN1         CN2         CN4         CN5         CN6         CN8
   CN10        CN11        CN13        CN16        CN19        CN20
   CN21        CN22        CN33        CN37        L2          L5
   L7          L8          L9          L10         L12         L14
   L15         L17         L19         L20         L22         L23
   L25         L26         L28         L29         L30         L31
   L32         L33         L34         L36         L37         L38
   L42         L43         L44         MT1         MT2         MT5
   MT7         MT10        MT13        MT17        MT19        MT24

Continuous latent variables
   GERAL       MT          CN          CH          L


Estimator                                                    WLSMV
Maximum number of iterations                                  1000
Convergence criterion                                    0.500D-04
Maximum number of steepest descent iterations                   20
Parameterization                                             DELTA

Input data file(s)
  DATA.txt

Input data format  FREE


SUMMARY OF CATEGORICAL DATA PROPORTIONS

    CH2
      Category 1    0.411
      Category 2    0.589
    CH6
      Category 1    0.533
      Category 2    0.467
    CH7
      Category 1    0.717
      Category 2    0.283
    CH8
      Category 1    0.711
      Category 2    0.289
    CH9
      Category 1    0.286
      Category 2    0.714
    CH12
      Category 1    0.546
      Category 2    0.454
    CH14
      Category 1    0.483
      Category 2    0.517
    CH15
      Category 1    0.524
      Category 2    0.476
    CH16
      Category 1    0.401
      Category 2    0.599
    CH17
      Category 1    0.583
      Category 2    0.417
    CH19
      Category 1    0.601
      Category 2    0.399
    CH23
      Category 1    0.624
      Category 2    0.376
    CH24
      Category 1    0.707
      Category 2    0.293
    CH27
      Category 1    0.595
      Category 2    0.405
    CH29
      Category 1    0.526
      Category 2    0.474
    CH30
      Category 1    0.581
      Category 2    0.419
    CH31
      Category 1    0.703
      Category 2    0.297
    CH33
      Category 1    0.576
      Category 2    0.424
    CH34
      Category 1    0.427
      Category 2    0.573
    CH36
      Category 1    0.619
      Category 2    0.381
    CH37
      Category 1    0.785
      Category 2    0.215
    CH38
      Category 1    0.685
      Category 2    0.315
    CH39
      Category 1    0.675
      Category 2    0.325
    CH40
      Category 1    0.743
      Category 2    0.257
    CN1
      Category 1    0.111
      Category 2    0.889
    CN2
      Category 1    0.601
      Category 2    0.399
    CN4
      Category 1    0.352
      Category 2    0.648
    CN5
      Category 1    0.415
      Category 2    0.585
    CN6
      Category 1    0.418
      Category 2    0.582
    CN8
      Category 1    0.447
      Category 2    0.553
    CN10
      Category 1    0.717
      Category 2    0.283
    CN11
      Category 1    0.516
      Category 2    0.484
    CN13
      Category 1    0.247
      Category 2    0.753
    CN16
      Category 1    0.539
      Category 2    0.461
    CN19
      Category 1    0.658
      Category 2    0.342
    CN20
      Category 1    0.337
      Category 2    0.663
    CN21
      Category 1    0.681
      Category 2    0.319
    CN22
      Category 1    0.407
      Category 2    0.593
    CN33
      Category 1    0.793
      Category 2    0.207
    CN37
      Category 1    0.697
      Category 2    0.303
    L2
      Category 1    0.349
      Category 2    0.651
    L5
      Category 1    0.452
      Category 2    0.548
    L7
      Category 1    0.059
      Category 2    0.941
    L8
      Category 1    0.704
      Category 2    0.296
    L9
      Category 1    0.673
      Category 2    0.327
    L10
      Category 1    0.280
      Category 2    0.720
    L12
      Category 1    0.371
      Category 2    0.629
    L14
      Category 1    0.459
      Category 2    0.541
    L15
      Category 1    0.226
      Category 2    0.774
    L17
      Category 1    0.203
      Category 2    0.797
    L19
      Category 1    0.592
      Category 2    0.408
    L20
      Category 1    0.379
      Category 2    0.621
    L22
      Category 1    0.687
      Category 2    0.313
    L23
      Category 1    0.474
      Category 2    0.526
    L25
      Category 1    0.520
      Category 2    0.480
    L26
      Category 1    0.423
      Category 2    0.577
    L28
      Category 1    0.408
      Category 2    0.592
    L29
      Category 1    0.570
      Category 2    0.430
    L30
      Category 1    0.492
      Category 2    0.508
    L31
      Category 1    0.578
      Category 2    0.422
    L32
      Category 1    0.756
      Category 2    0.244
    L33
      Category 1    0.602
      Category 2    0.398
    L34
      Category 1    0.586
      Category 2    0.414
    L36
      Category 1    0.553
      Category 2    0.447
    L37
      Category 1    0.433
      Category 2    0.567
    L38
      Category 1    0.478
      Category 2    0.522
    L42
      Category 1    0.687
      Category 2    0.313
    L43
      Category 1    0.679
      Category 2    0.321
    L44
      Category 1    0.641
      Category 2    0.359
    MT1
      Category 1    0.731
      Category 2    0.269
    MT2
      Category 1    0.899
      Category 2    0.101
    MT5
      Category 1    0.598
      Category 2    0.402
    MT7
      Category 1    0.660
      Category 2    0.340
    MT10
      Category 1    0.483
      Category 2    0.517
    MT13
      Category 1    0.638
      Category 2    0.362
    MT17
      Category 1    0.714
      Category 2    0.286
    MT19
      Category 1    0.741
      Category 2    0.259
    MT24
      Category 1    0.825
      Category 2    0.175



THE MODEL ESTIMATION TERMINATED NORMALLY



TESTS OF MODEL FIT

Chi-Square Test of Model Fit

          Value                         190488.639*
          Degrees of Freedom                  2671**
          P-Value                           0.0000

*   The chi-square value for MLM, MLMV, MLR, ULSMV, WLSM and WLSMV cannot be used
    for chi-square difference tests.  MLM, MLR and WLSM chi-square difference
    testing is described in the Mplus Technical Appendices at www.statmodel.com.
    See chi-square difference testing in the index of the Mplus User's Guide.

**  The degrees of freedom for MLMV, ULSMV and WLSMV are estimated according to
    a formula given in the Mplus Technical Appendices at www.statmodel.com.
    See degrees of freedom in the index of the Mplus User's Guide.

Chi-Square Test of Model Fit for the Baseline Model

          Value                         **********
          Degrees of Freedom                   590
          P-Value                           0.0000

CFI/TLI

          CFI                                0.942
          TLI                                0.987

Number of Free Parameters                      234

RMSEA (Root Mean Square Error Of Approximation)

          Estimate                           0.016

WRMR (Weighted Root Mean Square Residual)

          Value                              7.117



MODEL RESULTS

                                                    Two-Tailed
                    Estimate       S.E.  Est./S.E.    P-Value

 GERAL    BY
    CH2                1.000      0.000    999.000    999.000
    CH6                1.053      0.006    167.589      0.000
    CH7                1.024      0.006    159.234      0.000
    CH8                0.904      0.006    142.735      0.000
    CH9                0.983      0.006    162.625      0.000
    CH12               1.021      0.006    167.045      0.000
    CH14               1.120      0.006    178.357      0.000
    CH15               1.254      0.007    191.447      0.000
    CH16               1.081      0.006    178.438      0.000
    CH17               1.407      0.007    202.391      0.000
    CH19               0.973      0.006    157.987      0.000
    CH23               1.105      0.006    172.631      0.000
    CH24               0.809      0.006    130.577      0.000
    CH27               0.901      0.006    150.070      0.000
    CH29               0.918      0.006    154.256      0.000
    CH30               1.169      0.006    181.916      0.000
    CH31               0.937      0.006    146.668      0.000
    CH33               1.155      0.006    181.185      0.000
    CH34               1.034      0.006    172.814      0.000
    CH36               1.035      0.006    164.614      0.000
    CH37               0.858      0.007    123.999      0.000
    CH38               0.795      0.006    128.772      0.000
    CH39               0.984      0.006    154.333      0.000
    CH40               0.878      0.006    135.050      0.000
    CN1                0.965      0.006    149.595      0.000
    CN2                1.363      0.007    197.473      0.000
    CN4                0.858      0.006    152.317      0.000
    CN5                0.973      0.006    167.004      0.000
    CN6                0.836      0.006    149.239      0.000
    CN8                0.929      0.006    161.424      0.000
    CN10               0.958      0.007    147.181      0.000
    CN11               1.165      0.006    184.322      0.000
    CN13               1.170      0.006    186.011      0.000
    CN16               1.038      0.006    169.369      0.000
    CN19               1.034      0.006    162.175      0.000
    CN20               0.796      0.006    136.903      0.000
    CN21               0.760      0.006    124.821      0.000
    CN22               1.269      0.007    195.126      0.000
    CN33               0.855      0.007    122.667      0.000
    CN37               0.887      0.006    141.175      0.000
    L2                 1.118      0.006    184.018      0.000
    L5                 1.121      0.006    183.598      0.000
    L7                 0.718      0.007    101.632      0.000
    L8                 0.905      0.006    142.284      0.000
    L9                 0.973      0.006    153.726      0.000
    L10                1.040      0.006    171.012      0.000
    L12                1.062      0.006    177.327      0.000
    L14                1.033      0.006    169.104      0.000
    L15                1.127      0.006    181.098      0.000
    L17                0.727      0.006    121.934      0.000
    L19                0.976      0.006    159.845      0.000
    L20                1.190      0.006    191.848      0.000
    L22                1.132      0.007    170.404      0.000
    L23                0.829      0.006    143.762      0.000
    L25                1.005      0.006    165.967      0.000
    L26                0.954      0.006    161.272      0.000
    L28                0.822      0.006    146.417      0.000
    L29                1.095      0.006    175.487      0.000
    L30                0.940      0.006    159.557      0.000
    L31                0.833      0.006    140.994      0.000
    L32                0.932      0.007    139.028      0.000
    L33                0.881      0.006    147.186      0.000
    L34                0.871      0.006    144.955      0.000
    L36                0.959      0.006    158.557      0.000
    L37                0.886      0.006    151.843      0.000
    L38                0.855      0.006    148.722      0.000
    L42                0.841      0.006    135.082      0.000
    L43                0.982      0.006    154.208      0.000
    L44                0.751      0.006    125.971      0.000
    MT1                0.960      0.007    146.421      0.000
    MT2                0.476      0.008     56.942      0.000
    MT5                0.935      0.006    154.223      0.000
    MT7                0.671      0.006    114.209      0.000
    MT10               0.891      0.006    153.435      0.000
    MT13               0.782      0.006    131.728      0.000
    MT17               0.589      0.006     97.744      0.000
    MT19               0.701      0.006    110.706      0.000
    MT24               0.770      0.007    107.939      0.000

 MT       BY
    MT1                1.000      0.000    999.000    999.000
    MT2                0.901      0.018     50.868      0.000
    MT5                0.811      0.013     60.294      0.000
    MT7                0.701      0.013     52.595      0.000
    MT10               0.523      0.011     45.477      0.000
    MT13               0.718      0.013     54.669      0.000
    MT17               0.764      0.014     54.295      0.000
    MT19               0.952      0.015     61.609      0.000
    MT24               1.113      0.018     62.662      0.000

 CN       BY
    CN1                1.000      0.000    999.000    999.000
    CN2               -0.155      0.015    -10.079      0.000
    CN4                0.063      0.016      3.799      0.000
    CN5                0.163      0.016     10.109      0.000
    CN6                0.053      0.016      3.288      0.001
    CN8                0.326      0.017     18.819      0.000
    CN10              -0.476      0.021    -22.787      0.000
    CN11               0.080      0.015      5.237      0.000
    CN13               0.941      0.029     32.515      0.000
    CN16               0.142      0.016      8.985      0.000
    CN19              -0.290      0.018    -16.243      0.000
    CN20               0.787      0.025     30.990      0.000
    CN21              -0.811      0.027    -30.243      0.000
    CN22               0.650      0.022     29.869      0.000
    CN33              -1.084      0.034    -32.078      0.000
    CN37              -0.204      0.018    -11.533      0.000

 CH       BY
    CH2                1.000      0.000    999.000    999.000
    CH6                0.093      0.076      1.216      0.224
    CH7                2.399      0.192     12.479      0.000
    CH8                1.998      0.168     11.873      0.000
    CH9               -0.245      0.085     -2.897      0.004
    CH12               0.971      0.103      9.456      0.000
    CH14               0.246      0.076      3.239      0.001
    CH15               0.487      0.079      6.142      0.000
    CH16               1.203      0.115     10.447      0.000
    CH17               2.376      0.187     12.674      0.000
    CH19               2.184      0.179     12.203      0.000
    CH23               4.060      0.313     12.982      0.000
    CH24               2.456      0.200     12.262      0.000
    CH27               3.783      0.293     12.908      0.000
    CH29               2.628      0.210     12.522      0.000
    CH30               4.018      0.309     13.021      0.000
    CH31               5.187      0.397     13.055      0.000
    CH33               4.701      0.360     13.067      0.000
    CH34               5.065      0.386     13.107      0.000
    CH36               4.934      0.378     13.053      0.000
    CH37               5.342      0.410     13.039      0.000
    CH38               4.546      0.350     12.995      0.000
    CH39               3.807      0.296     12.877      0.000
    CH40               3.727      0.291     12.813      0.000

 L        BY
    L2                 1.000      0.000    999.000    999.000
    L5                 0.803      0.033     24.594      0.000
    L7                 3.066      0.091     33.551      0.000
    L8                -0.174      0.031     -5.637      0.000
    L9                -0.015      0.030     -0.514      0.607
    L10                2.736      0.077     35.321      0.000
    L12                1.727      0.052     33.512      0.000
    L14                1.970      0.058     34.096      0.000
    L15                3.623      0.101     35.910      0.000
    L17                3.103      0.089     35.046      0.000
    L19                0.427      0.029     14.467      0.000
    L20                2.284      0.066     34.707      0.000
    L22                0.217      0.030      7.341      0.000
    L23                1.564      0.049     31.717      0.000
    L25                1.398      0.046     30.601      0.000
    L26                2.392      0.069     34.573      0.000
    L28                1.637      0.051     32.204      0.000
    L29                1.576      0.049     31.956      0.000
    L30                1.655      0.051     32.195      0.000
    L31                1.118      0.041     27.459      0.000
    L32               -0.440      0.034    -12.814      0.000
    L33                0.380      0.030     12.796      0.000
    L34                1.056      0.039     26.921      0.000
    L36                1.404      0.045     30.849      0.000
    L37                2.014      0.060     33.521      0.000
    L38                2.376      0.069     34.594      0.000
    L42                0.628      0.034     18.680      0.000
    L43                0.809      0.036     22.609      0.000
    L44                1.368      0.046     29.770      0.000

 GERAL    WITH
    MT                 0.000      0.000    999.000    999.000
    CN                 0.000      0.000    999.000    999.000
    CH                 0.000      0.000    999.000    999.000
    L                  0.000      0.000    999.000    999.000

 MT       WITH
    CN                 0.000      0.000    999.000    999.000
    CH                 0.000      0.000    999.000    999.000
    L                  0.000      0.000    999.000    999.000

 CN       WITH
    CH                 0.000      0.000    999.000    999.000
    L                  0.000      0.000    999.000    999.000

 CH       WITH
    L                  0.000      0.000    999.000    999.000

 Thresholds
    CH2$1             -0.224      0.002    -95.148      0.000
    CH6$1              0.082      0.002     35.038      0.000
    CH7$1              0.575      0.002    231.826      0.000
    CH8$1              0.557      0.002    225.288      0.000
    CH9$1             -0.564      0.002   -227.835      0.000
    CH12$1             0.116      0.002     49.663      0.000
    CH14$1            -0.043      0.002    -18.494      0.000
    CH15$1             0.059      0.002     25.442      0.000
    CH16$1            -0.250      0.002   -105.808      0.000
    CH17$1             0.210      0.002     89.316      0.000
    CH19$1             0.256      0.002    108.423      0.000
    CH23$1             0.315      0.002    132.641      0.000
    CH24$1             0.545      0.002    221.092      0.000
    CH27$1             0.241      0.002    101.930      0.000
    CH29$1             0.065      0.002     27.703      0.000
    CH30$1             0.205      0.002     86.944      0.000
    CH31$1             0.532      0.002    216.448      0.000
    CH33$1             0.192      0.002     81.670      0.000
    CH34$1            -0.184      0.002    -78.170      0.000
    CH36$1             0.303      0.002    127.734      0.000
    CH37$1             0.791      0.003    301.780      0.000
    CH38$1             0.482      0.002    197.755      0.000
    CH39$1             0.455      0.002    187.640      0.000
    CH40$1             0.652      0.003    258.207      0.000
    CN1$1             -1.224      0.003   -395.271      0.000
    CN2$1              0.257      0.002    108.757      0.000
    CN4$1             -0.381      0.002   -158.882      0.000
    CN5$1             -0.215      0.002    -91.156      0.000
    CN6$1             -0.207      0.002    -87.844      0.000
    CN8$1             -0.134      0.002    -57.281      0.000
    CN10$1             0.573      0.002    230.918      0.000
    CN11$1             0.041      0.002     17.663      0.000
    CN13$1            -0.683      0.003   -268.402      0.000
    CN16$1             0.099      0.002     42.148      0.000
    CN19$1             0.408      0.002    169.521      0.000
    CN20$1            -0.419      0.002   -173.928      0.000
    CN21$1             0.472      0.002    193.927      0.000
    CN22$1            -0.235      0.002    -99.716      0.000
    CN33$1             0.816      0.003    308.882      0.000
    CN37$1             0.515      0.002    210.201      0.000
    L2$1              -0.388      0.002   -161.822      0.000
    L5$1              -0.121      0.002    -51.637      0.000
    L7$1              -1.562      0.004   -418.651      0.000
    L8$1               0.535      0.002    217.463      0.000
    L9$1               0.449      0.002    185.445      0.000
    L10$1             -0.582      0.002   -234.240      0.000
    L12$1             -0.328      0.002   -137.895      0.000
    L14$1             -0.104      0.002    -44.405      0.000
    L15$1             -0.753      0.003   -290.552      0.000
    L17$1             -0.829      0.003   -312.799      0.000
    L19$1              0.233      0.002     98.675      0.000
    L20$1             -0.309      0.002   -129.962      0.000
    L22$1              0.488      0.002    200.072      0.000
    L23$1             -0.066      0.002    -28.362      0.000
    L25$1              0.050      0.002     21.597      0.000
    L26$1             -0.193      0.002    -82.161      0.000
    L28$1             -0.234      0.002    -99.121      0.000
    L29$1              0.176      0.002     75.008      0.000
    L30$1             -0.019      0.002     -8.065      0.000
    L31$1              0.198      0.002     84.177      0.000
    L32$1              0.693      0.003    271.831      0.000
    L33$1              0.258      0.002    109.184      0.000
    L34$1              0.217      0.002     92.242      0.000
    L36$1              0.134      0.002     57.195      0.000
    L37$1             -0.168      0.002    -71.603      0.000
    L38$1             -0.056      0.002    -24.011      0.000
    L42$1              0.489      0.002    200.351      0.000
    L43$1              0.466      0.002    191.745      0.000
    L44$1              0.360      0.002    150.576      0.000
    MT1$1              0.615      0.003    245.673      0.000
    MT2$1              1.278      0.003    401.962      0.000
    MT5$1              0.249      0.002    105.292      0.000
    MT7$1              0.412      0.002    171.019      0.000
    MT10$1            -0.043      0.002    -18.292      0.000
    MT13$1             0.353      0.002    147.831      0.000
    MT17$1             0.566      0.002    228.432      0.000
    MT19$1             0.645      0.003    255.963      0.000
    MT24$1             0.934      0.003    340.148      0.000

 Variances
    GERAL              0.226      0.002    115.199      0.000
    MT                 0.137      0.003     46.500      0.000
    CN                 0.087      0.004     22.297      0.000
    CH                 0.003      0.000      6.633      0.000
    L                  0.016      0.001     18.542      0.000


STANDARDIZED MODEL RESULTS


STDYX Standardization

                                                    Two-Tailed
                    Estimate       S.E.  Est./S.E.    P-Value

 GERAL    BY
    CH2                0.476      0.002    230.398      0.000
    CH6                0.501      0.002    233.644      0.000
    CH7                0.487      0.002    202.861      0.000
    CH8                0.430      0.002    174.498      0.000
    CH9                0.468      0.002    217.540      0.000
    CH12               0.485      0.002    227.991      0.000
    CH14               0.533      0.002    264.072      0.000
    CH15               0.596      0.002    311.174      0.000
    CH16               0.514      0.002    261.349      0.000
    CH17               0.669      0.002    369.344      0.000
    CH19               0.463      0.002    206.186      0.000
    CH23               0.526      0.002    240.355      0.000
    CH24               0.385      0.002    154.247      0.000
    CH27               0.429      0.002    186.919      0.000
    CH29               0.437      0.002    198.389      0.000
    CH30               0.556      0.002    270.862      0.000
    CH31               0.445      0.002    179.551      0.000
    CH33               0.549      0.002    266.540      0.000
    CH34               0.492      0.002    239.783      0.000
    CH36               0.492      0.002    219.555      0.000
    CH37               0.408      0.003    141.529      0.000
    CH38               0.378      0.003    149.890      0.000
    CH39               0.468      0.002    195.578      0.000
    CH40               0.417      0.003    159.037      0.000
    CN1                0.459      0.002    190.283      0.000
    CN2                0.648      0.002    352.057      0.000
    CN4                0.408      0.002    194.384      0.000
    CN5                0.463      0.002    228.824      0.000
    CN6                0.397      0.002    187.206      0.000
    CN8                0.442      0.002    212.043      0.000
    CN10               0.455      0.002    183.296      0.000
    CN11               0.554      0.002    286.529      0.000
    CN13               0.556      0.002    293.157      0.000
    CN16               0.494      0.002    239.141      0.000
    CN19               0.492      0.002    218.690      0.000
    CN20               0.379      0.002    167.003      0.000
    CN21               0.361      0.003    143.725      0.000
    CN22               0.604      0.002    339.585      0.000
    CN33               0.407      0.003    140.900      0.000
    CN37               0.422      0.002    173.346      0.000
    L2                 0.532      0.002    283.866      0.000
    L5                 0.533      0.002    276.964      0.000
    L7                 0.341      0.003    111.787      0.000
    L8                 0.430      0.002    176.550      0.000
    L9                 0.463      0.002    197.315      0.000
    L10                0.495      0.002    245.351      0.000
    L12                0.505      0.002    261.463      0.000
    L14                0.491      0.002    239.197      0.000
    L15                0.536      0.002    277.227      0.000
    L17                0.346      0.002    141.043      0.000
    L19                0.464      0.002    212.266      0.000
    L20                0.566      0.002    316.496      0.000
    L22                0.539      0.002    238.971      0.000
    L23                0.394      0.002    178.545      0.000
    L25                0.478      0.002    229.698      0.000
    L26                0.454      0.002    216.334      0.000
    L28                0.391      0.002    183.285      0.000
    L29                0.521      0.002    254.067      0.000
    L30                0.447      0.002    212.176      0.000
    L31                0.396      0.002    173.548      0.000
    L32                0.443      0.003    169.351      0.000
    L33                0.419      0.002    184.070      0.000
    L34                0.414      0.002    182.590      0.000
    L36                0.456      0.002    211.254      0.000
    L37                0.422      0.002    195.589      0.000
    L38                0.407      0.002    187.256      0.000
    L42                0.400      0.002    161.997      0.000
    L43                0.467      0.002    198.897      0.000
    L44                0.357      0.002    147.235      0.000
    MT1                0.456      0.003    182.356      0.000
    MT2                0.227      0.004     58.409      0.000
    MT5                0.445      0.002    199.853      0.000
    MT7                0.319      0.002    129.014      0.000
    MT10               0.424      0.002    198.105      0.000
    MT13               0.372      0.002    156.152      0.000
    MT17               0.280      0.003    106.546      0.000
    MT19               0.333      0.003    123.663      0.000
    MT24               0.366      0.003    119.735      0.000

 MT       BY
    MT1                0.370      0.004     93.000      0.000
    MT2                0.333      0.005     62.287      0.000
    MT5                0.300      0.004     80.841      0.000
    MT7                0.259      0.004     65.231      0.000
    MT10               0.193      0.004     52.400      0.000
    MT13               0.266      0.004     68.709      0.000
    MT17               0.283      0.004     68.078      0.000
    MT19               0.352      0.004     85.125      0.000
    MT24               0.412      0.005     91.009      0.000

 CN       BY
    CN1                0.295      0.007     44.594      0.000
    CN2               -0.046      0.004    -10.432      0.000
    CN4                0.018      0.005      3.801      0.000
    CN5                0.048      0.005     10.326      0.000
    CN6                0.016      0.005      3.289      0.001
    CN8                0.096      0.005     20.573      0.000
    CN10              -0.140      0.005    -27.128      0.000
    CN11               0.024      0.004      5.254      0.000
    CN13               0.277      0.005     52.005      0.000
    CN16               0.042      0.005      9.140      0.000
    CN19              -0.085      0.005    -17.632      0.000
    CN20               0.232      0.005     44.809      0.000
    CN21              -0.239      0.005    -43.877      0.000
    CN22               0.192      0.005     41.456      0.000
    CN33              -0.320      0.006    -50.608      0.000
    CN37              -0.060      0.005    -12.007      0.000

 CH       BY
    CH2                0.055      0.004     13.267      0.000
    CH6                0.005      0.004      1.213      0.225
    CH7                0.131      0.004     30.175      0.000
    CH8                0.109      0.004     24.599      0.000
    CH9               -0.013      0.004     -3.013      0.003
    CH12               0.053      0.004     12.938      0.000
    CH14               0.013      0.004      3.297      0.001
    CH15               0.027      0.004      6.706      0.000
    CH16               0.066      0.004     15.929      0.000
    CH17               0.130      0.004     34.529      0.000
    CH19               0.119      0.004     28.680      0.000
    CH23               0.222      0.004     55.292      0.000
    CH24               0.134      0.004     30.208      0.000
    CH27               0.206      0.004     49.429      0.000
    CH29               0.143      0.004     34.713      0.000
    CH30               0.219      0.004     55.615      0.000
    CH31               0.283      0.004     65.634      0.000
    CH33               0.257      0.004     65.080      0.000
    CH34               0.276      0.004     67.075      0.000
    CH36               0.269      0.004     66.115      0.000
    CH37               0.292      0.005     62.579      0.000
    CH38               0.248      0.004     56.958      0.000
    CH39               0.208      0.004     49.645      0.000
    CH40               0.203      0.004     45.766      0.000

 L        BY
    L2                 0.127      0.003     37.084      0.000
    L5                 0.102      0.003     30.020      0.000
    L7                 0.390      0.006     65.923      0.000
    L8                -0.022      0.004     -5.761      0.000
    L9                -0.002      0.004     -0.514      0.607
    L10                0.348      0.003     99.589      0.000
    L12                0.220      0.003     65.134      0.000
    L14                0.251      0.003     75.149      0.000
    L15                0.461      0.004    130.022      0.000
    L17                0.395      0.004    100.031      0.000
    L19                0.054      0.004     15.200      0.000
    L20                0.291      0.003     89.125      0.000
    L22                0.028      0.004      7.417      0.000
    L23                0.199      0.003     57.490      0.000
    L25                0.178      0.003     51.489      0.000
    L26                0.304      0.003     91.085      0.000
    L28                0.208      0.004     59.455      0.000
    L29                0.201      0.003     59.264      0.000
    L30                0.211      0.003     61.611      0.000
    L31                0.142      0.004     39.927      0.000
    L32               -0.056      0.004    -13.885      0.000
    L33                0.048      0.004     13.409      0.000
    L34                0.134      0.004     37.988      0.000
    L36                0.179      0.003     51.953      0.000
    L37                0.256      0.003     74.700      0.000
    L38                0.302      0.003     89.643      0.000
    L42                0.080      0.004     21.135      0.000
    L43                0.103      0.004     27.832      0.000
    L44                0.174      0.004     47.707      0.000

 GERAL    WITH
    MT                 0.000      0.000    999.000    999.000
    CN                 0.000      0.000    999.000    999.000
    CH                 0.000      0.000    999.000    999.000
    L                  0.000      0.000    999.000    999.000

 MT       WITH
    CN                 0.000      0.000    999.000    999.000
    CH                 0.000      0.000    999.000    999.000
    L                  0.000      0.000    999.000    999.000

 CN       WITH
    CH                 0.000      0.000    999.000    999.000
    L                  0.000      0.000    999.000    999.000

 CH       WITH
    L                  0.000      0.000    999.000    999.000

 Thresholds
    CH2$1             -0.224      0.002    -95.148      0.000
    CH6$1              0.082      0.002     35.038      0.000
    CH7$1              0.575      0.002    231.826      0.000
    CH8$1              0.557      0.002    225.288      0.000
    CH9$1             -0.564      0.002   -227.835      0.000
    CH12$1             0.116      0.002     49.663      0.000
    CH14$1            -0.043      0.002    -18.494      0.000
    CH15$1             0.059      0.002     25.442      0.000
    CH16$1            -0.250      0.002   -105.808      0.000
    CH17$1             0.210      0.002     89.316      0.000
    CH19$1             0.256      0.002    108.423      0.000
    CH23$1             0.315      0.002    132.641      0.000
    CH24$1             0.545      0.002    221.092      0.000
    CH27$1             0.241      0.002    101.930      0.000
    CH29$1             0.065      0.002     27.703      0.000
    CH30$1             0.205      0.002     86.944      0.000
    CH31$1             0.532      0.002    216.448      0.000
    CH33$1             0.192      0.002     81.670      0.000
    CH34$1            -0.184      0.002    -78.170      0.000
    CH36$1             0.303      0.002    127.734      0.000
    CH37$1             0.791      0.003    301.780      0.000
    CH38$1             0.482      0.002    197.755      0.000
    CH39$1             0.455      0.002    187.640      0.000
    CH40$1             0.652      0.003    258.207      0.000
    CN1$1             -1.224      0.003   -395.271      0.000
    CN2$1              0.257      0.002    108.757      0.000
    CN4$1             -0.381      0.002   -158.882      0.000
    CN5$1             -0.215      0.002    -91.156      0.000
    CN6$1             -0.207      0.002    -87.844      0.000
    CN8$1             -0.134      0.002    -57.281      0.000
    CN10$1             0.573      0.002    230.918      0.000
    CN11$1             0.041      0.002     17.663      0.000
    CN13$1            -0.683      0.003   -268.402      0.000
    CN16$1             0.099      0.002     42.148      0.000
    CN19$1             0.408      0.002    169.521      0.000
    CN20$1            -0.419      0.002   -173.928      0.000
    CN21$1             0.472      0.002    193.927      0.000
    CN22$1            -0.235      0.002    -99.716      0.000
    CN33$1             0.816      0.003    308.882      0.000
    CN37$1             0.515      0.002    210.201      0.000
    L2$1              -0.388      0.002   -161.822      0.000
    L5$1              -0.121      0.002    -51.637      0.000
    L7$1              -1.562      0.004   -418.651      0.000
    L8$1               0.535      0.002    217.463      0.000
    L9$1               0.449      0.002    185.445      0.000
    L10$1             -0.582      0.002   -234.240      0.000
    L12$1             -0.328      0.002   -137.895      0.000
    L14$1             -0.104      0.002    -44.405      0.000
    L15$1             -0.753      0.003   -290.552      0.000
    L17$1             -0.829      0.003   -312.799      0.000
    L19$1              0.233      0.002     98.675      0.000
    L20$1             -0.309      0.002   -129.962      0.000
    L22$1              0.488      0.002    200.072      0.000
    L23$1             -0.066      0.002    -28.362      0.000
    L25$1              0.050      0.002     21.597      0.000
    L26$1             -0.193      0.002    -82.161      0.000
    L28$1             -0.234      0.002    -99.121      0.000
    L29$1              0.176      0.002     75.008      0.000
    L30$1             -0.019      0.002     -8.065      0.000
    L31$1              0.198      0.002     84.177      0.000
    L32$1              0.693      0.003    271.831      0.000
    L33$1              0.258      0.002    109.184      0.000
    L34$1              0.217      0.002     92.242      0.000
    L36$1              0.134      0.002     57.195      0.000
    L37$1             -0.168      0.002    -71.603      0.000
    L38$1             -0.056      0.002    -24.011      0.000
    L42$1              0.489      0.002    200.351      0.000
    L43$1              0.466      0.002    191.745      0.000
    L44$1              0.360      0.002    150.576      0.000
    MT1$1              0.615      0.003    245.673      0.000
    MT2$1              1.278      0.003    401.962      0.000
    MT5$1              0.249      0.002    105.292      0.000
    MT7$1              0.412      0.002    171.019      0.000
    MT10$1            -0.043      0.002    -18.292      0.000
    MT13$1             0.353      0.002    147.831      0.000
    MT17$1             0.566      0.002    228.432      0.000
    MT19$1             0.645      0.003    255.963      0.000
    MT24$1             0.934      0.003    340.148      0.000

 Variances
    GERAL              1.000      0.000    999.000    999.000
    MT                 1.000      0.000    999.000    999.000
    CN                 1.000      0.000    999.000    999.000
    CH                 1.000      0.000    999.000    999.000
    L                  1.000      0.000    999.000    999.000


STDY Standardization

                                                    Two-Tailed
                    Estimate       S.E.  Est./S.E.    P-Value

 GERAL    BY
    CH2                0.476      0.002    230.398      0.000
    CH6                0.501      0.002    233.644      0.000
    CH7                0.487      0.002    202.861      0.000
    CH8                0.430      0.002    174.498      0.000
    CH9                0.468      0.002    217.540      0.000
    CH12               0.485      0.002    227.991      0.000
    CH14               0.533      0.002    264.072      0.000
    CH15               0.596      0.002    311.174      0.000
    CH16               0.514      0.002    261.349      0.000
    CH17               0.669      0.002    369.344      0.000
    CH19               0.463      0.002    206.186      0.000
    CH23               0.526      0.002    240.355      0.000
    CH24               0.385      0.002    154.247      0.000
    CH27               0.429      0.002    186.919      0.000
    CH29               0.437      0.002    198.389      0.000
    CH30               0.556      0.002    270.862      0.000
    CH31               0.445      0.002    179.551      0.000
    CH33               0.549      0.002    266.540      0.000
    CH34               0.492      0.002    239.783      0.000
    CH36               0.492      0.002    219.555      0.000
    CH37               0.408      0.003    141.529      0.000
    CH38               0.378      0.003    149.890      0.000
    CH39               0.468      0.002    195.578      0.000
    CH40               0.417      0.003    159.037      0.000
    CN1                0.459      0.002    190.283      0.000
    CN2                0.648      0.002    352.057      0.000
    CN4                0.408      0.002    194.384      0.000
    CN5                0.463      0.002    228.824      0.000
    CN6                0.397      0.002    187.206      0.000
    CN8                0.442      0.002    212.043      0.000
    CN10               0.455      0.002    183.296      0.000
    CN11               0.554      0.002    286.529      0.000
    CN13               0.556      0.002    293.157      0.000
    CN16               0.494      0.002    239.141      0.000
    CN19               0.492      0.002    218.690      0.000
    CN20               0.379      0.002    167.003      0.000
    CN21               0.361      0.003    143.725      0.000
    CN22               0.604      0.002    339.585      0.000
    CN33               0.407      0.003    140.900      0.000
    CN37               0.422      0.002    173.346      0.000
    L2                 0.532      0.002    283.866      0.000
    L5                 0.533      0.002    276.964      0.000
    L7                 0.341      0.003    111.787      0.000
    L8                 0.430      0.002    176.550      0.000
    L9                 0.463      0.002    197.315      0.000
    L10                0.495      0.002    245.351      0.000
    L12                0.505      0.002    261.463      0.000
    L14                0.491      0.002    239.197      0.000
    L15                0.536      0.002    277.227      0.000
    L17                0.346      0.002    141.043      0.000
    L19                0.464      0.002    212.266      0.000
    L20                0.566      0.002    316.496      0.000
    L22                0.539      0.002    238.971      0.000
    L23                0.394      0.002    178.545      0.000
    L25                0.478      0.002    229.698      0.000
    L26                0.454      0.002    216.334      0.000
    L28                0.391      0.002    183.285      0.000
    L29                0.521      0.002    254.067      0.000
    L30                0.447      0.002    212.176      0.000
    L31                0.396      0.002    173.548      0.000
    L32                0.443      0.003    169.351      0.000
    L33                0.419      0.002    184.070      0.000
    L34                0.414      0.002    182.590      0.000
    L36                0.456      0.002    211.254      0.000
    L37                0.422      0.002    195.589      0.000
    L38                0.407      0.002    187.256      0.000
    L42                0.400      0.002    161.997      0.000
    L43                0.467      0.002    198.897      0.000
    L44                0.357      0.002    147.235      0.000
    MT1                0.456      0.003    182.356      0.000
    MT2                0.227      0.004     58.409      0.000
    MT5                0.445      0.002    199.853      0.000
    MT7                0.319      0.002    129.014      0.000
    MT10               0.424      0.002    198.105      0.000
    MT13               0.372      0.002    156.152      0.000
    MT17               0.280      0.003    106.546      0.000
    MT19               0.333      0.003    123.663      0.000
    MT24               0.366      0.003    119.735      0.000

 MT       BY
    MT1                0.370      0.004     93.000      0.000
    MT2                0.333      0.005     62.287      0.000
    MT5                0.300      0.004     80.841      0.000
    MT7                0.259      0.004     65.231      0.000
    MT10               0.193      0.004     52.400      0.000
    MT13               0.266      0.004     68.709      0.000
    MT17               0.283      0.004     68.078      0.000
    MT19               0.352      0.004     85.125      0.000
    MT24               0.412      0.005     91.009      0.000

 CN       BY
    CN1                0.295      0.007     44.594      0.000
    CN2               -0.046      0.004    -10.432      0.000
    CN4                0.018      0.005      3.801      0.000
    CN5                0.048      0.005     10.326      0.000
    CN6                0.016      0.005      3.289      0.001
    CN8                0.096      0.005     20.573      0.000
    CN10              -0.140      0.005    -27.128      0.000
    CN11               0.024      0.004      5.254      0.000
    CN13               0.277      0.005     52.005      0.000
    CN16               0.042      0.005      9.140      0.000
    CN19              -0.085      0.005    -17.632      0.000
    CN20               0.232      0.005     44.809      0.000
    CN21              -0.239      0.005    -43.877      0.000
    CN22               0.192      0.005     41.456      0.000
    CN33              -0.320      0.006    -50.608      0.000
    CN37              -0.060      0.005    -12.007      0.000

 CH       BY
    CH2                0.055      0.004     13.267      0.000
    CH6                0.005      0.004      1.213      0.225
    CH7                0.131      0.004     30.175      0.000
    CH8                0.109      0.004     24.599      0.000
    CH9               -0.013      0.004     -3.013      0.003
    CH12               0.053      0.004     12.938      0.000
    CH14               0.013      0.004      3.297      0.001
    CH15               0.027      0.004      6.706      0.000
    CH16               0.066      0.004     15.929      0.000
    CH17               0.130      0.004     34.529      0.000
    CH19               0.119      0.004     28.680      0.000
    CH23               0.222      0.004     55.292      0.000
    CH24               0.134      0.004     30.208      0.000
    CH27               0.206      0.004     49.429      0.000
    CH29               0.143      0.004     34.713      0.000
    CH30               0.219      0.004     55.615      0.000
    CH31               0.283      0.004     65.634      0.000
    CH33               0.257      0.004     65.080      0.000
    CH34               0.276      0.004     67.075      0.000
    CH36               0.269      0.004     66.115      0.000
    CH37               0.292      0.005     62.579      0.000
    CH38               0.248      0.004     56.958      0.000
    CH39               0.208      0.004     49.645      0.000
    CH40               0.203      0.004     45.766      0.000

 L        BY
    L2                 0.127      0.003     37.084      0.000
    L5                 0.102      0.003     30.020      0.000
    L7                 0.390      0.006     65.923      0.000
    L8                -0.022      0.004     -5.761      0.000
    L9                -0.002      0.004     -0.514      0.607
    L10                0.348      0.003     99.589      0.000
    L12                0.220      0.003     65.134      0.000
    L14                0.251      0.003     75.149      0.000
    L15                0.461      0.004    130.022      0.000
    L17                0.395      0.004    100.031      0.000
    L19                0.054      0.004     15.200      0.000
    L20                0.291      0.003     89.125      0.000
    L22                0.028      0.004      7.417      0.000
    L23                0.199      0.003     57.490      0.000
    L25                0.178      0.003     51.489      0.000
    L26                0.304      0.003     91.085      0.000
    L28                0.208      0.004     59.455      0.000
    L29                0.201      0.003     59.264      0.000
    L30                0.211      0.003     61.611      0.000
    L31                0.142      0.004     39.927      0.000
    L32               -0.056      0.004    -13.885      0.000
    L33                0.048      0.004     13.409      0.000
    L34                0.134      0.004     37.988      0.000
    L36                0.179      0.003     51.953      0.000
    L37                0.256      0.003     74.700      0.000
    L38                0.302      0.003     89.643      0.000
    L42                0.080      0.004     21.135      0.000
    L43                0.103      0.004     27.832      0.000
    L44                0.174      0.004     47.707      0.000

 GERAL    WITH
    MT                 0.000      0.000    999.000    999.000
    CN                 0.000      0.000    999.000    999.000
    CH                 0.000      0.000    999.000    999.000
    L                  0.000      0.000    999.000    999.000

 MT       WITH
    CN                 0.000      0.000    999.000    999.000
    CH                 0.000      0.000    999.000    999.000
    L                  0.000      0.000    999.000    999.000

 CN       WITH
    CH                 0.000      0.000    999.000    999.000
    L                  0.000      0.000    999.000    999.000

 CH       WITH
    L                  0.000      0.000    999.000    999.000

 Thresholds
    CH2$1             -0.224      0.002    -95.148      0.000
    CH6$1              0.082      0.002     35.038      0.000
    CH7$1              0.575      0.002    231.826      0.000
    CH8$1              0.557      0.002    225.288      0.000
    CH9$1             -0.564      0.002   -227.835      0.000
    CH12$1             0.116      0.002     49.663      0.000
    CH14$1            -0.043      0.002    -18.494      0.000
    CH15$1             0.059      0.002     25.442      0.000
    CH16$1            -0.250      0.002   -105.808      0.000
    CH17$1             0.210      0.002     89.316      0.000
    CH19$1             0.256      0.002    108.423      0.000
    CH23$1             0.315      0.002    132.641      0.000
    CH24$1             0.545      0.002    221.092      0.000
    CH27$1             0.241      0.002    101.930      0.000
    CH29$1             0.065      0.002     27.703      0.000
    CH30$1             0.205      0.002     86.944      0.000
    CH31$1             0.532      0.002    216.448      0.000
    CH33$1             0.192      0.002     81.670      0.000
    CH34$1            -0.184      0.002    -78.170      0.000
    CH36$1             0.303      0.002    127.734      0.000
    CH37$1             0.791      0.003    301.780      0.000
    CH38$1             0.482      0.002    197.755      0.000
    CH39$1             0.455      0.002    187.640      0.000
    CH40$1             0.652      0.003    258.207      0.000
    CN1$1             -1.224      0.003   -395.271      0.000
    CN2$1              0.257      0.002    108.757      0.000
    CN4$1             -0.381      0.002   -158.882      0.000
    CN5$1             -0.215      0.002    -91.156      0.000
    CN6$1             -0.207      0.002    -87.844      0.000
    CN8$1             -0.134      0.002    -57.281      0.000
    CN10$1             0.573      0.002    230.918      0.000
    CN11$1             0.041      0.002     17.663      0.000
    CN13$1            -0.683      0.003   -268.402      0.000
    CN16$1             0.099      0.002     42.148      0.000
    CN19$1             0.408      0.002    169.521      0.000
    CN20$1            -0.419      0.002   -173.928      0.000
    CN21$1             0.472      0.002    193.927      0.000
    CN22$1            -0.235      0.002    -99.716      0.000
    CN33$1             0.816      0.003    308.882      0.000
    CN37$1             0.515      0.002    210.201      0.000
    L2$1              -0.388      0.002   -161.822      0.000
    L5$1              -0.121      0.002    -51.637      0.000
    L7$1              -1.562      0.004   -418.651      0.000
    L8$1               0.535      0.002    217.463      0.000
    L9$1               0.449      0.002    185.445      0.000
    L10$1             -0.582      0.002   -234.240      0.000
    L12$1             -0.328      0.002   -137.895      0.000
    L14$1             -0.104      0.002    -44.405      0.000
    L15$1             -0.753      0.003   -290.552      0.000
    L17$1             -0.829      0.003   -312.799      0.000
    L19$1              0.233      0.002     98.675      0.000
    L20$1             -0.309      0.002   -129.962      0.000
    L22$1              0.488      0.002    200.072      0.000
    L23$1             -0.066      0.002    -28.362      0.000
    L25$1              0.050      0.002     21.597      0.000
    L26$1             -0.193      0.002    -82.161      0.000
    L28$1             -0.234      0.002    -99.121      0.000
    L29$1              0.176      0.002     75.008      0.000
    L30$1             -0.019      0.002     -8.065      0.000
    L31$1              0.198      0.002     84.177      0.000
    L32$1              0.693      0.003    271.831      0.000
    L33$1              0.258      0.002    109.184      0.000
    L34$1              0.217      0.002     92.242      0.000
    L36$1              0.134      0.002     57.195      0.000
    L37$1             -0.168      0.002    -71.603      0.000
    L38$1             -0.056      0.002    -24.011      0.000
    L42$1              0.489      0.002    200.351      0.000
    L43$1              0.466      0.002    191.745      0.000
    L44$1              0.360      0.002    150.576      0.000
    MT1$1              0.615      0.003    245.673      0.000
    MT2$1              1.278      0.003    401.962      0.000
    MT5$1              0.249      0.002    105.292      0.000
    MT7$1              0.412      0.002    171.019      0.000
    MT10$1            -0.043      0.002    -18.292      0.000
    MT13$1             0.353      0.002    147.831      0.000
    MT17$1             0.566      0.002    228.432      0.000
    MT19$1             0.645      0.003    255.963      0.000
    MT24$1             0.934      0.003    340.148      0.000

 Variances
    GERAL              1.000      0.000    999.000    999.000
    MT                 1.000      0.000    999.000    999.000
    CN                 1.000      0.000    999.000    999.000
    CH                 1.000      0.000    999.000    999.000
    L                  1.000      0.000    999.000    999.000


STD Standardization

                                                    Two-Tailed
                    Estimate       S.E.  Est./S.E.    P-Value

 GERAL    BY
    CH2                0.476      0.002    230.398      0.000
    CH6                0.501      0.002    233.644      0.000
    CH7                0.487      0.002    202.861      0.000
    CH8                0.430      0.002    174.498      0.000
    CH9                0.468      0.002    217.540      0.000
    CH12               0.485      0.002    227.991      0.000
    CH14               0.533      0.002    264.072      0.000
    CH15               0.596      0.002    311.174      0.000
    CH16               0.514      0.002    261.349      0.000
    CH17               0.669      0.002    369.344      0.000
    CH19               0.463      0.002    206.186      0.000
    CH23               0.526      0.002    240.355      0.000
    CH24               0.385      0.002    154.247      0.000
    CH27               0.429      0.002    186.919      0.000
    CH29               0.437      0.002    198.389      0.000
    CH30               0.556      0.002    270.862      0.000
    CH31               0.445      0.002    179.551      0.000
    CH33               0.549      0.002    266.540      0.000
    CH34               0.492      0.002    239.783      0.000
    CH36               0.492      0.002    219.555      0.000
    CH37               0.408      0.003    141.529      0.000
    CH38               0.378      0.003    149.890      0.000
    CH39               0.468      0.002    195.578      0.000
    CH40               0.417      0.003    159.037      0.000
    CN1                0.459      0.002    190.283      0.000
    CN2                0.648      0.002    352.057      0.000
    CN4                0.408      0.002    194.384      0.000
    CN5                0.463      0.002    228.824      0.000
    CN6                0.397      0.002    187.206      0.000
    CN8                0.442      0.002    212.043      0.000
    CN10               0.455      0.002    183.296      0.000
    CN11               0.554      0.002    286.529      0.000
    CN13               0.556      0.002    293.157      0.000
    CN16               0.494      0.002    239.141      0.000
    CN19               0.492      0.002    218.690      0.000
    CN20               0.379      0.002    167.003      0.000
    CN21               0.361      0.003    143.725      0.000
    CN22               0.604      0.002    339.585      0.000
    CN33               0.407      0.003    140.900      0.000
    CN37               0.422      0.002    173.346      0.000
    L2                 0.532      0.002    283.866      0.000
    L5                 0.533      0.002    276.964      0.000
    L7                 0.341      0.003    111.787      0.000
    L8                 0.430      0.002    176.550      0.000
    L9                 0.463      0.002    197.315      0.000
    L10                0.495      0.002    245.351      0.000
    L12                0.505      0.002    261.463      0.000
    L14                0.491      0.002    239.197      0.000
    L15                0.536      0.002    277.227      0.000
    L17                0.346      0.002    141.043      0.000
    L19                0.464      0.002    212.266      0.000
    L20                0.566      0.002    316.496      0.000
    L22                0.539      0.002    238.971      0.000
    L23                0.394      0.002    178.545      0.000
    L25                0.478      0.002    229.698      0.000
    L26                0.454      0.002    216.334      0.000
    L28                0.391      0.002    183.285      0.000
    L29                0.521      0.002    254.067      0.000
    L30                0.447      0.002    212.176      0.000
    L31                0.396      0.002    173.548      0.000
    L32                0.443      0.003    169.351      0.000
    L33                0.419      0.002    184.070      0.000
    L34                0.414      0.002    182.590      0.000
    L36                0.456      0.002    211.254      0.000
    L37                0.422      0.002    195.589      0.000
    L38                0.407      0.002    187.256      0.000
    L42                0.400      0.002    161.997      0.000
    L43                0.467      0.002    198.897      0.000
    L44                0.357      0.002    147.235      0.000
    MT1                0.456      0.003    182.356      0.000
    MT2                0.227      0.004     58.409      0.000
    MT5                0.445      0.002    199.853      0.000
    MT7                0.319      0.002    129.014      0.000
    MT10               0.424      0.002    198.105      0.000
    MT13               0.372      0.002    156.152      0.000
    MT17               0.280      0.003    106.546      0.000
    MT19               0.333      0.003    123.663      0.000
    MT24               0.366      0.003    119.735      0.000

 MT       BY
    MT1                0.370      0.004     93.000      0.000
    MT2                0.333      0.005     62.287      0.000
    MT5                0.300      0.004     80.841      0.000
    MT7                0.259      0.004     65.231      0.000
    MT10               0.193      0.004     52.400      0.000
    MT13               0.266      0.004     68.709      0.000
    MT17               0.283      0.004     68.078      0.000
    MT19               0.352      0.004     85.125      0.000
    MT24               0.412      0.005     91.009      0.000

 CN       BY
    CN1                0.295      0.007     44.594      0.000
    CN2               -0.046      0.004    -10.432      0.000
    CN4                0.018      0.005      3.801      0.000
    CN5                0.048      0.005     10.326      0.000
    CN6                0.016      0.005      3.289      0.001
    CN8                0.096      0.005     20.573      0.000
    CN10              -0.140      0.005    -27.128      0.000
    CN11               0.024      0.004      5.254      0.000
    CN13               0.277      0.005     52.005      0.000
    CN16               0.042      0.005      9.140      0.000
    CN19              -0.085      0.005    -17.632      0.000
    CN20               0.232      0.005     44.809      0.000
    CN21              -0.239      0.005    -43.877      0.000
    CN22               0.192      0.005     41.456      0.000
    CN33              -0.320      0.006    -50.608      0.000
    CN37              -0.060      0.005    -12.007      0.000

 CH       BY
    CH2                0.055      0.004     13.267      0.000
    CH6                0.005      0.004      1.213      0.225
    CH7                0.131      0.004     30.175      0.000
    CH8                0.109      0.004     24.599      0.000
    CH9               -0.013      0.004     -3.013      0.003
    CH12               0.053      0.004     12.938      0.000
    CH14               0.013      0.004      3.297      0.001
    CH15               0.027      0.004      6.706      0.000
    CH16               0.066      0.004     15.929      0.000
    CH17               0.130      0.004     34.529      0.000
    CH19               0.119      0.004     28.680      0.000
    CH23               0.222      0.004     55.292      0.000
    CH24               0.134      0.004     30.208      0.000
    CH27               0.206      0.004     49.429      0.000
    CH29               0.143      0.004     34.713      0.000
    CH30               0.219      0.004     55.615      0.000
    CH31               0.283      0.004     65.634      0.000
    CH33               0.257      0.004     65.080      0.000
    CH34               0.276      0.004     67.075      0.000
    CH36               0.269      0.004     66.115      0.000
    CH37               0.292      0.005     62.579      0.000
    CH38               0.248      0.004     56.958      0.000
    CH39               0.208      0.004     49.645      0.000
    CH40               0.203      0.004     45.766      0.000

 L        BY
    L2                 0.127      0.003     37.084      0.000
    L5                 0.102      0.003     30.020      0.000
    L7                 0.390      0.006     65.923      0.000
    L8                -0.022      0.004     -5.761      0.000
    L9                -0.002      0.004     -0.514      0.607
    L10                0.348      0.003     99.589      0.000
    L12                0.220      0.003     65.134      0.000
    L14                0.251      0.003     75.149      0.000
    L15                0.461      0.004    130.022      0.000
    L17                0.395      0.004    100.031      0.000
    L19                0.054      0.004     15.200      0.000
    L20                0.291      0.003     89.125      0.000
    L22                0.028      0.004      7.417      0.000
    L23                0.199      0.003     57.490      0.000
    L25                0.178      0.003     51.489      0.000
    L26                0.304      0.003     91.085      0.000
    L28                0.208      0.004     59.455      0.000
    L29                0.201      0.003     59.264      0.000
    L30                0.211      0.003     61.611      0.000
    L31                0.142      0.004     39.927      0.000
    L32               -0.056      0.004    -13.885      0.000
    L33                0.048      0.004     13.409      0.000
    L34                0.134      0.004     37.988      0.000
    L36                0.179      0.003     51.953      0.000
    L37                0.256      0.003     74.700      0.000
    L38                0.302      0.003     89.643      0.000
    L42                0.080      0.004     21.135      0.000
    L43                0.103      0.004     27.832      0.000
    L44                0.174      0.004     47.707      0.000

 GERAL    WITH
    MT                 0.000      0.000    999.000    999.000
    CN                 0.000      0.000    999.000    999.000
    CH                 0.000      0.000    999.000    999.000
    L                  0.000      0.000    999.000    999.000

 MT       WITH
    CN                 0.000      0.000    999.000    999.000
    CH                 0.000      0.000    999.000    999.000
    L                  0.000      0.000    999.000    999.000

 CN       WITH
    CH                 0.000      0.000    999.000    999.000
    L                  0.000      0.000    999.000    999.000

 CH       WITH
    L                  0.000      0.000    999.000    999.000

 Thresholds
    CH2$1             -0.224      0.002    -95.148      0.000
    CH6$1              0.082      0.002     35.038      0.000
    CH7$1              0.575      0.002    231.826      0.000
    CH8$1              0.557      0.002    225.288      0.000
    CH9$1             -0.564      0.002   -227.835      0.000
    CH12$1             0.116      0.002     49.663      0.000
    CH14$1            -0.043      0.002    -18.494      0.000
    CH15$1             0.059      0.002     25.442      0.000
    CH16$1            -0.250      0.002   -105.808      0.000
    CH17$1             0.210      0.002     89.316      0.000
    CH19$1             0.256      0.002    108.423      0.000
    CH23$1             0.315      0.002    132.641      0.000
    CH24$1             0.545      0.002    221.092      0.000
    CH27$1             0.241      0.002    101.930      0.000
    CH29$1             0.065      0.002     27.703      0.000
    CH30$1             0.205      0.002     86.944      0.000
    CH31$1             0.532      0.002    216.448      0.000
    CH33$1             0.192      0.002     81.670      0.000
    CH34$1            -0.184      0.002    -78.170      0.000
    CH36$1             0.303      0.002    127.734      0.000
    CH37$1             0.791      0.003    301.780      0.000
    CH38$1             0.482      0.002    197.755      0.000
    CH39$1             0.455      0.002    187.640      0.000
    CH40$1             0.652      0.003    258.207      0.000
    CN1$1             -1.224      0.003   -395.271      0.000
    CN2$1              0.257      0.002    108.757      0.000
    CN4$1             -0.381      0.002   -158.882      0.000
    CN5$1             -0.215      0.002    -91.156      0.000
    CN6$1             -0.207      0.002    -87.844      0.000
    CN8$1             -0.134      0.002    -57.281      0.000
    CN10$1             0.573      0.002    230.918      0.000
    CN11$1             0.041      0.002     17.663      0.000
    CN13$1            -0.683      0.003   -268.402      0.000
    CN16$1             0.099      0.002     42.148      0.000
    CN19$1             0.408      0.002    169.521      0.000
    CN20$1            -0.419      0.002   -173.928      0.000
    CN21$1             0.472      0.002    193.927      0.000
    CN22$1            -0.235      0.002    -99.716      0.000
    CN33$1             0.816      0.003    308.882      0.000
    CN37$1             0.515      0.002    210.201      0.000
    L2$1              -0.388      0.002   -161.822      0.000
    L5$1              -0.121      0.002    -51.637      0.000
    L7$1              -1.562      0.004   -418.651      0.000
    L8$1               0.535      0.002    217.463      0.000
    L9$1               0.449      0.002    185.445      0.000
    L10$1             -0.582      0.002   -234.240      0.000
    L12$1             -0.328      0.002   -137.895      0.000
    L14$1             -0.104      0.002    -44.405      0.000
    L15$1             -0.753      0.003   -290.552      0.000
    L17$1             -0.829      0.003   -312.799      0.000
    L19$1              0.233      0.002     98.675      0.000
    L20$1             -0.309      0.002   -129.962      0.000
    L22$1              0.488      0.002    200.072      0.000
    L23$1             -0.066      0.002    -28.362      0.000
    L25$1              0.050      0.002     21.597      0.000
    L26$1             -0.193      0.002    -82.161      0.000
    L28$1             -0.234      0.002    -99.121      0.000
    L29$1              0.176      0.002     75.008      0.000
    L30$1             -0.019      0.002     -8.065      0.000
    L31$1              0.198      0.002     84.177      0.000
    L32$1              0.693      0.003    271.831      0.000
    L33$1              0.258      0.002    109.184      0.000
    L34$1              0.217      0.002     92.242      0.000
    L36$1              0.134      0.002     57.195      0.000
    L37$1             -0.168      0.002    -71.603      0.000
    L38$1             -0.056      0.002    -24.011      0.000
    L42$1              0.489      0.002    200.351      0.000
    L43$1              0.466      0.002    191.745      0.000
    L44$1              0.360      0.002    150.576      0.000
    MT1$1              0.615      0.003    245.673      0.000
    MT2$1              1.278      0.003    401.962      0.000
    MT5$1              0.249      0.002    105.292      0.000
    MT7$1              0.412      0.002    171.019      0.000
    MT10$1            -0.043      0.002    -18.292      0.000
    MT13$1             0.353      0.002    147.831      0.000
    MT17$1             0.566      0.002    228.432      0.000
    MT19$1             0.645      0.003    255.963      0.000
    MT24$1             0.934      0.003    340.148      0.000

 Variances
    GERAL              1.000      0.000    999.000    999.000
    MT                 1.000      0.000    999.000    999.000
    CN                 1.000      0.000    999.000    999.000
    CH                 1.000      0.000    999.000    999.000
    L                  1.000      0.000    999.000    999.000


R-SQUARE

    Observed                                        Two-Tailed   Residual
    Variable        Estimate       S.E.  Est./S.E.    P-Value    Variance

    CH2                0.229      0.002    121.466      0.000      0.771
    CH6                0.251      0.002    117.254      0.000      0.749
    CH7                0.254      0.002    105.799      0.000      0.746
    CH8                0.197      0.002     90.595      0.000      0.803
    CH9                0.219      0.002    106.992      0.000      0.781
    CH12               0.238      0.002    118.637      0.000      0.762
    CH14               0.284      0.002    133.571      0.000      0.716
    CH15               0.356      0.002    158.848      0.000      0.644
    CH16               0.269      0.002    139.826      0.000      0.731
    CH17               0.464      0.002    200.429      0.000      0.536
    CH19               0.228      0.002    109.190      0.000      0.772
    CH23               0.325      0.002    131.186      0.000      0.675
    CH24               0.166      0.002     79.889      0.000      0.834
    CH27               0.226      0.002     99.817      0.000      0.774
    CH29               0.211      0.002    106.035      0.000      0.789
    CH30               0.357      0.002    147.585      0.000      0.643
    CH31               0.279      0.003     95.463      0.000      0.721
    CH33               0.368      0.002    147.283      0.000      0.632
    CH34               0.318      0.002    134.281      0.000      0.682
    CH36               0.315      0.003    119.105      0.000      0.685
    CH37               0.251      0.003     76.998      0.000      0.749
    CH38               0.204      0.003     79.213      0.000      0.796
    CH39               0.262      0.003    104.674      0.000      0.738
    CH40               0.216      0.003     83.343      0.000      0.784
    CN1                0.297      0.005     64.200      0.000      0.703
    CN2                0.422      0.002    176.267      0.000      0.578
    CN4                0.167      0.002     96.118      0.000      0.833
    CN5                0.216      0.002    111.457      0.000      0.784
    CN6                0.158      0.002     92.984      0.000      0.842
    CN8                0.204      0.002     99.398      0.000      0.796
    CN10               0.227      0.003     85.381      0.000      0.773
    CN11               0.308      0.002    142.330      0.000      0.692
    CN13               0.386      0.004    104.683      0.000      0.614
    CN16               0.245      0.002    118.447      0.000      0.755
    CN19               0.249      0.002    106.417      0.000      0.751
    CN20               0.197      0.003     67.548      0.000      0.803
    CN21               0.188      0.003     59.833      0.000      0.812
    CN22               0.401      0.003    143.648      0.000      0.599
    CN33               0.268      0.005     57.416      0.000      0.732
    CN37               0.182      0.002     84.470      0.000      0.818
    L2                 0.299      0.002    146.108      0.000      0.701
    L5                 0.295      0.002    143.184      0.000      0.705
    L7                 0.269      0.005     57.489      0.000      0.731
    L8                 0.186      0.002     87.294      0.000      0.814
    L9                 0.214      0.002     98.575      0.000      0.786
    L10                0.366      0.003    134.711      0.000      0.634
    L12                0.303      0.002    137.047      0.000      0.697
    L14                0.304      0.002    130.489      0.000      0.696
    L15                0.500      0.003    153.162      0.000      0.500
    L17                0.275      0.003     85.276      0.000      0.725
    L19                0.218      0.002    108.525      0.000      0.782
    L20                0.405      0.002    167.156      0.000      0.595
    L22                0.291      0.002    120.580      0.000      0.709
    L23                0.195      0.002     97.176      0.000      0.805
    L25                0.260      0.002    121.421      0.000      0.740
    L26                0.299      0.002    122.441      0.000      0.701
    L28                0.196      0.002     97.661      0.000      0.804
    L29                0.312      0.002    135.502      0.000      0.688
    L30                0.244      0.002    114.382      0.000      0.756
    L31                0.177      0.002     92.417      0.000      0.823
    L32                0.200      0.002     82.901      0.000      0.800
    L33                0.178      0.002     94.025      0.000      0.822
    L34                0.190      0.002     97.244      0.000      0.810
    L36                0.240      0.002    113.988      0.000      0.760
    L37                0.243      0.002    108.317      0.000      0.757
    L38                0.257      0.002    107.516      0.000      0.743
    L42                0.167      0.002     83.829      0.000      0.833
    L43                0.229      0.002    103.536      0.000      0.771
    L44                0.158      0.002     80.353      0.000      0.842
    MT1                0.345      0.003    101.117      0.000      0.655
    MT2                0.162      0.004     40.009      0.000      0.838
    MT5                0.288      0.003    109.403      0.000      0.712
    MT7                0.169      0.002     69.464      0.000      0.831
    MT10               0.217      0.002    106.449      0.000      0.783
    MT13               0.209      0.003     83.385      0.000      0.791
    MT17               0.158      0.003     59.533      0.000      0.842
    MT19               0.235      0.003     72.138      0.000      0.765
    MT24               0.304      0.004     71.538      0.000      0.696


QUALITY OF NUMERICAL RESULTS

     Condition Number for the Information Matrix              0.776E-09
       (ratio of smallest to largest eigenvalue)


     Beginning Time:  13:20:23
        Ending Time:  13:42:10
       Elapsed Time:  00:21:47



MUTHEN & MUTHEN
3463 Stoner Ave.
Los Angeles, CA  90066

Tel: (310) 391-9971
Fax: (310) 391-8971
Web: www.StatModel.com
Support: Support@StatModel.com

Copyright (c) 1998-2008 Muthen & Muthen
