TITLE:	ENEM 2009
DATA:	FILE IS DATA.txt;
VARIABLE:	NAMES ARE cn1-cn45 ch1-ch45 l1-l10 l12-l45 mt1-mt45;
        	CATEGORICAL cn1-cn45 ch1-ch45 l1-l10 l12-l45 mt1-mt45;
MODEL:
          MT BY mt1-mt45;
          CN BY cn1-cn45;
          CH BY ch1-ch45;
          L BY l1-l10 l12-l45;

OUTPUT: STANDARDIZED;





