TITLE:	ENEM 2009
DATA:	FILE IS DATA.txt;
VARIABLE:	NAMES ARE cn1-cn45 ch1-ch45 l1-l10 l12-l45 mt1-mt45;
        	CATEGORICAL ch2 ch6-ch9 ch12 ch14-ch17 ch19 ch23 ch24 ch27
           ch29-ch31 ch33 ch34 ch36-ch40
           cn1 cn2 cn4-cn6 cn8 cn10 cn11
              cn13 cn16 cn19-cn22 cn33 cn37
            l2 l5 l7 l8-l10 l12 l14 l15 l17 l19 l20 l22
             l23 l25 l26 l28-l34 l36-l38 l42-l44
            mt1 mt2 mt5 mt7 mt10 mt13 mt17 mt19 mt24;
             USEVARIABLES ch2 ch6-ch9 ch12 ch14-ch17 ch19 ch23 ch24 ch27
           ch29-ch31 ch33 ch34 ch36-ch40
           cn1 cn2 cn4-cn6 cn8 cn10 cn11
              cn13 cn16 cn19-cn22 cn33 cn37
             l2 l5 l7 l8-l10 l12 l14 l15 l17 l19 l20 l22
             l23 l25 l26 l28-l34 l36-l38 l42-l44
             mt1 mt2 mt5 mt7 mt10 mt13 mt17 mt19 mt24;
MODEL:
          GERAL BY ch2 ch6-ch9 ch12 ch14-ch17 ch19 ch23 ch24 ch27
           ch29-ch31 ch33 ch34 ch36-ch40
           cn1 cn2 cn4-cn6 cn8 cn10 cn11
              cn13 cn16 cn19-cn22 cn33 cn37
            l2 l5 l7 l8-l10 l12 l14 l15 l17 l19 l20 l22
             l23 l25 l26 l28-l34 l36-l38 l42-l44
            mt1 mt2 mt5 mt7 mt10 mt13 mt17 mt19 mt24;
         

OUTPUT: STANDARDIZED;






