TITLE:	ENEM 2011
DATA:	FILE IS DATA.txt;
VARIABLE:	NAMES ARE cn1-cn45 ch1-ch15 l1-l10 l12-l45 mt1-mt45;
        	CATEGORICAL ARE cn1-cn45;
            USEVARIABLES ARE cn1-cn45;
MODEL:
          CN BY cn1-cn45;
          

OUTPUT: STANDARDIZED;







