Mplus VERSION 5.2
MUTHEN & MUTHEN
06/13/2013   7:21 PM

INPUT INSTRUCTIONS

  TITLE:        ENEM 2011
  DATA:        FILE IS DATA.txt;
  VARIABLE:        NAMES ARE cn1-cn45 ch1-ch45 l1-l10 l12-l45 mt1-mt45;
                  CATEGORICAL ARE l2 l5 l7 l8-l10 l12 l14 l15 l17 l19 l20 l22
             l23 l25 l26 l28-l34 l36-l38 l42-l44;
              USEVARIABLES ARE l2 l5 l7 l8-l10 l12 l14 l15 l17 l19 l20 l22
             l23 l25 l26 l28-l34 l36-l38 l42-l44;
  MODEL:
            L BY l2 l5 l7 l8-l10 l12 l14 l15 l17 l19 l20 l22
             l23 l25 l26 l28-l34 l36-l38 l42-l44;


  OUTPUT: STANDARDIZED;










INPUT READING TERMINATED NORMALLY



ENEM 2011

SUMMARY OF ANALYSIS

Number of groups                                                 1
Number of observations                                      288117

Number of dependent variables                                   29
Number of independent variables                                  0
Number of continuous latent variables                            1

Observed dependent variables

  Binary and ordered categorical (ordinal)
   L2          L5          L7          L8          L9          L10
   L12         L14         L15         L17         L19         L20
   L22         L23         L25         L26         L28         L29
   L30         L31         L32         L33         L34         L36
   L37         L38         L42         L43         L44

Continuous latent variables
   L


Estimator                                                    WLSMV
Maximum number of iterations                                  1000
Convergence criterion                                    0.500D-04
Maximum number of steepest descent iterations                   20
Parameterization                                             DELTA

Input data file(s)
  DATA.txt

Input data format  FREE


SUMMARY OF CATEGORICAL DATA PROPORTIONS

    L2
      Category 1    0.349
      Category 2    0.651
    L5
      Category 1    0.452
      Category 2    0.548
    L7
      Category 1    0.059
      Category 2    0.941
    L8
      Category 1    0.704
      Category 2    0.296
    L9
      Category 1    0.673
      Category 2    0.327
    L10
      Category 1    0.280
      Category 2    0.720
    L12
      Category 1    0.371
      Category 2    0.629
    L14
      Category 1    0.459
      Category 2    0.541
    L15
      Category 1    0.226
      Category 2    0.774
    L17
      Category 1    0.203
      Category 2    0.797
    L19
      Category 1    0.592
      Category 2    0.408
    L20
      Category 1    0.379
      Category 2    0.621
    L22
      Category 1    0.687
      Category 2    0.313
    L23
      Category 1    0.474
      Category 2    0.526
    L25
      Category 1    0.520
      Category 2    0.480
    L26
      Category 1    0.423
      Category 2    0.577
    L28
      Category 1    0.408
      Category 2    0.592
    L29
      Category 1    0.570
      Category 2    0.430
    L30
      Category 1    0.492
      Category 2    0.508
    L31
      Category 1    0.578
      Category 2    0.422
    L32
      Category 1    0.756
      Category 2    0.244
    L33
      Category 1    0.602
      Category 2    0.398
    L34
      Category 1    0.586
      Category 2    0.414
    L36
      Category 1    0.553
      Category 2    0.447
    L37
      Category 1    0.433
      Category 2    0.567
    L38
      Category 1    0.478
      Category 2    0.522
    L42
      Category 1    0.687
      Category 2    0.313
    L43
      Category 1    0.679
      Category 2    0.321
    L44
      Category 1    0.641
      Category 2    0.359



THE MODEL ESTIMATION TERMINATED NORMALLY



TESTS OF MODEL FIT

Chi-Square Test of Model Fit

          Value                          35626.720*
          Degrees of Freedom                   368**
          P-Value                           0.0000

*   The chi-square value for MLM, MLMV, MLR, ULSMV, WLSM and WLSMV cannot be used
    for chi-square difference tests.  MLM, MLR and WLSM chi-square difference
    testing is described in the Mplus Technical Appendices at www.statmodel.com.
    See chi-square difference testing in the index of the Mplus User's Guide.

**  The degrees of freedom for MLMV, ULSMV and WLSMV are estimated according to
    a formula given in the Mplus Technical Appendices at www.statmodel.com.
    See degrees of freedom in the index of the Mplus User's Guide.

Chi-Square Test of Model Fit for the Baseline Model

          Value                         **********
          Degrees of Freedom                   196
          P-Value                           0.0000

CFI/TLI

          CFI                                0.973
          TLI                                0.986

Number of Free Parameters                       58

RMSEA (Root Mean Square Error Of Approximation)

          Estimate                           0.018

WRMR (Weighted Root Mean Square Residual)

          Value                              8.026



MODEL RESULTS

                                                    Two-Tailed
                    Estimate       S.E.  Est./S.E.    P-Value

 L        BY
    L2                 1.000      0.000    999.000    999.000
    L5                 0.984      0.005    191.591      0.000
    L7                 0.842      0.007    125.225      0.000
    L8                 0.728      0.005    135.711      0.000
    L9                 0.800      0.005    148.752      0.000
    L10                1.077      0.005    200.770      0.000
    L12                1.014      0.005    197.139      0.000
    L14                1.011      0.005    190.942      0.000
    L15                1.215      0.006    217.204      0.000
    L17                0.847      0.005    154.816      0.000
    L19                0.845      0.005    163.224      0.000
    L20                1.161      0.005    214.415      0.000
    L22                0.954      0.006    169.959      0.000
    L23                0.803      0.005    159.118      0.000
    L25                0.959      0.005    181.772      0.000
    L26                0.977      0.005    186.904      0.000
    L28                0.814      0.005    163.430      0.000
    L29                1.039      0.005    191.546      0.000
    L30                0.914      0.005    176.817      0.000
    L31                0.792      0.005    152.630      0.000
    L32                0.732      0.006    128.143      0.000
    L33                0.761      0.005    146.975      0.000
    L34                0.811      0.005    155.871      0.000
    L36                0.901      0.005    173.375      0.000
    L37                0.900      0.005    173.956      0.000
    L38                0.901      0.005    174.990      0.000
    L42                0.779      0.005    142.695      0.000
    L43                0.896      0.006    162.145      0.000
    L44                0.750      0.005    141.894      0.000

 Thresholds
    L2$1              -0.388      0.002   -161.822      0.000
    L5$1              -0.121      0.002    -51.637      0.000
    L7$1              -1.562      0.004   -418.651      0.000
    L8$1               0.535      0.002    217.463      0.000
    L9$1               0.449      0.002    185.445      0.000
    L10$1             -0.582      0.002   -234.240      0.000
    L12$1             -0.328      0.002   -137.895      0.000
    L14$1             -0.104      0.002    -44.405      0.000
    L15$1             -0.753      0.003   -290.552      0.000
    L17$1             -0.829      0.003   -312.799      0.000
    L19$1              0.233      0.002     98.675      0.000
    L20$1             -0.309      0.002   -129.962      0.000
    L22$1              0.488      0.002    200.072      0.000
    L23$1             -0.066      0.002    -28.362      0.000
    L25$1              0.050      0.002     21.597      0.000
    L26$1             -0.193      0.002    -82.161      0.000
    L28$1             -0.234      0.002    -99.121      0.000
    L29$1              0.176      0.002     75.008      0.000
    L30$1             -0.019      0.002     -8.065      0.000
    L31$1              0.198      0.002     84.177      0.000
    L32$1              0.693      0.003    271.831      0.000
    L33$1              0.258      0.002    109.184      0.000
    L34$1              0.217      0.002     92.242      0.000
    L36$1              0.134      0.002     57.196      0.000
    L37$1             -0.168      0.002    -71.603      0.000
    L38$1             -0.056      0.002    -24.011      0.000
    L42$1              0.489      0.002    200.351      0.000
    L43$1              0.466      0.002    191.745      0.000
    L44$1              0.360      0.002    150.576      0.000

 Variances
    L                  0.293      0.002    132.865      0.000


IRT PARAMETERIZATION IN TWO-PARAMETER PROBIT METRIC
WHERE THE PROBIT IS DISCRIMINATION*(THETA - DIFFICULTY)

 Item Discriminations

 L        BY
    L2                 0.644      0.003    187.788      0.000
    L5                 0.630      0.003    184.233      0.000
    L7                 0.512      0.005    110.076      0.000
    L8                 0.429      0.003    129.617      0.000
    L9                 0.481      0.003    141.825      0.000
    L10                0.718      0.004    191.702      0.000
    L12                0.657      0.003    189.349      0.000
    L14                0.655      0.004    184.090      0.000
    L15                0.873      0.004    201.369      0.000
    L17                0.516      0.004    146.902      0.000
    L19                0.515      0.003    156.943      0.000
    L20                0.809      0.004    206.233      0.000
    L22                0.603      0.004    157.261      0.000
    L23                0.483      0.003    156.495      0.000
    L25                0.608      0.003    177.196      0.000
    L26                0.623      0.003    182.726      0.000
    L28                0.491      0.003    161.242      0.000
    L29                0.680      0.004    182.354      0.000
    L30                0.570      0.003    173.569      0.000
    L31                0.475      0.003    150.096      0.000
    L32                0.432      0.004    120.802      0.000
    L33                0.452      0.003    143.195      0.000
    L34                0.489      0.003    152.820      0.000
    L36                0.559      0.003    168.279      0.000
    L37                0.558      0.003    171.491      0.000
    L38                0.559      0.003    172.354      0.000
    L42                0.465      0.003    136.537      0.000
    L43                0.555      0.004    153.058      0.000
    L44                0.445      0.003    138.345      0.000

 Item Difficulties
    L2$1              -0.717      0.005   -133.557      0.000
    L5$1              -0.227      0.005    -50.161      0.000
    L7$1              -3.425      0.027   -126.636      0.000
    L8$1               1.357      0.011    123.738      0.000
    L9$1               1.037      0.008    126.234      0.000
    L10$1             -0.997      0.006   -173.781      0.000
    L12$1             -0.598      0.005   -119.595      0.000
    L14$1             -0.190      0.004    -43.527      0.000
    L15$1             -1.145      0.005   -210.757      0.000
    L17$1             -1.808      0.012   -154.074      0.000
    L19$1              0.508      0.006     88.485      0.000
    L20$1             -0.491      0.004   -117.980      0.000
    L22$1              0.944      0.007    145.269      0.000
    L23$1             -0.152      0.005    -27.985      0.000
    L25$1              0.097      0.005     21.577      0.000
    L26$1             -0.365      0.005    -77.246      0.000
    L28$1             -0.530      0.006    -87.168      0.000
    L29$1              0.313      0.004     72.698      0.000
    L30$1             -0.038      0.005     -8.052      0.000
    L31$1              0.461      0.006     76.682      0.000
    L32$1              1.748      0.014    125.125      0.000
    L33$1              0.626      0.007     92.465      0.000
    L34$1              0.495      0.006     82.810      0.000
    L36$1              0.275      0.005     55.369      0.000
    L37$1             -0.345      0.005    -67.502      0.000
    L38$1             -0.115      0.005    -23.810      0.000
    L42$1              1.159      0.009    127.002      0.000
    L43$1              0.960      0.007    137.657      0.000
    L44$1              0.886      0.008    110.882      0.000

 Variances
    L                  1.000      0.000      0.000      1.000


STANDARDIZED MODEL RESULTS


STDYX Standardization

                                                    Two-Tailed
                    Estimate       S.E.  Est./S.E.    P-Value

 L        BY
    L2                 0.542      0.002    265.730      0.000
    L5                 0.533      0.002    257.307      0.000
    L7                 0.456      0.003    138.977      0.000
    L8                 0.394      0.003    153.461      0.000
    L9                 0.433      0.002    174.627      0.000
    L10                0.583      0.002    290.632      0.000
    L12                0.549      0.002    271.090      0.000
    L14                0.548      0.002    262.999      0.000
    L15                0.658      0.002    354.970      0.000
    L17                0.459      0.002    186.053      0.000
    L19                0.458      0.002    198.565      0.000
    L20                0.629      0.002    341.158      0.000
    L22                0.517      0.002    214.523      0.000
    L23                0.435      0.002    193.048      0.000
    L25                0.519      0.002    242.669      0.000
    L26                0.529      0.002    253.698      0.000
    L28                0.441      0.002    200.104      0.000
    L29                0.563      0.002    266.790      0.000
    L30                0.495      0.002    229.903      0.000
    L31                0.429      0.002    183.939      0.000
    L32                0.397      0.003    143.361      0.000
    L33                0.412      0.002    172.468      0.000
    L34                0.439      0.002    189.315      0.000
    L36                0.488      0.002    220.899      0.000
    L37                0.487      0.002    224.863      0.000
    L38                0.488      0.002    226.264      0.000
    L42                0.422      0.003    166.071      0.000
    L43                0.485      0.002    200.177      0.000
    L44                0.406      0.002    165.680      0.000

 Thresholds
    L2$1              -0.388      0.002   -161.822      0.000
    L5$1              -0.121      0.002    -51.637      0.000
    L7$1              -1.562      0.004   -418.651      0.000
    L8$1               0.535      0.002    217.463      0.000
    L9$1               0.449      0.002    185.445      0.000
    L10$1             -0.582      0.002   -234.240      0.000
    L12$1             -0.328      0.002   -137.895      0.000
    L14$1             -0.104      0.002    -44.405      0.000
    L15$1             -0.753      0.003   -290.552      0.000
    L17$1             -0.829      0.003   -312.799      0.000
    L19$1              0.233      0.002     98.675      0.000
    L20$1             -0.309      0.002   -129.962      0.000
    L22$1              0.488      0.002    200.072      0.000
    L23$1             -0.066      0.002    -28.362      0.000
    L25$1              0.050      0.002     21.597      0.000
    L26$1             -0.193      0.002    -82.161      0.000
    L28$1             -0.234      0.002    -99.121      0.000
    L29$1              0.176      0.002     75.008      0.000
    L30$1             -0.019      0.002     -8.065      0.000
    L31$1              0.198      0.002     84.177      0.000
    L32$1              0.693      0.003    271.831      0.000
    L33$1              0.258      0.002    109.184      0.000
    L34$1              0.217      0.002     92.242      0.000
    L36$1              0.134      0.002     57.196      0.000
    L37$1             -0.168      0.002    -71.603      0.000
    L38$1             -0.056      0.002    -24.011      0.000
    L42$1              0.489      0.002    200.351      0.000
    L43$1              0.466      0.002    191.745      0.000
    L44$1              0.360      0.002    150.576      0.000

 Variances
    L                  1.000      0.000    999.000    999.000


STDY Standardization

                                                    Two-Tailed
                    Estimate       S.E.  Est./S.E.    P-Value

 L        BY
    L2                 0.542      0.002    265.730      0.000
    L5                 0.533      0.002    257.307      0.000
    L7                 0.456      0.003    138.977      0.000
    L8                 0.394      0.003    153.461      0.000
    L9                 0.433      0.002    174.627      0.000
    L10                0.583      0.002    290.632      0.000
    L12                0.549      0.002    271.090      0.000
    L14                0.548      0.002    262.999      0.000
    L15                0.658      0.002    354.970      0.000
    L17                0.459      0.002    186.053      0.000
    L19                0.458      0.002    198.565      0.000
    L20                0.629      0.002    341.158      0.000
    L22                0.517      0.002    214.523      0.000
    L23                0.435      0.002    193.048      0.000
    L25                0.519      0.002    242.669      0.000
    L26                0.529      0.002    253.698      0.000
    L28                0.441      0.002    200.104      0.000
    L29                0.563      0.002    266.790      0.000
    L30                0.495      0.002    229.903      0.000
    L31                0.429      0.002    183.939      0.000
    L32                0.397      0.003    143.361      0.000
    L33                0.412      0.002    172.468      0.000
    L34                0.439      0.002    189.315      0.000
    L36                0.488      0.002    220.899      0.000
    L37                0.487      0.002    224.863      0.000
    L38                0.488      0.002    226.264      0.000
    L42                0.422      0.003    166.071      0.000
    L43                0.485      0.002    200.177      0.000
    L44                0.406      0.002    165.680      0.000

 Thresholds
    L2$1              -0.388      0.002   -161.822      0.000
    L5$1              -0.121      0.002    -51.637      0.000
    L7$1              -1.562      0.004   -418.651      0.000
    L8$1               0.535      0.002    217.463      0.000
    L9$1               0.449      0.002    185.445      0.000
    L10$1             -0.582      0.002   -234.240      0.000
    L12$1             -0.328      0.002   -137.895      0.000
    L14$1             -0.104      0.002    -44.405      0.000
    L15$1             -0.753      0.003   -290.552      0.000
    L17$1             -0.829      0.003   -312.799      0.000
    L19$1              0.233      0.002     98.675      0.000
    L20$1             -0.309      0.002   -129.962      0.000
    L22$1              0.488      0.002    200.072      0.000
    L23$1             -0.066      0.002    -28.362      0.000
    L25$1              0.050      0.002     21.597      0.000
    L26$1             -0.193      0.002    -82.161      0.000
    L28$1             -0.234      0.002    -99.121      0.000
    L29$1              0.176      0.002     75.008      0.000
    L30$1             -0.019      0.002     -8.065      0.000
    L31$1              0.198      0.002     84.177      0.000
    L32$1              0.693      0.003    271.831      0.000
    L33$1              0.258      0.002    109.184      0.000
    L34$1              0.217      0.002     92.242      0.000
    L36$1              0.134      0.002     57.196      0.000
    L37$1             -0.168      0.002    -71.603      0.000
    L38$1             -0.056      0.002    -24.011      0.000
    L42$1              0.489      0.002    200.351      0.000
    L43$1              0.466      0.002    191.745      0.000
    L44$1              0.360      0.002    150.576      0.000

 Variances
    L                  1.000      0.000    999.000    999.000


STD Standardization

                                                    Two-Tailed
                    Estimate       S.E.  Est./S.E.    P-Value

 L        BY
    L2                 0.542      0.002    265.730      0.000
    L5                 0.533      0.002    257.307      0.000
    L7                 0.456      0.003    138.977      0.000
    L8                 0.394      0.003    153.461      0.000
    L9                 0.433      0.002    174.627      0.000
    L10                0.583      0.002    290.632      0.000
    L12                0.549      0.002    271.090      0.000
    L14                0.548      0.002    262.999      0.000
    L15                0.658      0.002    354.970      0.000
    L17                0.459      0.002    186.053      0.000
    L19                0.458      0.002    198.565      0.000
    L20                0.629      0.002    341.158      0.000
    L22                0.517      0.002    214.523      0.000
    L23                0.435      0.002    193.048      0.000
    L25                0.519      0.002    242.669      0.000
    L26                0.529      0.002    253.698      0.000
    L28                0.441      0.002    200.104      0.000
    L29                0.563      0.002    266.790      0.000
    L30                0.495      0.002    229.903      0.000
    L31                0.429      0.002    183.939      0.000
    L32                0.397      0.003    143.361      0.000
    L33                0.412      0.002    172.468      0.000
    L34                0.439      0.002    189.315      0.000
    L36                0.488      0.002    220.899      0.000
    L37                0.487      0.002    224.863      0.000
    L38                0.488      0.002    226.264      0.000
    L42                0.422      0.003    166.071      0.000
    L43                0.485      0.002    200.177      0.000
    L44                0.406      0.002    165.680      0.000

 Thresholds
    L2$1              -0.388      0.002   -161.822      0.000
    L5$1              -0.121      0.002    -51.637      0.000
    L7$1              -1.562      0.004   -418.651      0.000
    L8$1               0.535      0.002    217.463      0.000
    L9$1               0.449      0.002    185.445      0.000
    L10$1             -0.582      0.002   -234.240      0.000
    L12$1             -0.328      0.002   -137.895      0.000
    L14$1             -0.104      0.002    -44.405      0.000
    L15$1             -0.753      0.003   -290.552      0.000
    L17$1             -0.829      0.003   -312.799      0.000
    L19$1              0.233      0.002     98.675      0.000
    L20$1             -0.309      0.002   -129.962      0.000
    L22$1              0.488      0.002    200.072      0.000
    L23$1             -0.066      0.002    -28.362      0.000
    L25$1              0.050      0.002     21.597      0.000
    L26$1             -0.193      0.002    -82.161      0.000
    L28$1             -0.234      0.002    -99.121      0.000
    L29$1              0.176      0.002     75.008      0.000
    L30$1             -0.019      0.002     -8.065      0.000
    L31$1              0.198      0.002     84.177      0.000
    L32$1              0.693      0.003    271.831      0.000
    L33$1              0.258      0.002    109.184      0.000
    L34$1              0.217      0.002     92.242      0.000
    L36$1              0.134      0.002     57.196      0.000
    L37$1             -0.168      0.002    -71.603      0.000
    L38$1             -0.056      0.002    -24.011      0.000
    L42$1              0.489      0.002    200.351      0.000
    L43$1              0.466      0.002    191.745      0.000
    L44$1              0.360      0.002    150.576      0.000

 Variances
    L                  1.000      0.000    999.000    999.000


R-SQUARE

    Observed                                        Two-Tailed   Residual
    Variable        Estimate       S.E.  Est./S.E.    P-Value    Variance

    L2                 0.293      0.002    132.865      0.000      0.707
    L5                 0.284      0.002    128.653      0.000      0.716
    L7                 0.208      0.003     69.489      0.000      0.792
    L8                 0.155      0.002     76.731      0.000      0.845
    L9                 0.188      0.002     87.314      0.000      0.812
    L10                0.340      0.002    145.316      0.000      0.660
    L12                0.302      0.002    135.545      0.000      0.698
    L14                0.300      0.002    131.499      0.000      0.700
    L15                0.433      0.002    177.485      0.000      0.567
    L17                0.210      0.002     93.027      0.000      0.790
    L19                0.210      0.002     99.283      0.000      0.790
    L20                0.395      0.002    170.579      0.000      0.605
    L22                0.267      0.002    107.261      0.000      0.733
    L23                0.189      0.002     96.524      0.000      0.811
    L25                0.270      0.002    121.335      0.000      0.730
    L26                0.280      0.002    126.849      0.000      0.720
    L28                0.194      0.002    100.052      0.000      0.806
    L29                0.316      0.002    133.395      0.000      0.684
    L30                0.245      0.002    114.951      0.000      0.755
    L31                0.184      0.002     91.969      0.000      0.816
    L32                0.157      0.002     71.681      0.000      0.843
    L33                0.170      0.002     86.234      0.000      0.830
    L34                0.193      0.002     94.657      0.000      0.807
    L36                0.238      0.002    110.450      0.000      0.762
    L37                0.237      0.002    112.432      0.000      0.763
    L38                0.238      0.002    113.132      0.000      0.762
    L42                0.178      0.002     83.035      0.000      0.822
    L43                0.235      0.002    100.089      0.000      0.765
    L44                0.165      0.002     82.840      0.000      0.835


QUALITY OF NUMERICAL RESULTS

     Condition Number for the Information Matrix              0.281E-03
       (ratio of smallest to largest eigenvalue)


     Beginning Time:  19:21:58
        Ending Time:  19:24:07
       Elapsed Time:  00:02:09



MUTHEN & MUTHEN
3463 Stoner Ave.
Los Angeles, CA  90066

Tel: (310) 391-9971
Fax: (310) 391-8971
Web: www.StatModel.com
Support: Support@StatModel.com

Copyright (c) 1998-2008 Muthen & Muthen
